EESchema Schematic File Version 4
EELAYER 30 0
EELAYER END
$Descr A3 16535 11693
encoding utf-8
Sheet 1 1
Title ""
Date ""
Rev ""
Comp ""
Comment1 ""
Comment2 ""
Comment3 ""
Comment4 ""
$EndDescr
Text Notes 7000 8300 0    50   ~ 0
x
Text Notes 7000 8100 0    50   ~ 0
x
Text Notes 1570 5810 0    129  ~ 0
BOOTLOADER
Text Notes 1550 8800 0    129  ~ 0
TLAČÍTKA, PULL-UP REZISTORY
Wire Wire Line
	1700 6750 1700 7100
Wire Wire Line
	1700 7450 1700 7200
Wire Wire Line
	1700 7850 1700 8100
Wire Wire Line
	1700 8100 1950 8100
Wire Wire Line
	1700 6350 1700 6100
Wire Wire Line
	1700 6100 1950 6100
$Comp
L Device:R R4
U 1 1 5E71225F
P 2200 7650
F 0 "R4" V 1993 7650 50  0000 C CNN
F 1 "10K" V 2084 7650 50  0000 C CNN
F 2 "Resistor_SMD:R_0603_1608Metric_Pad1.05x0.95mm_HandSolder" V 2130 7650 50  0001 C CNN
F 3 "~" H 2200 7650 50  0001 C CNN
	1    2200 7650
	0    1    1    0   
$EndComp
$Comp
L Device:R R3
U 1 1 5E712950
P 2200 6550
F 0 "R3" V 1993 6550 50  0000 C CNN
F 1 "10K" V 2084 6550 50  0000 C CNN
F 2 "Resistor_SMD:R_0603_1608Metric_Pad1.05x0.95mm_HandSolder" V 2130 6550 50  0001 C CNN
F 3 "~" H 2200 6550 50  0001 C CNN
	1    2200 6550
	0    1    1    0   
$EndComp
Wire Wire Line
	2000 7650 2050 7650
Wire Wire Line
	2000 6550 2050 6550
Wire Wire Line
	2350 7650 2550 7650
Wire Wire Line
	2350 6550 2650 6550
Wire Wire Line
	2650 7200 2650 6550
Wire Wire Line
	1700 7200 2650 7200
Connection ~ 2650 6550
Wire Wire Line
	2650 6550 3200 6550
Wire Wire Line
	2550 7100 2550 7650
Wire Wire Line
	1700 7100 2550 7100
Connection ~ 2550 7650
Wire Wire Line
	2550 7650 3200 7650
Text Label 1950 6100 2    50   ~ 0
EN
Text Label 3200 6550 2    50   ~ 0
DTR
Text Label 3200 7650 2    50   ~ 0
RTS
Wire Wire Line
	1300 9450 1050 9450
Wire Wire Line
	1050 9450 1050 9700
$Comp
L Device:R R1
U 1 1 5E714BD2
P 1050 9850
F 0 "R1" H 1120 9896 50  0000 L CNN
F 1 "10K" H 1120 9805 50  0000 L CNN
F 2 "Resistor_SMD:R_0603_1608Metric_Pad1.05x0.95mm_HandSolder" V 980 9850 50  0001 C CNN
F 3 "~" H 1050 9850 50  0001 C CNN
	1    1050 9850
	1    0    0    -1  
$EndComp
Wire Wire Line
	1050 10000 1050 10250
Text Label 1300 9450 2    50   ~ 0
IO2
Wire Wire Line
	1500 9450 1500 9700
$Comp
L Device:R R2
U 1 1 5E717803
P 1500 9850
F 0 "R2" H 1570 9896 50  0000 L CNN
F 1 "10K" H 1570 9805 50  0000 L CNN
F 2 "Resistor_SMD:R_0603_1608Metric_Pad1.05x0.95mm_HandSolder" V 1430 9850 50  0001 C CNN
F 3 "~" H 1500 9850 50  0001 C CNN
	1    1500 9850
	1    0    0    -1  
$EndComp
Wire Wire Line
	1500 10000 1500 10250
Wire Wire Line
	1500 10250 1750 10250
$Comp
L power:GND #PWR0101
U 1 1 5E71A814
P 1050 10250
F 0 "#PWR0101" H 1050 10000 50  0001 C CNN
F 1 "GND" H 1055 10077 50  0000 C CNN
F 2 "" H 1050 10250 50  0001 C CNN
F 3 "" H 1050 10250 50  0001 C CNN
	1    1050 10250
	1    0    0    -1  
$EndComp
Text Label 1750 10250 2    50   ~ 0
TX0
Wire Wire Line
	1950 9450 1950 9700
$Comp
L Device:R R5
U 1 1 5E71C6D1
P 1950 9850
F 0 "R5" H 2020 9896 50  0000 L CNN
F 1 "10K" H 2020 9805 50  0000 L CNN
F 2 "Resistor_SMD:R_0603_1608Metric_Pad1.05x0.95mm_HandSolder" V 1880 9850 50  0001 C CNN
F 3 "~" H 1950 9850 50  0001 C CNN
	1    1950 9850
	1    0    0    -1  
$EndComp
Wire Wire Line
	1950 10000 1950 10250
Wire Wire Line
	1950 10250 2200 10250
Text Label 2200 10250 2    50   ~ 0
IO5
$Comp
L Device:R R6
U 1 1 5E71DFFF
P 2750 9650
F 0 "R6" H 2820 9696 50  0000 L CNN
F 1 "10K" H 2820 9605 50  0000 L CNN
F 2 "Resistor_SMD:R_0603_1608Metric_Pad1.05x0.95mm_HandSolder" V 2680 9650 50  0001 C CNN
F 3 "~" H 2750 9650 50  0001 C CNN
	1    2750 9650
	1    0    0    -1  
$EndComp
Text Label 3000 9850 2    50   ~ 0
EN
$Comp
L Switch:SW_Push SW1
U 1 1 5E7234E3
P 2750 10450
F 0 "SW1" V 2704 10598 50  0000 L CNN
F 1 "SW_RESET" V 2795 10598 50  0000 L CNN
F 2 "zeman:GS-5SWITCH_TS-5" H 2750 10650 50  0001 C CNN
F 3 "~" H 2750 10650 50  0001 C CNN
	1    2750 10450
	0    1    1    0   
$EndComp
$Comp
L power:GND #PWR0102
U 1 1 5E72A55A
P 2750 10700
F 0 "#PWR0102" H 2750 10450 50  0001 C CNN
F 1 "GND" H 2755 10527 50  0000 C CNN
F 2 "" H 2750 10700 50  0001 C CNN
F 3 "" H 2750 10700 50  0001 C CNN
	1    2750 10700
	1    0    0    -1  
$EndComp
$Comp
L Device:C C2
U 1 1 5E72B0E1
P 2450 10050
F 0 "C2" H 2550 10150 50  0000 L CNN
F 1 "100n" H 2500 9950 50  0000 L CNN
F 2 "Capacitor_SMD:C_0603_1608Metric_Pad1.05x0.95mm_HandSolder" H 2488 9900 50  0001 C CNN
F 3 "~" H 2450 10050 50  0001 C CNN
	1    2450 10050
	1    0    0    -1  
$EndComp
Wire Wire Line
	2750 9500 2750 9450
Wire Wire Line
	2450 9850 2750 9850
Wire Wire Line
	2750 9850 2750 9800
Wire Wire Line
	2750 9850 3000 9850
Connection ~ 2750 9850
Wire Wire Line
	2450 10200 2450 10700
Wire Wire Line
	2450 10700 2750 10700
Wire Wire Line
	2750 10700 2750 10650
Wire Wire Line
	2450 9900 2450 9850
Connection ~ 2750 10700
$Comp
L Device:R R8
U 1 1 5E73E07A
P 3650 9650
F 0 "R8" H 3720 9696 50  0000 L CNN
F 1 "10K" H 3720 9605 50  0000 L CNN
F 2 "Resistor_SMD:R_0805_2012Metric_Pad1.15x1.40mm_HandSolder" V 3580 9650 50  0001 C CNN
F 3 "~" H 3650 9650 50  0001 C CNN
	1    3650 9650
	1    0    0    -1  
$EndComp
Text Label 3900 9850 2    50   ~ 0
IO0
$Comp
L Switch:SW_Push SW2
U 1 1 5E73E082
P 3650 10450
F 0 "SW2" V 3604 10598 50  0000 L CNN
F 1 "SW_FLASH" V 3695 10598 50  0000 L CNN
F 2 "zeman:PROBE_SWITCH" H 3650 10650 50  0001 C CNN
F 3 "~" H 3650 10650 50  0001 C CNN
	1    3650 10450
	0    1    1    0   
$EndComp
$Comp
L Device:C C4
U 1 1 5E73E088
P 3350 10050
F 0 "C4" H 3400 10150 50  0000 L CNN
F 1 "1n" H 3400 9950 50  0000 L CNN
F 2 "Capacitor_SMD:C_0402_1005Metric" H 3388 9900 50  0001 C CNN
F 3 "~" H 3350 10050 50  0001 C CNN
	1    3350 10050
	1    0    0    -1  
$EndComp
$Comp
L power:GND #PWR0103
U 1 1 5E73E08E
P 3650 10700
F 0 "#PWR0103" H 3650 10450 50  0001 C CNN
F 1 "GND" H 3655 10527 50  0000 C CNN
F 2 "" H 3650 10700 50  0001 C CNN
F 3 "" H 3650 10700 50  0001 C CNN
	1    3650 10700
	1    0    0    -1  
$EndComp
Wire Wire Line
	3650 9500 3650 9450
Wire Wire Line
	3350 9850 3650 9850
Wire Wire Line
	3650 9850 3650 9800
Wire Wire Line
	3650 9850 3900 9850
Connection ~ 3650 9850
Wire Wire Line
	3350 10200 3350 10700
Wire Wire Line
	3350 10700 3650 10700
Wire Wire Line
	3650 10700 3650 10650
Wire Wire Line
	3350 9900 3350 9850
Connection ~ 3650 10700
$Comp
L power:GND #PWR0104
U 1 1 5E759BF8
P 1900 2500
F 0 "#PWR0104" H 1900 2250 50  0001 C CNN
F 1 "GND" H 1905 2327 50  0000 C CNN
F 2 "" H 1900 2500 50  0001 C CNN
F 3 "" H 1900 2500 50  0001 C CNN
	1    1900 2500
	1    0    0    -1  
$EndComp
$Comp
L Device:D_Schottky D1
U 1 1 5E75BD4C
P 1950 1700
F 0 "D1" H 1950 1484 50  0000 C CNN
F 1 "BAS40-02V" H 1950 1575 50  0000 C CNN
F 2 "Diode_SMD:D_SOD-523" H 1950 1700 50  0001 C CNN
F 3 "~" H 1950 1700 50  0001 C CNN
	1    1950 1700
	-1   0    0    1   
$EndComp
Text Label 3600 1900 2    50   ~ 0
D+
Text Label 3600 1800 2    50   ~ 0
D-
Text Label 2800 1700 2    50   ~ 0
VBUS_USB
Wire Wire Line
	4600 2550 4200 2550
Wire Wire Line
	4600 2350 4200 2350
$Comp
L Device:C C6
U 1 1 5E779F6D
P 4000 3600
F 0 "C6" H 4050 3750 50  0000 L CNN
F 1 "100n" H 4050 3500 50  0000 L CNN
F 2 "Capacitor_SMD:C_0603_1608Metric_Pad1.05x0.95mm_HandSolder" H 4038 3450 50  0001 C CNN
F 3 "~" H 4000 3600 50  0001 C CNN
	1    4000 3600
	1    0    0    -1  
$EndComp
$Comp
L Device:C C5
U 1 1 5E77CA15
P 3650 3600
F 0 "C5" H 3750 3700 50  0000 L CNN
F 1 "10u" H 3700 3500 50  0000 L CNN
F 2 "Capacitor_SMD:C_0805_2012Metric_Pad1.15x1.40mm_HandSolder" H 3688 3450 50  0001 C CNN
F 3 "~" H 3650 3600 50  0001 C CNN
	1    3650 3600
	1    0    0    -1  
$EndComp
Wire Wire Line
	4000 3350 4000 3450
Wire Wire Line
	4000 3350 4600 3350
Wire Wire Line
	4000 3350 3650 3350
Wire Wire Line
	3650 3350 3650 3450
Connection ~ 4000 3350
Wire Wire Line
	3650 3750 3650 3800
Wire Wire Line
	4000 3750 4000 3800
$Comp
L power:GND #PWR0105
U 1 1 5E78153F
P 3650 3800
F 0 "#PWR0105" H 3650 3550 50  0001 C CNN
F 1 "GND" H 3655 3627 50  0000 C CNN
F 2 "" H 3650 3800 50  0001 C CNN
F 3 "" H 3650 3800 50  0001 C CNN
	1    3650 3800
	1    0    0    -1  
$EndComp
$Comp
L power:GND #PWR0106
U 1 1 5E782260
P 4000 3800
F 0 "#PWR0106" H 4000 3550 50  0001 C CNN
F 1 "GND" H 4005 3627 50  0000 C CNN
F 2 "" H 4000 3800 50  0001 C CNN
F 3 "" H 4000 3800 50  0001 C CNN
	1    4000 3800
	1    0    0    -1  
$EndComp
Wire Wire Line
	4600 3550 4200 3550
Text Label 4200 3550 0    50   ~ 0
RSTb
$Comp
L Device:C C1
U 1 1 5E793133
P 2550 3600
F 0 "C1" H 2650 3700 50  0000 L CNN
F 1 "10u" H 2600 3500 50  0000 L CNN
F 2 "Capacitor_SMD:C_0805_2012Metric_Pad1.15x1.40mm_HandSolder" H 2588 3450 50  0001 C CNN
F 3 "~" H 2550 3600 50  0001 C CNN
	1    2550 3600
	1    0    0    -1  
$EndComp
$Comp
L Device:C C3
U 1 1 5E793854
P 2950 3600
F 0 "C3" H 3000 3750 50  0000 L CNN
F 1 "100n" H 3000 3500 50  0000 L CNN
F 2 "Capacitor_SMD:C_0603_1608Metric_Pad1.05x0.95mm_HandSolder" H 2988 3450 50  0001 C CNN
F 3 "~" H 2950 3600 50  0001 C CNN
	1    2950 3600
	1    0    0    -1  
$EndComp
Wire Wire Line
	2550 3150 2550 3450
Wire Wire Line
	2550 3150 2950 3150
Wire Wire Line
	2950 3450 2950 3150
Connection ~ 2950 3150
Wire Wire Line
	2550 3750 2550 3800
Wire Wire Line
	2950 3800 2950 3750
$Comp
L power:GND #PWR0107
U 1 1 5E79ADE2
P 2950 3800
F 0 "#PWR0107" H 2950 3550 50  0001 C CNN
F 1 "GND" H 2955 3627 50  0000 C CNN
F 2 "" H 2950 3800 50  0001 C CNN
F 3 "" H 2950 3800 50  0001 C CNN
	1    2950 3800
	1    0    0    -1  
$EndComp
$Comp
L power:GND #PWR0108
U 1 1 5E79B65A
P 2550 3800
F 0 "#PWR0108" H 2550 3550 50  0001 C CNN
F 1 "GND" H 2555 3627 50  0000 C CNN
F 2 "" H 2550 3800 50  0001 C CNN
F 3 "" H 2550 3800 50  0001 C CNN
	1    2550 3800
	1    0    0    -1  
$EndComp
Wire Wire Line
	2950 3150 4250 3150
Wire Wire Line
	4600 2950 4450 2950
Wire Wire Line
	4450 2950 4450 3150
Connection ~ 4450 3150
Wire Wire Line
	4450 3150 4600 3150
Wire Wire Line
	4250 2750 4250 3150
Wire Wire Line
	4250 2750 4600 2750
Connection ~ 4250 3150
Wire Wire Line
	4250 3150 4450 3150
Text Label 4200 2350 0    50   ~ 0
D+
Text Label 4200 2550 0    50   ~ 0
D-
Wire Wire Line
	4600 2150 3800 2150
Wire Wire Line
	3800 2150 3800 2350
$Comp
L power:GND #PWR0109
U 1 1 5E7A6ACF
P 3800 2350
F 0 "#PWR0109" H 3800 2100 50  0001 C CNN
F 1 "GND" H 3805 2177 50  0000 C CNN
F 2 "" H 3800 2350 50  0001 C CNN
F 3 "" H 3800 2350 50  0001 C CNN
	1    3800 2350
	1    0    0    -1  
$EndComp
$Comp
L Power_Protection:SP0503BAHT D2
U 1 1 5E7A908B
P 2350 2250
F 0 "D2" H 2555 2296 50  0000 L CNN
F 1 "SP0503BAHT" H 2555 2205 50  0000 L CNN
F 2 "zeman:SP0503" H 2575 2200 50  0001 L CNN
F 3 "http://www.littelfuse.com/~/media/files/littelfuse/technical%20resources/documents/data%20sheets/sp05xxba.pdf" H 2475 2375 50  0001 C CNN
	1    2350 2250
	1    0    0    -1  
$EndComp
$Comp
L power:GND #PWR0110
U 1 1 5E7AA98B
P 2350 2500
F 0 "#PWR0110" H 2350 2250 50  0001 C CNN
F 1 "GND" H 2355 2327 50  0000 C CNN
F 2 "" H 2350 2500 50  0001 C CNN
F 3 "" H 2350 2500 50  0001 C CNN
	1    2350 2500
	1    0    0    -1  
$EndComp
Wire Wire Line
	2350 2450 2350 2500
Wire Wire Line
	2100 1700 2250 1700
Wire Wire Line
	2250 2050 2250 1700
Wire Wire Line
	2350 1800 2350 2050
Wire Wire Line
	2450 2050 2450 1900
Wire Wire Line
	2250 1700 2800 1700
Connection ~ 2250 1700
Connection ~ 2350 1800
Connection ~ 2450 1900
Text Label 7450 9450 2    50   ~ 0
RX0
Text Label 7450 9650 2    50   ~ 0
TX0
Wire Wire Line
	6950 9650 7450 9650
Wire Wire Line
	7450 9450 6950 9450
$Comp
L Device:C C8
U 1 1 5E7FC22D
P 4800 7350
F 0 "C8" H 4900 7450 50  0000 L CNN
F 1 "10u" H 4850 7250 50  0000 L CNN
F 2 "Capacitor_SMD:C_0805_2012Metric_Pad1.15x1.40mm_HandSolder" H 4838 7200 50  0001 C CNN
F 3 "~" H 4800 7350 50  0001 C CNN
	1    4800 7350
	1    0    0    -1  
$EndComp
$Comp
L Device:C C9
U 1 1 5E7FC233
P 5200 7350
F 0 "C9" H 5250 7500 50  0000 L CNN
F 1 "100n" H 5250 7250 50  0000 L CNN
F 2 "Capacitor_SMD:C_0603_1608Metric_Pad1.05x0.95mm_HandSolder" H 5238 7200 50  0001 C CNN
F 3 "~" H 5200 7350 50  0001 C CNN
	1    5200 7350
	1    0    0    -1  
$EndComp
Wire Wire Line
	4800 6900 4800 7200
Wire Wire Line
	4800 6900 5200 6900
Wire Wire Line
	5200 7200 5200 6900
Wire Wire Line
	4800 7500 4800 7550
Wire Wire Line
	5200 7550 5200 7500
$Comp
L power:GND #PWR0111
U 1 1 5E7FC23F
P 5200 7550
F 0 "#PWR0111" H 5200 7300 50  0001 C CNN
F 1 "GND" H 5205 7377 50  0000 C CNN
F 2 "" H 5200 7550 50  0001 C CNN
F 3 "" H 5200 7550 50  0001 C CNN
	1    5200 7550
	1    0    0    -1  
$EndComp
$Comp
L power:GND #PWR0112
U 1 1 5E7FC245
P 4800 7550
F 0 "#PWR0112" H 4800 7300 50  0001 C CNN
F 1 "GND" H 4805 7377 50  0000 C CNN
F 2 "" H 4800 7550 50  0001 C CNN
F 3 "" H 4800 7550 50  0001 C CNN
	1    4800 7550
	1    0    0    -1  
$EndComp
Connection ~ 4800 6900
Wire Wire Line
	5850 7100 5450 7100
Text Label 5450 7100 0    50   ~ 0
EN
Wire Wire Line
	6950 10450 7100 10450
$Comp
L power:GND #PWR0113
U 1 1 5E80E5AC
P 7100 10700
F 0 "#PWR0113" H 7100 10450 50  0001 C CNN
F 1 "GND" H 7105 10527 50  0000 C CNN
F 2 "" H 7100 10700 50  0001 C CNN
F 3 "" H 7100 10700 50  0001 C CNN
	1    7100 10700
	1    0    0    -1  
$EndComp
Wire Wire Line
	6950 10250 7100 10250
Wire Wire Line
	7100 10250 7100 10450
Connection ~ 7100 10450
Wire Wire Line
	7100 10450 7100 10700
$Comp
L power:GND #PWR0114
U 1 1 5E819A13
P 5500 6750
F 0 "#PWR0114" H 5500 6500 50  0001 C CNN
F 1 "GND" H 5600 6650 50  0000 C CNN
F 2 "" H 5500 6750 50  0001 C CNN
F 3 "" H 5500 6750 50  0001 C CNN
	1    5500 6750
	1    0    0    -1  
$EndComp
Wire Wire Line
	5850 6700 5500 6700
Wire Wire Line
	5500 6700 5500 6750
Wire Wire Line
	5200 6900 5850 6900
Connection ~ 5200 6900
$Comp
L Device:R R10
U 1 1 5E8565E6
P 4550 10100
F 0 "R10" H 4620 10146 50  0000 L CNN
F 1 "10K" H 4620 10055 50  0000 L CNN
F 2 "Resistor_SMD:R_0805_2012Metric_Pad1.15x1.40mm_HandSolder" V 4480 10100 50  0001 C CNN
F 3 "~" H 4550 10100 50  0001 C CNN
	1    4550 10100
	1    0    0    -1  
$EndComp
$Comp
L Switch:SW_Push SW3
U 1 1 5E8565EE
P 4550 9550
F 0 "SW3" V 4504 9698 50  0000 L CNN
F 1 "SW_SLEEP" V 4595 9698 50  0000 L CNN
F 2 "zeman:GS-5SWITCH_TS-5" H 4550 9750 50  0001 C CNN
F 3 "~" H 4550 9750 50  0001 C CNN
	1    4550 9550
	0    1    1    0   
$EndComp
$Comp
L Device:C C7
U 1 1 5E8565F4
P 4250 10100
F 0 "C7" H 4300 10200 50  0000 L CNN
F 1 "1n" H 4300 10000 50  0000 L CNN
F 2 "Capacitor_SMD:C_0402_1005Metric" H 4288 9950 50  0001 C CNN
F 3 "~" H 4250 10100 50  0001 C CNN
	1    4250 10100
	1    0    0    -1  
$EndComp
$Comp
L Device:R R14
U 1 1 5E856600
P 14950 2950
F 0 "R14" V 14850 3100 50  0000 C CNN
F 1 "680" V 14850 2850 50  0000 C CNN
F 2 "Resistor_SMD:R_0603_1608Metric_Pad1.05x0.95mm_HandSolder" V 14880 2950 50  0001 C CNN
F 3 "~" H 14950 2950 50  0001 C CNN
	1    14950 2950
	0    -1   1    0   
$EndComp
Wire Wire Line
	4250 9850 4550 9850
Wire Wire Line
	4550 9750 4550 9850
Wire Wire Line
	4550 9250 4550 9350
Connection ~ 4550 9850
$Comp
L power:GND #PWR0115
U 1 1 5E8565FA
P 4550 10700
F 0 "#PWR0115" H 4550 10450 50  0001 C CNN
F 1 "GND" H 4555 10527 50  0000 C CNN
F 2 "" H 4550 10700 50  0001 C CNN
F 3 "" H 4550 10700 50  0001 C CNN
	1    4550 10700
	1    0    0    -1  
$EndComp
Wire Wire Line
	4550 10250 4550 10700
Wire Wire Line
	4250 9950 4250 9850
Wire Wire Line
	4550 10700 4250 10700
Wire Wire Line
	4250 10700 4250 10250
Connection ~ 4550 10700
Wire Wire Line
	4550 9950 4550 9850
Text Label 5050 9850 2    50   ~ 0
SLEEP
Wire Wire Line
	4550 9850 5050 9850
Text Notes 1950 10350 0    50   ~ 0
cs spi pin
Text Label 7450 9300 2    50   ~ 0
SPI_CS
Text Label 7450 8900 2    50   ~ 0
SPI_MISO
Text Label 7450 8700 2    50   ~ 0
SPI_SCK
$Comp
L Device:R R15
U 1 1 5E8B7869
P 14950 3150
F 0 "R15" V 14850 3300 50  0000 C CNN
F 1 "680" V 14850 3050 50  0000 C CNN
F 2 "Resistor_SMD:R_0603_1608Metric_Pad1.05x0.95mm_HandSolder" V 14880 3150 50  0001 C CNN
F 3 "~" H 14950 3150 50  0001 C CNN
	1    14950 3150
	0    -1   1    0   
$EndComp
$Comp
L Device:R R16
U 1 1 5E8B7BEF
P 14950 3350
F 0 "R16" V 14850 3500 50  0000 C CNN
F 1 "680" V 14850 3250 50  0000 C CNN
F 2 "Resistor_SMD:R_0603_1608Metric_Pad1.05x0.95mm_HandSolder" V 14880 3350 50  0001 C CNN
F 3 "~" H 14950 3350 50  0001 C CNN
	1    14950 3350
	0    -1   1    0   
$EndComp
$Comp
L Device:C C14
U 1 1 5E8DDD9B
P 13250 2000
F 0 "C14" H 13300 2100 50  0000 L CNN
F 1 "100n" H 13300 1900 50  0000 L CNN
F 2 "Capacitor_SMD:C_0603_1608Metric_Pad1.05x0.95mm_HandSolder" H 13288 1850 50  0001 C CNN
F 3 "~" H 13250 2000 50  0001 C CNN
	1    13250 2000
	-1   0    0    -1  
$EndComp
$Comp
L Device:C C10
U 1 1 5E8DEC84
P 14600 2000
F 0 "C10" H 14650 2100 50  0000 L CNN
F 1 "100n" H 14650 1900 50  0000 L CNN
F 2 "Capacitor_SMD:C_0603_1608Metric_Pad1.05x0.95mm_HandSolder" H 14638 1850 50  0001 C CNN
F 3 "~" H 14600 2000 50  0001 C CNN
	1    14600 2000
	-1   0    0    -1  
$EndComp
$Comp
L Device:C C15
U 1 1 5E8DF553
P 12850 2000
F 0 "C15" H 12900 2100 50  0000 L CNN
F 1 "10u" H 12900 1900 50  0000 L CNN
F 2 "Capacitor_SMD:C_0805_2012Metric_Pad1.15x1.40mm_HandSolder" H 12888 1850 50  0001 C CNN
F 3 "~" H 12850 2000 50  0001 C CNN
	1    12850 2000
	-1   0    0    -1  
$EndComp
$Comp
L Device:R R20
U 1 1 5E8DFAC4
P 12600 2800
F 0 "R20" V 12500 2900 50  0000 C CNN
F 1 "470" V 12500 2700 50  0000 C CNN
F 2 "Resistor_SMD:R_0805_2012Metric_Pad1.15x1.40mm_HandSolder" V 12530 2800 50  0001 C CNN
F 3 "~" H 12600 2800 50  0001 C CNN
	1    12600 2800
	0    -1   1    0   
$EndComp
$Comp
L Device:C C16
U 1 1 5E8E0ACE
P 12900 3100
F 0 "C16" H 12950 3250 50  0000 L CNN
F 1 "100n" H 12950 3000 50  0000 L CNN
F 2 "Capacitor_SMD:C_0603_1608Metric_Pad1.05x0.95mm_HandSolder" H 12938 2950 50  0001 C CNN
F 3 "~" H 12900 3100 50  0001 C CNN
	1    12900 3100
	-1   0    0    -1  
$EndComp
Wire Wire Line
	13350 3300 13200 3300
$Comp
L power:GND #PWR0116
U 1 1 5E90082F
P 14000 3700
F 0 "#PWR0116" H 14000 3450 50  0001 C CNN
F 1 "GND" H 14005 3527 50  0000 C CNN
F 2 "" H 14000 3700 50  0001 C CNN
F 3 "" H 14000 3700 50  0001 C CNN
	1    14000 3700
	-1   0    0    -1  
$EndComp
Wire Wire Line
	14000 3700 14000 3650
Wire Wire Line
	13200 3300 13200 3700
Wire Wire Line
	12900 3250 12900 3700
$Comp
L zeman:MCP331 U3
U 1 1 5E8C97EC
P 14000 3050
F 0 "U3" H 14550 3600 50  0000 C CNN
F 1 "MCP331" H 13700 2500 50  0000 C CNN
F 2 "Package_SO:MSOP-10-1EP_3x3mm_P0.5mm_EP1.68x1.88mm" H 14000 3050 50  0001 C CNN
F 3 "" H 14000 3050 50  0001 C CNN
	1    14000 3050
	1    0    0    -1  
$EndComp
$Comp
L Device:C C11
U 1 1 5E8DF09D
P 13650 2000
F 0 "C11" H 13700 2100 50  0000 L CNN
F 1 "100n" H 13700 1900 50  0000 L CNN
F 2 "Capacitor_SMD:C_0603_1608Metric_Pad1.05x0.95mm_HandSolder" H 13688 1850 50  0001 C CNN
F 3 "~" H 13650 2000 50  0001 C CNN
	1    13650 2000
	-1   0    0    -1  
$EndComp
Wire Wire Line
	13650 2200 13650 2150
Wire Wire Line
	13850 1800 13650 1800
Wire Wire Line
	13850 1800 13850 2450
Wire Wire Line
	13650 1850 13650 1800
Wire Wire Line
	14050 1700 14050 2450
Wire Wire Line
	13250 1850 13250 1700
Wire Wire Line
	13250 1700 14050 1700
Wire Wire Line
	12850 1850 12850 1700
Wire Wire Line
	12850 1700 13250 1700
Connection ~ 13250 1700
Wire Wire Line
	13250 2200 13250 2150
Wire Wire Line
	12850 2200 12850 2150
Wire Wire Line
	14250 1800 14600 1800
Wire Wire Line
	14600 1800 14600 1850
Wire Wire Line
	14250 1800 14250 2450
Wire Wire Line
	14600 2150 14600 2200
$Comp
L power:GND #PWR0117
U 1 1 5E9693D1
P 14600 2200
F 0 "#PWR0117" H 14600 1950 50  0001 C CNN
F 1 "GND" H 14700 2100 50  0000 C CNN
F 2 "" H 14600 2200 50  0001 C CNN
F 3 "" H 14600 2200 50  0001 C CNN
	1    14600 2200
	-1   0    0    -1  
$EndComp
Connection ~ 14600 1800
Wire Wire Line
	14700 2750 14950 2750
Wire Wire Line
	14950 2750 14950 1800
Wire Wire Line
	14950 1800 14600 1800
$Comp
L zeman:OPA2365 U4
U 2 1 5E9DF2A5
P 11650 2800
F 0 "U4" H 11400 3100 50  0000 C CNN
F 1 "OPA2365" H 11900 2550 50  0000 C CNN
F 2 "zeman:SOIC-p1.27_5x4" H 11750 2800 50  0001 C CNN
F 3 "" H 11750 2800 50  0001 C CNN
	2    11650 2800
	1    0    0    -1  
$EndComp
Wire Wire Line
	11400 2900 11300 2900
$Comp
L Device:C C19
U 1 1 5EACD5DE
P 11750 2250
F 0 "C19" H 11800 2150 50  0000 L CNN
F 1 "100n" H 11800 2350 50  0000 L CNN
F 2 "Capacitor_SMD:C_0603_1608Metric_Pad1.05x0.95mm_HandSolder" H 11788 2100 50  0001 C CNN
F 3 "~" H 11750 2250 50  0001 C CNN
	1    11750 2250
	0    1    1    0   
$EndComp
Wire Wire Line
	11600 2400 11600 2250
Wire Wire Line
	11300 2900 11300 3400
Wire Wire Line
	11300 3400 12300 3400
Wire Wire Line
	12300 3400 12300 2800
Wire Wire Line
	12300 2800 12200 2800
$Comp
L Device:Microphone_Condenser MK1
U 1 1 5EB23B1E
P 8000 2950
F 0 "MK1" H 8130 2996 50  0000 L CNN
F 1 "CMC-4015" H 8130 2905 50  0000 L CNN
F 2 "zeman:ICS-40730" V 8000 3050 50  0001 C CNN
F 3 "~" V 8000 3050 50  0001 C CNN
	1    8000 2950
	1    0    0    -1  
$EndComp
Wire Wire Line
	8000 3150 8000 3300
$Comp
L Device:R R17
U 1 1 5EB2C76C
P 8000 2250
F 0 "R17" H 7930 2204 50  0000 R CNN
F 1 "4K" H 7930 2295 50  0000 R CNN
F 2 "Resistor_SMD:R_2512_6332Metric_Pad1.52x3.35mm_HandSolder" V 7930 2250 50  0001 C CNN
F 3 "~" H 8000 2250 50  0001 C CNN
	1    8000 2250
	-1   0    0    1   
$EndComp
Wire Wire Line
	8000 2100 8000 1850
$Comp
L Device:C C12
U 1 1 5EB50E15
P 8550 2600
F 0 "C12" H 8600 2700 50  0000 L CNN
F 1 "2.2u" H 8600 2500 50  0000 L CNN
F 2 "Capacitor_SMD:C_1206_3216Metric_Pad1.42x1.75mm_HandSolder" H 8588 2450 50  0001 C CNN
F 3 "~" H 8550 2600 50  0001 C CNN
	1    8550 2600
	0    1    1    0   
$EndComp
Wire Wire Line
	8000 2400 8000 2600
Connection ~ 8000 2600
Wire Wire Line
	8000 2600 8000 2750
Wire Wire Line
	8000 2600 8400 2600
$Comp
L Device:R R18
U 1 1 5EB7B654
P 9100 3350
F 0 "R18" H 9030 3304 50  0000 R CNN
F 1 "10K" H 9030 3395 50  0000 R CNN
F 2 "Resistor_SMD:R_0603_1608Metric_Pad1.05x0.95mm_HandSolder" V 9030 3350 50  0001 C CNN
F 3 "~" H 9100 3350 50  0001 C CNN
	1    9100 3350
	-1   0    0    1   
$EndComp
$Comp
L Device:R R19
U 1 1 5EB7BC42
P 9100 3750
F 0 "R19" H 9030 3704 50  0000 R CNN
F 1 "10K" H 9030 3795 50  0000 R CNN
F 2 "Resistor_SMD:R_0603_1608Metric_Pad1.05x0.95mm_HandSolder" V 9030 3750 50  0001 C CNN
F 3 "~" H 9100 3750 50  0001 C CNN
	1    9100 3750
	-1   0    0    1   
$EndComp
$Comp
L Device:C C13
U 1 1 5EB7BFFF
P 8900 3750
F 0 "C13" H 8950 3850 50  0000 L CNN
F 1 "2.2u" H 8950 3650 50  0000 L CNN
F 2 "Capacitor_SMD:C_1206_3216Metric_Pad1.42x1.75mm_HandSolder" H 8938 3600 50  0001 C CNN
F 3 "~" H 8900 3750 50  0001 C CNN
	1    8900 3750
	-1   0    0    1   
$EndComp
Wire Wire Line
	9750 2800 9550 2800
Wire Wire Line
	9100 3200 9100 3050
Wire Wire Line
	9100 3600 9100 3550
Wire Wire Line
	8900 3600 8900 3550
Wire Wire Line
	8900 4000 8900 3900
Wire Wire Line
	9100 3900 9100 4000
Wire Wire Line
	9550 2800 9550 3550
Wire Wire Line
	9550 3550 9100 3550
Connection ~ 9100 3550
Wire Wire Line
	9100 3550 9100 3500
Wire Wire Line
	9100 3550 8900 3550
Wire Wire Line
	9600 2600 9600 1900
Connection ~ 9600 2600
Wire Wire Line
	9600 2600 9750 2600
Wire Wire Line
	10750 1900 10750 2700
Wire Wire Line
	10750 2700 10550 2700
$Comp
L Device:R R21
U 1 1 5EC9B901
P 10200 1900
F 0 "R21" V 10300 2050 50  0000 C CNN
F 1 "150K" V 10300 1750 50  0000 C CNN
F 2 "Resistor_SMD:R_0603_1608Metric_Pad1.05x0.95mm_HandSolder" V 10130 1900 50  0001 C CNN
F 3 "~" H 10200 1900 50  0001 C CNN
	1    10200 1900
	0    -1   -1   0   
$EndComp
Wire Wire Line
	9600 1900 10050 1900
Wire Wire Line
	10350 1900 10750 1900
$Comp
L Device:C C17
U 1 1 5ECAEEFC
P 10200 1650
F 0 "C17" H 10050 1750 50  0000 L CNN
F 1 "100p" H 10000 1550 50  0000 L CNN
F 2 "Capacitor_SMD:C_0805_2012Metric_Pad1.15x1.40mm_HandSolder" H 10238 1500 50  0001 C CNN
F 3 "~" H 10200 1650 50  0001 C CNN
	1    10200 1650
	0    1    1    0   
$EndComp
Wire Wire Line
	9600 1900 9600 1650
Wire Wire Line
	9600 1650 10050 1650
Connection ~ 9600 1900
Wire Wire Line
	10350 1650 10750 1650
Wire Wire Line
	10750 1650 10750 1900
Connection ~ 10750 1900
$Comp
L Device:R R22
U 1 1 5ECCD25B
P 11100 2700
F 0 "R22" V 11200 2850 50  0000 C CNN
F 1 "220R" V 11200 2550 50  0000 C CNN
F 2 "Resistor_SMD:R_0603_1608Metric_Pad1.05x0.95mm_HandSolder" V 11030 2700 50  0001 C CNN
F 3 "~" H 11100 2700 50  0001 C CNN
	1    11100 2700
	0    -1   -1   0   
$EndComp
Wire Wire Line
	10750 2700 10950 2700
Connection ~ 10750 2700
Text Notes 11350 1300 0    129  ~ 0
ANALOG
$Comp
L Device:Q_NPN_BEC Q2
U 1 1 5EE88F02
P 1800 7650
F 0 "Q2" H 1991 7604 50  0000 L CNN
F 1 "SS8050-G" H 1991 7695 50  0000 L CNN
F 2 "Package_TO_SOT_SMD:SOT-23" H 2000 7750 50  0001 C CNN
F 3 "~" H 1800 7650 50  0001 C CNN
	1    1800 7650
	-1   0    0    1   
$EndComp
$Comp
L Device:Q_NPN_BEC Q1
U 1 1 5EE8A18B
P 1800 6550
F 0 "Q1" H 1991 6596 50  0000 L CNN
F 1 "SS8050-G" H 1991 6505 50  0000 L CNN
F 2 "Package_TO_SOT_SMD:SOT-23" H 2000 6650 50  0001 C CNN
F 3 "~" H 1800 6550 50  0001 C CNN
	1    1800 6550
	-1   0    0    -1  
$EndComp
$Comp
L power:GNDA #PWR0120
U 1 1 5E74104B
P 8900 4000
F 0 "#PWR0120" H 8900 3750 50  0001 C CNN
F 1 "GNDA" H 8905 3827 50  0000 C CNN
F 2 "" H 8900 4000 50  0001 C CNN
F 3 "" H 8900 4000 50  0001 C CNN
	1    8900 4000
	1    0    0    -1  
$EndComp
$Comp
L power:GNDA #PWR0121
U 1 1 5E741736
P 10150 2100
F 0 "#PWR0121" H 10150 1850 50  0001 C CNN
F 1 "GNDA" H 10155 1927 50  0000 C CNN
F 2 "" H 10150 2100 50  0001 C CNN
F 3 "" H 10150 2100 50  0001 C CNN
	1    10150 2100
	1    0    0    -1  
$EndComp
$Comp
L power:GNDA #PWR0122
U 1 1 5E741A2F
P 8000 3300
F 0 "#PWR0122" H 8000 3050 50  0001 C CNN
F 1 "GNDA" H 8005 3127 50  0000 C CNN
F 2 "" H 8000 3300 50  0001 C CNN
F 3 "" H 8000 3300 50  0001 C CNN
	1    8000 3300
	1    0    0    -1  
$EndComp
$Comp
L power:GNDA #PWR0125
U 1 1 5E744E04
P 11600 3250
F 0 "#PWR0125" H 11600 3000 50  0001 C CNN
F 1 "GNDA" H 11750 3150 50  0000 C CNN
F 2 "" H 11600 3250 50  0001 C CNN
F 3 "" H 11600 3250 50  0001 C CNN
	1    11600 3250
	1    0    0    -1  
$EndComp
$Comp
L power:GNDA #PWR0126
U 1 1 5E745EC0
P 12000 2300
F 0 "#PWR0126" H 12000 2050 50  0001 C CNN
F 1 "GNDA" H 12150 2200 50  0000 C CNN
F 2 "" H 12000 2300 50  0001 C CNN
F 3 "" H 12000 2300 50  0001 C CNN
	1    12000 2300
	1    0    0    -1  
$EndComp
$Comp
L power:GNDA #PWR0127
U 1 1 5E746759
P 9100 4000
F 0 "#PWR0127" H 9100 3750 50  0001 C CNN
F 1 "GNDA" H 9105 3827 50  0000 C CNN
F 2 "" H 9100 4000 50  0001 C CNN
F 3 "" H 9100 4000 50  0001 C CNN
	1    9100 4000
	1    0    0    -1  
$EndComp
$Comp
L power:GNDA #PWR0128
U 1 1 5E747637
P 13200 3700
F 0 "#PWR0128" H 13200 3450 50  0001 C CNN
F 1 "GNDA" H 13205 3527 50  0000 C CNN
F 2 "" H 13200 3700 50  0001 C CNN
F 3 "" H 13200 3700 50  0001 C CNN
	1    13200 3700
	-1   0    0    -1  
$EndComp
$Comp
L power:GNDA #PWR0129
U 1 1 5E748E31
P 12900 3700
F 0 "#PWR0129" H 12900 3450 50  0001 C CNN
F 1 "GNDA" H 12905 3527 50  0000 C CNN
F 2 "" H 12900 3700 50  0001 C CNN
F 3 "" H 12900 3700 50  0001 C CNN
	1    12900 3700
	-1   0    0    -1  
$EndComp
$Comp
L power:GNDA #PWR0131
U 1 1 5E76EDD8
P 13650 2200
F 0 "#PWR0131" H 13650 1950 50  0001 C CNN
F 1 "GNDA" H 13655 2027 50  0000 C CNN
F 2 "" H 13650 2200 50  0001 C CNN
F 3 "" H 13650 2200 50  0001 C CNN
	1    13650 2200
	-1   0    0    -1  
$EndComp
$Comp
L power:GNDA #PWR0132
U 1 1 5E77058F
P 13250 2200
F 0 "#PWR0132" H 13250 1950 50  0001 C CNN
F 1 "GNDA" H 13255 2027 50  0000 C CNN
F 2 "" H 13250 2200 50  0001 C CNN
F 3 "" H 13250 2200 50  0001 C CNN
	1    13250 2200
	-1   0    0    -1  
$EndComp
$Comp
L power:GNDA #PWR0133
U 1 1 5E7709D8
P 12850 2200
F 0 "#PWR0133" H 12850 1950 50  0001 C CNN
F 1 "GNDA" H 12750 2050 50  0000 C CNN
F 2 "" H 12850 2200 50  0001 C CNN
F 3 "" H 12850 2200 50  0001 C CNN
	1    12850 2200
	-1   0    0    -1  
$EndComp
$Comp
L Connector:TestPoint_Probe TP1
U 1 1 5E7746F8
P 8950 2450
F 0 "TP1" H 8750 2800 50  0000 L CNN
F 1 "TestPoint_Probe" H 8750 2700 50  0000 L CNN
F 2 "TestPoint:TestPoint_Pad_D1.5mm" H 9150 2450 50  0001 C CNN
F 3 "~" H 9150 2450 50  0001 C CNN
	1    8950 2450
	1    0    0    -1  
$EndComp
Wire Wire Line
	8700 2600 8950 2600
Wire Wire Line
	8950 2450 8950 2600
Connection ~ 8950 2600
Wire Wire Line
	8950 2600 9600 2600
$Comp
L Connector:Conn_01x06_Male J1
U 1 1 5E928E2E
P 950 1900
F 0 "J1" H 1058 2281 50  0000 C CNN
F 1 "micro_usb" H 1058 2190 50  0000 C CNN
F 2 "Connector_USB:USB_Micro-B_Molex_47346-0001" H 950 1900 50  0001 C CNN
F 3 "~" H 950 1900 50  0001 C CNN
	1    950  1900
	1    0    0    -1  
$EndComp
Wire Wire Line
	1150 1700 1800 1700
Wire Wire Line
	1150 1800 2350 1800
Wire Wire Line
	1150 1900 2450 1900
Wire Wire Line
	1150 2100 1900 2100
Wire Wire Line
	1900 2100 1900 2200
Wire Wire Line
	1150 2200 1900 2200
Connection ~ 1900 2200
Wire Wire Line
	1900 2200 1900 2500
$Comp
L zeman:OPA2365 U4
U 1 1 5E9E08AB
P 10000 2700
F 0 "U4" H 9700 2400 50  0000 L CNN
F 1 "OPA2365" H 10200 2900 50  0000 L CNN
F 2 "zeman:SOIC-p1.27_5x4" H 10100 2700 50  0001 C CNN
F 3 "" H 10100 2700 50  0001 C CNN
	1    10000 2700
	1    0    0    1   
$EndComp
Wire Wire Line
	9950 2100 9950 2300
Text Label 5450 8300 0    50   ~ 0
SLEEP
Wire Wire Line
	5850 8300 5450 8300
$Comp
L zeman:ESP32-WROOM32 U2
U 1 1 5E708B0B
P 6400 8350
F 0 "U2" H 6000 10150 50  0000 C CNN
F 1 "ESP32-WROOM32" H 6600 6100 50  0000 C CNN
F 2 "zeman:ESP32-WROOM32" H 6450 8600 50  0001 C CNN
F 3 "" H 6450 8600 50  0001 C CNN
	1    6400 8350
	1    0    0    -1  
$EndComp
Wire Wire Line
	6950 8500 7450 8500
Text Label 7450 8500 2    50   ~ 0
IO5
Wire Wire Line
	6950 7500 7450 7500
Text Label 7450 7500 2    50   ~ 0
IO2
Wire Wire Line
	6950 7700 7450 7700
Text Label 7450 7700 2    50   ~ 0
IO0
Text Label 4200 2350 0    50   ~ 0
D+
Text GLabel 4200 2550 0    50   BiDi ~ 0
D-
$Comp
L power:+5VA #PWR0119
U 1 1 5E8EA11E
P 12850 1650
F 0 "#PWR0119" H 12850 1500 50  0001 C CNN
F 1 "+5VA" H 12865 1823 50  0000 C CNN
F 2 "" H 12850 1650 50  0001 C CNN
F 3 "" H 12850 1650 50  0001 C CNN
	1    12850 1650
	-1   0    0    -1  
$EndComp
Wire Wire Line
	12850 1650 12850 1700
Connection ~ 12850 1700
$Comp
L power:+5VA #PWR0123
U 1 1 5E8F5AB6
P 9100 3050
F 0 "#PWR0123" H 9100 2900 50  0001 C CNN
F 1 "+5VA" H 9115 3223 50  0000 C CNN
F 2 "" H 9100 3050 50  0001 C CNN
F 3 "" H 9100 3050 50  0001 C CNN
	1    9100 3050
	1    0    0    -1  
$EndComp
$Comp
L power:+5VA #PWR0124
U 1 1 5E8F6D77
P 10150 3250
F 0 "#PWR0124" H 10150 3100 50  0001 C CNN
F 1 "+5VA" H 10250 3350 50  0000 C CNN
F 2 "" H 10150 3250 50  0001 C CNN
F 3 "" H 10150 3250 50  0001 C CNN
	1    10150 3250
	1    0    0    -1  
$EndComp
$Comp
L power:+5VA #PWR0165
U 1 1 5E8F7C80
P 11600 2050
F 0 "#PWR0165" H 11600 1900 50  0001 C CNN
F 1 "+5VA" H 11700 2150 50  0000 C CNN
F 2 "" H 11600 2050 50  0001 C CNN
F 3 "" H 11600 2050 50  0001 C CNN
	1    11600 2050
	1    0    0    -1  
$EndComp
$Comp
L power:+5VA #PWR0166
U 1 1 5E90348D
P 8000 1850
F 0 "#PWR0166" H 8000 1700 50  0001 C CNN
F 1 "+5VA" H 8100 1950 50  0000 C CNN
F 2 "" H 8000 1850 50  0001 C CNN
F 3 "" H 8000 1850 50  0001 C CNN
	1    8000 1850
	1    0    0    -1  
$EndComp
Wire Wire Line
	9950 3100 9950 3250
Wire Wire Line
	11600 2250 11600 2050
Connection ~ 11600 2250
Wire Wire Line
	11900 2250 12000 2250
Wire Wire Line
	12000 2250 12000 2300
Wire Wire Line
	11600 3200 11600 3250
$Comp
L power:+3.3V #PWR0167
U 1 1 5E93F581
P 1500 9450
F 0 "#PWR0167" H 1500 9300 50  0001 C CNN
F 1 "+3.3V" H 1515 9623 50  0000 C CNN
F 2 "" H 1500 9450 50  0001 C CNN
F 3 "" H 1500 9450 50  0001 C CNN
	1    1500 9450
	1    0    0    -1  
$EndComp
$Comp
L power:+3.3V #PWR0168
U 1 1 5E93FE56
P 1950 9450
F 0 "#PWR0168" H 1950 9300 50  0001 C CNN
F 1 "+3.3V" H 1965 9623 50  0000 C CNN
F 2 "" H 1950 9450 50  0001 C CNN
F 3 "" H 1950 9450 50  0001 C CNN
	1    1950 9450
	1    0    0    -1  
$EndComp
$Comp
L power:+3.3V #PWR0169
U 1 1 5E94038B
P 2750 9450
F 0 "#PWR0169" H 2750 9300 50  0001 C CNN
F 1 "+3.3V" H 2765 9623 50  0000 C CNN
F 2 "" H 2750 9450 50  0001 C CNN
F 3 "" H 2750 9450 50  0001 C CNN
	1    2750 9450
	1    0    0    -1  
$EndComp
$Comp
L power:+3.3V #PWR0170
U 1 1 5E940804
P 3650 9450
F 0 "#PWR0170" H 3650 9300 50  0001 C CNN
F 1 "+3.3V" H 3665 9623 50  0000 C CNN
F 2 "" H 3650 9450 50  0001 C CNN
F 3 "" H 3650 9450 50  0001 C CNN
	1    3650 9450
	1    0    0    -1  
$EndComp
$Comp
L power:+3.3V #PWR0171
U 1 1 5E940B85
P 4550 9250
F 0 "#PWR0171" H 4550 9100 50  0001 C CNN
F 1 "+3.3V" H 4565 9423 50  0000 C CNN
F 2 "" H 4550 9250 50  0001 C CNN
F 3 "" H 4550 9250 50  0001 C CNN
	1    4550 9250
	1    0    0    -1  
$EndComp
$Comp
L power:+3.3V #PWR0172
U 1 1 5E942346
P 4800 6800
F 0 "#PWR0172" H 4800 6650 50  0001 C CNN
F 1 "+3.3V" H 4815 6973 50  0000 C CNN
F 2 "" H 4800 6800 50  0001 C CNN
F 3 "" H 4800 6800 50  0001 C CNN
	1    4800 6800
	1    0    0    -1  
$EndComp
Wire Wire Line
	4800 6900 4800 6800
$Comp
L power:+3.3V #PWR0173
U 1 1 5E94DDD4
P 2550 3050
F 0 "#PWR0173" H 2550 2900 50  0001 C CNN
F 1 "+3.3V" H 2565 3223 50  0000 C CNN
F 2 "" H 2550 3050 50  0001 C CNN
F 3 "" H 2550 3050 50  0001 C CNN
	1    2550 3050
	1    0    0    -1  
$EndComp
Wire Wire Line
	2550 3050 2550 3150
Connection ~ 2550 3150
$Comp
L power:+3.3V #PWR0175
U 1 1 5E964983
P 14950 1650
F 0 "#PWR0175" H 14950 1500 50  0001 C CNN
F 1 "+3.3V" H 14965 1823 50  0000 C CNN
F 2 "" H 14950 1650 50  0001 C CNN
F 3 "" H 14950 1650 50  0001 C CNN
	1    14950 1650
	-1   0    0    -1  
$EndComp
Connection ~ 14950 1800
$Comp
L power:+1V8 #PWR0176
U 1 1 5E96F9A0
P 13650 1650
F 0 "#PWR0176" H 13650 1500 50  0001 C CNN
F 1 "+1V8" H 13665 1823 50  0000 C CNN
F 2 "" H 13650 1650 50  0001 C CNN
F 3 "" H 13650 1650 50  0001 C CNN
	1    13650 1650
	-1   0    0    -1  
$EndComp
Wire Wire Line
	13650 1800 13650 1650
Connection ~ 13650 1800
Text GLabel 4200 2350 0    50   BiDi ~ 0
D+
Text GLabel 3650 3350 0    50   BiDi ~ 0
V_USB
Text GLabel 2800 1700 2    50   BiDi ~ 0
V_USB
$Comp
L Device:R R28
U 1 1 5EAAC152
P 3300 1900
F 0 "R28" V 3400 1800 50  0000 C CNN
F 1 "22" V 3400 2000 50  0000 C CNN
F 2 "Resistor_SMD:R_0805_2012Metric_Pad1.15x1.40mm_HandSolder" V 3230 1900 50  0001 C CNN
F 3 "~" H 3300 1900 50  0001 C CNN
	1    3300 1900
	0    1    1    0   
$EndComp
$Comp
L Device:R R23
U 1 1 5EAACE21
P 3300 1800
F 0 "R23" V 3200 1700 50  0000 C CNN
F 1 "22" V 3200 1900 50  0000 C CNN
F 2 "Resistor_SMD:R_0805_2012Metric_Pad1.15x1.40mm_HandSolder" V 3230 1800 50  0001 C CNN
F 3 "~" H 3300 1800 50  0001 C CNN
	1    3300 1800
	0    1    1    0   
$EndComp
Wire Wire Line
	2350 1800 3150 1800
Wire Wire Line
	2450 1900 3150 1900
Wire Wire Line
	3450 1800 3600 1800
Wire Wire Line
	3600 1900 3450 1900
$Comp
L power:+3.3V #PWR0174
U 1 1 5E963AAA
P 6500 2000
F 0 "#PWR0174" H 6500 1850 50  0001 C CNN
F 1 "+3.3V" H 6515 2173 50  0000 C CNN
F 2 "" H 6500 2000 50  0001 C CNN
F 3 "" H 6500 2000 50  0001 C CNN
	1    6500 2000
	1    0    0    -1  
$EndComp
Text Notes 3850 1400 0    129  ~ 0
USB - UART ROZHRANÍ
Text Label 6950 3150 2    50   ~ 0
RTS
Text Label 6950 3950 2    50   ~ 0
DTR
Wire Wire Line
	5800 3950 6950 3950
Wire Wire Line
	5800 3150 6950 3150
Text Label 6950 3350 2    50   ~ 0
TX0
Text Label 6950 3550 2    50   ~ 0
RX0
Wire Wire Line
	6600 3550 6950 3550
Wire Wire Line
	6600 3350 6950 3350
$Comp
L Device:R R11
U 1 1 5E7E0498
P 6450 3350
F 0 "R11" V 6350 3250 50  0000 C CNN
F 1 "470R" V 6350 3450 50  0000 C CNN
F 2 "Resistor_SMD:R_0603_1608Metric_Pad1.05x0.95mm_HandSolder" V 6380 3350 50  0001 C CNN
F 3 "~" H 6450 3350 50  0001 C CNN
	1    6450 3350
	0    1    1    0   
$EndComp
$Comp
L Device:R R12
U 1 1 5E7DD6C8
P 6450 3550
F 0 "R12" V 6550 3450 50  0000 C CNN
F 1 "470R" V 6550 3650 50  0000 C CNN
F 2 "Resistor_SMD:R_0603_1608Metric_Pad1.05x0.95mm_HandSolder" V 6380 3550 50  0001 C CNN
F 3 "~" H 6450 3550 50  0001 C CNN
	1    6450 3550
	0    1    1    0   
$EndComp
Wire Wire Line
	5800 3550 6300 3550
Wire Wire Line
	5800 3350 6300 3350
Wire Wire Line
	6500 2800 6750 2800
Wire Wire Line
	6500 2550 6500 2800
$Comp
L Device:R R13
U 1 1 5E787DBA
P 6500 2400
F 0 "R13" H 6570 2446 50  0000 L CNN
F 1 "1K" H 6570 2355 50  0000 L CNN
F 2 "Resistor_SMD:R_1206_3216Metric_Pad1.42x1.75mm_HandSolder" V 6430 2400 50  0001 C CNN
F 3 "~" H 6500 2400 50  0001 C CNN
	1    6500 2400
	1    0    0    -1  
$EndComp
Wire Wire Line
	6500 2000 6500 2250
Text Label 6750 2800 2    50   ~ 0
RSTb
$Comp
L zeman:CP2102N U1
U 1 1 5E7721E8
P 5200 3050
F 0 "U1" H 5200 4415 50  0000 C CNN
F 1 "CP2102N" H 5200 4324 50  0000 C CNN
F 2 "zeman:QFN-24_0.5" H 5600 3250 50  0001 C CNN
F 3 "" H 5600 3250 50  0001 C CNN
	1    5200 3050
	1    0    0    -1  
$EndComp
Text Label 1950 8100 2    50   ~ 0
IO0
Wire Wire Line
	2750 9850 2750 10250
Wire Wire Line
	3650 9850 3650 10250
Wire Wire Line
	14950 1650 14950 1800
Wire Wire Line
	9950 3250 10150 3250
Wire Wire Line
	9950 2100 10150 2100
Wire Wire Line
	14800 2950 14700 2950
Wire Wire Line
	14700 3150 14800 3150
Wire Wire Line
	14800 3350 14700 3350
Wire Wire Line
	11400 2700 11250 2700
Connection ~ 12300 2800
Wire Wire Line
	12900 2800 12900 2950
Wire Wire Line
	12900 2800 13350 2800
Wire Wire Line
	12300 2800 12450 2800
Wire Wire Line
	12750 2800 12900 2800
Connection ~ 12900 2800
Wire Wire Line
	6950 8700 7450 8700
Wire Wire Line
	7450 8900 6950 8900
Wire Wire Line
	6950 9300 7450 9300
Text Label 15500 3350 2    50   ~ 0
SPI_CS
Text Label 15500 2950 2    50   ~ 0
SPI_SCK
Text Label 15500 3150 2    50   ~ 0
SPI_MISO
Wire Wire Line
	15100 3150 15500 3150
Wire Wire Line
	15100 2950 15500 2950
Wire Wire Line
	15100 3350 15500 3350
Text Notes 6050 6350 0    129  ~ 0
ESP-32
Wire Wire Line
	10850 6800 10950 6800
Wire Wire Line
	10850 6700 10950 6700
Wire Wire Line
	10950 6700 10950 6800
Connection ~ 10950 6800
Wire Wire Line
	10850 6600 10950 6600
Wire Wire Line
	10850 6500 10950 6500
Wire Wire Line
	10950 6500 10950 6600
Wire Wire Line
	10850 6900 10950 6900
Wire Wire Line
	10950 6900 10950 7000
Wire Wire Line
	10850 7000 10950 7000
Connection ~ 10950 7000
Wire Wire Line
	10850 7300 10950 7300
Wire Wire Line
	10950 7300 10950 7400
Wire Wire Line
	10850 7400 10950 7400
Connection ~ 10950 7400
Wire Wire Line
	10850 7200 10950 7200
Wire Wire Line
	10850 7100 10950 7100
Wire Wire Line
	10950 7100 10950 7200
$Comp
L power:GND #PWR?
U 1 1 5ED6C8AC
P 11200 7150
AR Path="/5E708DE7/5ED6C8AC" Ref="#PWR?"  Part="1" 
AR Path="/5ED6C8AC" Ref="#PWR0118"  Part="1" 
F 0 "#PWR0118" H 11200 6900 50  0001 C CNN
F 1 "GND" H 11200 7000 50  0000 C CNN
F 2 "" H 11200 7150 50  0001 C CNN
F 3 "" H 11200 7150 50  0001 C CNN
	1    11200 7150
	1    0    0    -1  
$EndComp
$Comp
L Connector:Conn_01x02_Male J?
U 1 1 5ED6C8B2
P 11450 6600
AR Path="/5E708DE7/5ED6C8B2" Ref="J?"  Part="1" 
AR Path="/5ED6C8B2" Ref="J3"  Part="1" 
F 0 "J3" H 11400 6600 50  0000 C CNN
F 1 "battery_conn" H 11200 6500 50  0000 C CNN
F 2 "Connector_PinHeader_1.00mm:PinHeader_1x02_P1.00mm_Vertical" H 11450 6600 50  0001 C CNN
F 3 "~" H 11450 6600 50  0001 C CNN
	1    11450 6600
	-1   0    0    1   
$EndComp
Wire Wire Line
	10950 6800 12200 6800
Connection ~ 10950 6500
Wire Wire Line
	10950 6500 11250 6500
Wire Wire Line
	11250 6600 11200 6600
Wire Wire Line
	11200 6600 11200 6650
$Comp
L power:GND #PWR?
U 1 1 5ED6C8BD
P 11200 6650
AR Path="/5E708DE7/5ED6C8BD" Ref="#PWR?"  Part="1" 
AR Path="/5ED6C8BD" Ref="#PWR0130"  Part="1" 
F 0 "#PWR0130" H 11200 6400 50  0001 C CNN
F 1 "GND" H 11300 6550 50  0000 C CNN
F 2 "" H 11200 6650 50  0001 C CNN
F 3 "" H 11200 6650 50  0001 C CNN
	1    11200 6650
	1    0    0    -1  
$EndComp
Wire Wire Line
	10950 7100 11200 7100
Wire Wire Line
	11200 7100 11200 7150
Connection ~ 10950 7100
Wire Wire Line
	10850 7600 10950 7600
$Comp
L Device:C C?
U 1 1 5ED6C8C7
P 11450 7550
AR Path="/5E708DE7/5ED6C8C7" Ref="C?"  Part="1" 
AR Path="/5ED6C8C7" Ref="C21"  Part="1" 
F 0 "C21" H 11500 7650 50  0000 L CNN
F 1 "2.2u" H 11450 7450 50  0000 L CNN
F 2 "Capacitor_SMD:C_1206_3216Metric_Pad1.42x1.75mm_HandSolder" H 11488 7400 50  0001 C CNN
F 3 "~" H 11450 7550 50  0001 C CNN
	1    11450 7550
	1    0    0    -1  
$EndComp
$Comp
L Device:C C?
U 1 1 5ED6C8CD
P 11750 7550
AR Path="/5E708DE7/5ED6C8CD" Ref="C?"  Part="1" 
AR Path="/5ED6C8CD" Ref="C22"  Part="1" 
F 0 "C22" H 11800 7650 50  0000 L CNN
F 1 "47u" H 11750 7450 50  0000 L CNN
F 2 "Capacitor_SMD:C_1206_3216Metric_Pad1.42x1.75mm_HandSolder" H 11788 7400 50  0001 C CNN
F 3 "~" H 11750 7550 50  0001 C CNN
	1    11750 7550
	1    0    0    -1  
$EndComp
Wire Wire Line
	10950 7400 11450 7400
Connection ~ 11450 7400
Wire Wire Line
	11450 7400 11750 7400
Connection ~ 11750 7400
Wire Wire Line
	11750 7400 11900 7400
Wire Wire Line
	11450 7700 11450 7750
Wire Wire Line
	11750 7700 11750 7750
$Comp
L power:GND #PWR?
U 1 1 5ED6C8DA
P 11450 7750
AR Path="/5E708DE7/5ED6C8DA" Ref="#PWR?"  Part="1" 
AR Path="/5ED6C8DA" Ref="#PWR0134"  Part="1" 
F 0 "#PWR0134" H 11450 7500 50  0001 C CNN
F 1 "GND" H 11450 7600 50  0000 C CNN
F 2 "" H 11450 7750 50  0001 C CNN
F 3 "" H 11450 7750 50  0001 C CNN
	1    11450 7750
	1    0    0    -1  
$EndComp
$Comp
L power:GND #PWR?
U 1 1 5ED6C8E0
P 11750 7750
AR Path="/5E708DE7/5ED6C8E0" Ref="#PWR?"  Part="1" 
AR Path="/5ED6C8E0" Ref="#PWR0135"  Part="1" 
F 0 "#PWR0135" H 11750 7500 50  0001 C CNN
F 1 "GND" H 11750 7600 50  0000 C CNN
F 2 "" H 11750 7750 50  0001 C CNN
F 3 "" H 11750 7750 50  0001 C CNN
	1    11750 7750
	1    0    0    -1  
$EndComp
$Comp
L Device:L L?
U 1 1 5ED6C8E6
P 11900 7200
AR Path="/5E708DE7/5ED6C8E6" Ref="L?"  Part="1" 
AR Path="/5ED6C8E6" Ref="L1"  Part="1" 
F 0 "L1" H 11952 7246 50  0000 L CNN
F 1 "6.8u" H 11952 7155 50  0000 L CNN
F 2 "zeman:IFSC0806" H 11900 7200 50  0001 C CNN
F 3 "~" H 11900 7200 50  0001 C CNN
	1    11900 7200
	1    0    0    -1  
$EndComp
Wire Wire Line
	11900 7000 11900 7050
Wire Wire Line
	10950 7000 11900 7000
Wire Wire Line
	11900 7350 11900 7400
Wire Wire Line
	9950 7600 9700 7600
Wire Wire Line
	9700 7600 9700 7650
$Comp
L Device:C C?
U 1 1 5ED6C8F1
P 9700 7800
AR Path="/5E708DE7/5ED6C8F1" Ref="C?"  Part="1" 
AR Path="/5ED6C8F1" Ref="C20"  Part="1" 
F 0 "C20" H 9750 7900 50  0000 L CNN
F 1 "100n" H 9700 7700 50  0000 L CNN
F 2 "Capacitor_SMD:C_0603_1608Metric_Pad1.05x0.95mm_HandSolder" H 9738 7650 50  0001 C CNN
F 3 "~" H 9700 7800 50  0001 C CNN
	1    9700 7800
	1    0    0    -1  
$EndComp
Text Label 11750 7000 0    50   ~ 0
SW
Text Label 9700 8100 0    50   ~ 0
SW
$Comp
L Device:C C?
U 1 1 5ED6C8F9
P 12550 6950
AR Path="/5E708DE7/5ED6C8F9" Ref="C?"  Part="1" 
AR Path="/5ED6C8F9" Ref="C24"  Part="1" 
F 0 "C24" H 12600 7050 50  0000 L CNN
F 1 "2.2u" H 12600 6850 50  0000 L CNN
F 2 "Capacitor_SMD:C_1206_3216Metric_Pad1.42x1.75mm_HandSolder" H 12588 6800 50  0001 C CNN
F 3 "~" H 12550 6950 50  0001 C CNN
	1    12550 6950
	1    0    0    -1  
$EndComp
$Comp
L Device:C C?
U 1 1 5ED6C8FF
P 12850 6950
AR Path="/5E708DE7/5ED6C8FF" Ref="C?"  Part="1" 
AR Path="/5ED6C8FF" Ref="C25"  Part="1" 
F 0 "C25" H 12900 7050 50  0000 L CNN
F 1 "47u" H 12900 6850 50  0000 L CNN
F 2 "Capacitor_SMD:C_1206_3216Metric_Pad1.42x1.75mm_HandSolder" H 12888 6800 50  0001 C CNN
F 3 "~" H 12850 6950 50  0001 C CNN
	1    12850 6950
	1    0    0    -1  
$EndComp
Connection ~ 12200 6800
$Comp
L power:GND #PWR?
U 1 1 5ED6C906
P 12200 7150
AR Path="/5E708DE7/5ED6C906" Ref="#PWR?"  Part="1" 
AR Path="/5ED6C906" Ref="#PWR0136"  Part="1" 
F 0 "#PWR0136" H 12200 6900 50  0001 C CNN
F 1 "GND" H 12250 7000 50  0000 C CNN
F 2 "" H 12200 7150 50  0001 C CNN
F 3 "" H 12200 7150 50  0001 C CNN
	1    12200 7150
	1    0    0    -1  
$EndComp
$Comp
L power:GND #PWR?
U 1 1 5ED6C90C
P 12550 7150
AR Path="/5E708DE7/5ED6C90C" Ref="#PWR?"  Part="1" 
AR Path="/5ED6C90C" Ref="#PWR0137"  Part="1" 
F 0 "#PWR0137" H 12550 6900 50  0001 C CNN
F 1 "GND" H 12600 7000 50  0000 C CNN
F 2 "" H 12550 7150 50  0001 C CNN
F 3 "" H 12550 7150 50  0001 C CNN
	1    12550 7150
	1    0    0    -1  
$EndComp
Wire Wire Line
	12200 7150 12200 7100
Wire Wire Line
	12550 7100 12550 7150
$Comp
L Device:C C?
U 1 1 5ED6C914
P 9400 7800
AR Path="/5E708DE7/5ED6C914" Ref="C?"  Part="1" 
AR Path="/5ED6C914" Ref="C18"  Part="1" 
F 0 "C18" H 9450 7900 50  0000 L CNN
F 1 "2.2u" H 9400 7700 50  0000 L CNN
F 2 "Capacitor_SMD:C_1206_3216Metric_Pad1.42x1.75mm_HandSolder" H 9438 7650 50  0001 C CNN
F 3 "~" H 9400 7800 50  0001 C CNN
	1    9400 7800
	1    0    0    -1  
$EndComp
Wire Wire Line
	9950 7500 9400 7500
Wire Wire Line
	9400 7500 9400 7650
Wire Wire Line
	9150 7400 9150 7650
Wire Wire Line
	9150 7400 9950 7400
Wire Wire Line
	8900 7200 9950 7200
Wire Wire Line
	8900 7200 8900 7650
Wire Wire Line
	9950 7000 8650 7000
$Comp
L Device:R R?
U 1 1 5ED6C921
P 8650 7800
AR Path="/5E708DE7/5ED6C921" Ref="R?"  Part="1" 
AR Path="/5ED6C921" Ref="R9"  Part="1" 
F 0 "R9" H 8650 7950 50  0000 L CNN
F 1 "150K" H 8650 7650 50  0000 L CNN
F 2 "Resistor_SMD:R_1206_3216Metric_Pad1.42x1.75mm_HandSolder" V 8580 7800 50  0001 C CNN
F 3 "~" H 8650 7800 50  0001 C CNN
	1    8650 7800
	1    0    0    -1  
$EndComp
Wire Wire Line
	8650 7000 8650 7650
Wire Wire Line
	8900 7950 8900 8000
Wire Wire Line
	9150 7950 9150 8000
Wire Wire Line
	9400 7950 9400 8000
Wire Wire Line
	8650 7950 8650 8000
$Comp
L power:GND #PWR?
U 1 1 5ED6C92C
P 9400 8000
AR Path="/5E708DE7/5ED6C92C" Ref="#PWR?"  Part="1" 
AR Path="/5ED6C92C" Ref="#PWR0138"  Part="1" 
F 0 "#PWR0138" H 9400 7750 50  0001 C CNN
F 1 "GND" H 9405 7827 50  0000 C CNN
F 2 "" H 9400 8000 50  0001 C CNN
F 3 "" H 9400 8000 50  0001 C CNN
	1    9400 8000
	1    0    0    -1  
$EndComp
$Comp
L power:GND #PWR?
U 1 1 5ED6C932
P 9150 8000
AR Path="/5E708DE7/5ED6C932" Ref="#PWR?"  Part="1" 
AR Path="/5ED6C932" Ref="#PWR0139"  Part="1" 
F 0 "#PWR0139" H 9150 7750 50  0001 C CNN
F 1 "GND" H 9155 7827 50  0000 C CNN
F 2 "" H 9150 8000 50  0001 C CNN
F 3 "" H 9150 8000 50  0001 C CNN
	1    9150 8000
	1    0    0    -1  
$EndComp
$Comp
L power:GND #PWR?
U 1 1 5ED6C938
P 8900 8000
AR Path="/5E708DE7/5ED6C938" Ref="#PWR?"  Part="1" 
AR Path="/5ED6C938" Ref="#PWR0140"  Part="1" 
F 0 "#PWR0140" H 8900 7750 50  0001 C CNN
F 1 "GND" H 8905 7827 50  0000 C CNN
F 2 "" H 8900 8000 50  0001 C CNN
F 3 "" H 8900 8000 50  0001 C CNN
	1    8900 8000
	1    0    0    -1  
$EndComp
$Comp
L power:GND #PWR?
U 1 1 5ED6C93E
P 8650 8000
AR Path="/5E708DE7/5ED6C93E" Ref="#PWR?"  Part="1" 
AR Path="/5ED6C93E" Ref="#PWR0141"  Part="1" 
F 0 "#PWR0141" H 8650 7750 50  0001 C CNN
F 1 "GND" H 8655 7827 50  0000 C CNN
F 2 "" H 8650 8000 50  0001 C CNN
F 3 "" H 8650 8000 50  0001 C CNN
	1    8650 8000
	1    0    0    -1  
$EndComp
Wire Wire Line
	9950 6900 8400 6900
Wire Wire Line
	8400 6900 8400 7650
$Comp
L Device:R R?
U 1 1 5ED6C946
P 8400 7800
AR Path="/5E708DE7/5ED6C946" Ref="R?"  Part="1" 
AR Path="/5ED6C946" Ref="R7"  Part="1" 
F 0 "R7" H 8400 7950 50  0000 L CNN
F 1 "10K" H 8400 7650 50  0000 L CNN
F 2 "Resistor_SMD:R_0805_2012Metric_Pad1.15x1.40mm_HandSolder" V 8330 7800 50  0001 C CNN
F 3 "~" H 8400 7800 50  0001 C CNN
	1    8400 7800
	1    0    0    -1  
$EndComp
Wire Wire Line
	8400 7950 8400 8000
$Comp
L power:GND #PWR?
U 1 1 5ED6C94D
P 8400 8000
AR Path="/5E708DE7/5ED6C94D" Ref="#PWR?"  Part="1" 
AR Path="/5ED6C94D" Ref="#PWR0142"  Part="1" 
F 0 "#PWR0142" H 8400 7750 50  0001 C CNN
F 1 "GND" H 8405 7827 50  0000 C CNN
F 2 "" H 8400 8000 50  0001 C CNN
F 3 "" H 8400 8000 50  0001 C CNN
	1    8400 8000
	1    0    0    -1  
$EndComp
$Comp
L Device:LED D?
U 1 1 5ED6C953
P 9500 6150
AR Path="/5E708DE7/5ED6C953" Ref="D?"  Part="1" 
AR Path="/5ED6C953" Ref="D4"  Part="1" 
F 0 "D4" V 9539 6033 50  0000 R CNN
F 1 "LED" V 9448 6033 50  0000 R CNN
F 2 "LED_SMD:LED_0805_2012Metric_Pad1.15x1.40mm_HandSolder" H 9500 6150 50  0001 C CNN
F 3 "~" H 9500 6150 50  0001 C CNN
	1    9500 6150
	0    -1   -1   0   
$EndComp
$Comp
L Device:R R?
U 1 1 5ED6C959
P 9500 5850
AR Path="/5E708DE7/5ED6C959" Ref="R?"  Part="1" 
AR Path="/5ED6C959" Ref="R30"  Part="1" 
F 0 "R30" H 9570 5896 50  0000 L CNN
F 1 "2.2K" H 9570 5805 50  0000 L CNN
F 2 "Resistor_SMD:R_1206_3216Metric_Pad1.42x1.75mm_HandSolder" V 9430 5850 50  0001 C CNN
F 3 "~" H 9500 5850 50  0001 C CNN
	1    9500 5850
	1    0    0    -1  
$EndComp
Wire Wire Line
	9500 5700 9500 5550
Wire Wire Line
	9500 6300 9500 6600
Wire Wire Line
	9500 6600 9950 6600
Wire Wire Line
	9950 6800 8150 6800
Wire Wire Line
	8150 6800 8150 8000
$Comp
L power:GND #PWR?
U 1 1 5ED6C964
P 8150 8000
AR Path="/5E708DE7/5ED6C964" Ref="#PWR?"  Part="1" 
AR Path="/5ED6C964" Ref="#PWR0143"  Part="1" 
F 0 "#PWR0143" H 8150 7750 50  0001 C CNN
F 1 "GND" H 8155 7827 50  0000 C CNN
F 2 "" H 8150 8000 50  0001 C CNN
F 3 "" H 8150 8000 50  0001 C CNN
	1    8150 8000
	1    0    0    -1  
$EndComp
$Comp
L Device:LED D?
U 1 1 5ED6C96A
P 9150 6150
AR Path="/5E708DE7/5ED6C96A" Ref="D?"  Part="1" 
AR Path="/5ED6C96A" Ref="D3"  Part="1" 
F 0 "D3" V 9189 6033 50  0000 R CNN
F 1 "LED" V 9098 6033 50  0000 R CNN
F 2 "LED_SMD:LED_0805_2012Metric_Pad1.15x1.40mm_HandSolder" H 9150 6150 50  0001 C CNN
F 3 "~" H 9150 6150 50  0001 C CNN
	1    9150 6150
	0    -1   -1   0   
$EndComp
$Comp
L Device:R R?
U 1 1 5ED6C970
P 9150 5850
AR Path="/5E708DE7/5ED6C970" Ref="R?"  Part="1" 
AR Path="/5ED6C970" Ref="R27"  Part="1" 
F 0 "R27" H 9220 5896 50  0000 L CNN
F 1 "2.2K" H 9220 5805 50  0000 L CNN
F 2 "Resistor_SMD:R_1206_3216Metric_Pad1.42x1.75mm_HandSolder" V 9080 5850 50  0001 C CNN
F 3 "~" H 9150 5850 50  0001 C CNN
	1    9150 5850
	1    0    0    -1  
$EndComp
Wire Wire Line
	9150 5700 9150 5550
Wire Wire Line
	9150 6300 9150 7300
Wire Wire Line
	9150 7300 9950 7300
Wire Wire Line
	9950 7100 9700 7100
Text Label 9700 7100 0    50   ~ 0
TS
Text Label 8400 9400 0    50   ~ 0
TS
Wire Wire Line
	8400 9400 8650 9400
$Comp
L Device:R R?
U 1 1 5ED6C97D
P 8650 9200
AR Path="/5E708DE7/5ED6C97D" Ref="R?"  Part="1" 
AR Path="/5ED6C97D" Ref="R24"  Part="1" 
F 0 "R24" H 8450 9250 50  0000 L CNN
F 1 "5.24K" H 8350 9150 50  0000 L CNN
F 2 "Resistor_SMD:R_0805_2012Metric_Pad1.15x1.40mm_HandSolder" V 8580 9200 50  0001 C CNN
F 3 "~" H 8650 9200 50  0001 C CNN
	1    8650 9200
	1    0    0    -1  
$EndComp
$Comp
L Device:R R?
U 1 1 5ED6C983
P 8650 9600
AR Path="/5E708DE7/5ED6C983" Ref="R?"  Part="1" 
AR Path="/5ED6C983" Ref="R25"  Part="1" 
F 0 "R25" H 8450 9650 50  0000 L CNN
F 1 "30.31K" H 8300 9550 50  0000 L CNN
F 2 "Resistor_SMD:R_0805_2012Metric_Pad1.15x1.40mm_HandSolder" V 8580 9600 50  0001 C CNN
F 3 "~" H 8650 9600 50  0001 C CNN
	1    8650 9600
	1    0    0    -1  
$EndComp
$Comp
L power:GND #PWR?
U 1 1 5ED6C989
P 8650 9800
AR Path="/5E708DE7/5ED6C989" Ref="#PWR?"  Part="1" 
AR Path="/5ED6C989" Ref="#PWR0144"  Part="1" 
F 0 "#PWR0144" H 8650 9550 50  0001 C CNN
F 1 "GND" H 8655 9627 50  0000 C CNN
F 2 "" H 8650 9800 50  0001 C CNN
F 3 "" H 8650 9800 50  0001 C CNN
	1    8650 9800
	1    0    0    -1  
$EndComp
Text Label 9400 7500 0    50   ~ 0
V_REGN
Wire Wire Line
	8650 8950 8650 9050
Wire Wire Line
	8650 9350 8650 9400
Wire Wire Line
	8650 9450 8650 9400
Connection ~ 8650 9400
Wire Wire Line
	8650 9800 8650 9750
$Comp
L Connector:Conn_01x02_Male J?
U 1 1 5ED6C995
P 9100 9500
AR Path="/5E708DE7/5ED6C995" Ref="J?"  Part="1" 
AR Path="/5ED6C995" Ref="J2"  Part="1" 
F 0 "J2" H 9050 9500 50  0000 C CNN
F 1 "NTC_conn" H 8850 9400 50  0000 C CNN
F 2 "Connector_PinHeader_1.00mm:PinHeader_1x02_P1.00mm_Vertical" H 9100 9500 50  0001 C CNN
F 3 "~" H 9100 9500 50  0001 C CNN
	1    9100 9500
	-1   0    0    1   
$EndComp
Wire Wire Line
	8650 9400 8900 9400
Wire Wire Line
	8900 9500 8900 9800
$Comp
L power:GND #PWR?
U 1 1 5ED6C99D
P 8900 9800
AR Path="/5E708DE7/5ED6C99D" Ref="#PWR?"  Part="1" 
AR Path="/5ED6C99D" Ref="#PWR0145"  Part="1" 
F 0 "#PWR0145" H 8900 9550 50  0001 C CNN
F 1 "GND" H 8905 9627 50  0000 C CNN
F 2 "" H 8900 9800 50  0001 C CNN
F 3 "" H 8900 9800 50  0001 C CNN
	1    8900 9800
	1    0    0    -1  
$EndComp
Text Label 12550 6800 0    50   ~ 0
Vcc_BATT
Text Label 8650 8950 0    50   ~ 0
V_REGN
Text Notes 7950 5100 0    129  ~ 0
BATTERY MANAGEMENT
Text Notes 8150 8750 0    50   ~ 0
BATTERY TEMP SENSOR
$Comp
L Device:R R?
U 1 1 5ED6C9A7
P 8900 7800
AR Path="/5E708DE7/5ED6C9A7" Ref="R?"  Part="1" 
AR Path="/5ED6C9A7" Ref="R26"  Part="1" 
F 0 "R26" H 8900 7950 50  0000 L CNN
F 1 "1K" H 8900 7650 50  0000 L CNN
F 2 "Resistor_SMD:R_1206_3216Metric_Pad1.42x1.75mm_HandSolder" V 8830 7800 50  0001 C CNN
F 3 "~" H 8900 7800 50  0001 C CNN
	1    8900 7800
	1    0    0    -1  
$EndComp
$Comp
L Device:R R?
U 1 1 5ED6C9AD
P 9150 7800
AR Path="/5E708DE7/5ED6C9AD" Ref="R?"  Part="1" 
AR Path="/5ED6C9AD" Ref="R29"  Part="1" 
F 0 "R29" H 9150 7950 50  0000 L CNN
F 1 "2.2K" H 9150 7650 50  0000 L CNN
F 2 "Resistor_SMD:R_1206_3216Metric_Pad1.42x1.75mm_HandSolder" V 9080 7800 50  0001 C CNN
F 3 "~" H 9150 7800 50  0001 C CNN
	1    9150 7800
	1    0    0    -1  
$EndComp
Text Notes 14250 5000 0    129  ~ 0
5VA
Text Notes 14350 6650 0    129  ~ 0
1V8A
Text Notes 14150 8450 0    129  ~ 0
3V3D
Wire Wire Line
	12200 6800 12550 6800
Connection ~ 12550 6800
Wire Wire Line
	12550 6800 12850 6800
$Comp
L Device:C C?
U 1 1 5ED6C9B9
P 12200 6950
AR Path="/5E708DE7/5ED6C9B9" Ref="C?"  Part="1" 
AR Path="/5ED6C9B9" Ref="C23"  Part="1" 
F 0 "C23" H 12250 7050 50  0000 L CNN
F 1 "100n" H 12250 6850 50  0000 L CNN
F 2 "Capacitor_SMD:C_0603_1608Metric_Pad1.05x0.95mm_HandSolder" H 12238 6800 50  0001 C CNN
F 3 "~" H 12200 6950 50  0001 C CNN
	1    12200 6950
	1    0    0    -1  
$EndComp
$Comp
L power:GND #PWR?
U 1 1 5ED6C9BF
P 12850 7150
AR Path="/5E708DE7/5ED6C9BF" Ref="#PWR?"  Part="1" 
AR Path="/5ED6C9BF" Ref="#PWR0146"  Part="1" 
F 0 "#PWR0146" H 12850 6900 50  0001 C CNN
F 1 "GND" H 12900 7000 50  0000 C CNN
F 2 "" H 12850 7150 50  0001 C CNN
F 3 "" H 12850 7150 50  0001 C CNN
	1    12850 7150
	1    0    0    -1  
$EndComp
Wire Wire Line
	12850 7100 12850 7150
$Comp
L Device:C C?
U 1 1 5ED6C9C6
P 15300 5650
AR Path="/5E708DE7/5ED6C9C6" Ref="C?"  Part="1" 
AR Path="/5ED6C9C6" Ref="C31"  Part="1" 
F 0 "C31" H 15350 5750 50  0000 L CNN
F 1 "2.2u" H 15350 5550 50  0000 L CNN
F 2 "Capacitor_SMD:C_1206_3216Metric_Pad1.42x1.75mm_HandSolder" H 15338 5500 50  0001 C CNN
F 3 "~" H 15300 5650 50  0001 C CNN
	1    15300 5650
	1    0    0    -1  
$EndComp
$Comp
L Device:C C?
U 1 1 5ED6C9CC
P 13650 5650
AR Path="/5E708DE7/5ED6C9CC" Ref="C?"  Part="1" 
AR Path="/5ED6C9CC" Ref="C26"  Part="1" 
F 0 "C26" H 13700 5750 50  0000 L CNN
F 1 "2.2u" H 13700 5550 50  0000 L CNN
F 2 "Capacitor_SMD:C_1206_3216Metric_Pad1.42x1.75mm_HandSolder" H 13688 5500 50  0001 C CNN
F 3 "~" H 13650 5650 50  0001 C CNN
	1    13650 5650
	1    0    0    -1  
$EndComp
$Comp
L zeman:TPS709 U?
U 1 1 5ED6C9D2
P 14450 5400
AR Path="/5E708DE7/5ED6C9D2" Ref="U?"  Part="1" 
AR Path="/5ED6C9D2" Ref="U7"  Part="1" 
F 0 "U7" H 14250 5600 50  0000 L CNN
F 1 "TPS7095" H 14350 5200 50  0000 L CNN
F 2 "Package_TO_SOT_SMD:SOT-23-5_HandSoldering" H 14450 5400 50  0001 C CNN
F 3 "" H 14450 5400 50  0001 C CNN
	1    14450 5400
	1    0    0    -1  
$EndComp
$Comp
L Device:C C?
U 1 1 5ED6C9D8
P 15000 5650
AR Path="/5E708DE7/5ED6C9D8" Ref="C?"  Part="1" 
AR Path="/5ED6C9D8" Ref="C29"  Part="1" 
F 0 "C29" H 15050 5750 50  0000 L CNN
F 1 "100n" H 15050 5550 50  0000 L CNN
F 2 "Capacitor_SMD:C_0603_1608Metric_Pad1.05x0.95mm_HandSolder" H 15038 5500 50  0001 C CNN
F 3 "~" H 15000 5650 50  0001 C CNN
	1    15000 5650
	1    0    0    -1  
$EndComp
Wire Wire Line
	15000 5800 15000 5850
Wire Wire Line
	14750 5450 15000 5450
Wire Wire Line
	15300 5800 15300 5850
Wire Wire Line
	15000 5500 15000 5450
Connection ~ 15000 5450
Wire Wire Line
	15000 5450 15300 5450
Wire Wire Line
	15300 5450 15300 5500
Wire Wire Line
	14150 5400 14000 5400
$Comp
L power:GND #PWR?
U 1 1 5ED6C9E6
P 14000 5850
AR Path="/5E708DE7/5ED6C9E6" Ref="#PWR?"  Part="1" 
AR Path="/5ED6C9E6" Ref="#PWR0147"  Part="1" 
F 0 "#PWR0147" H 14000 5600 50  0001 C CNN
F 1 "GND" H 14005 5677 50  0000 C CNN
F 2 "" H 14000 5850 50  0001 C CNN
F 3 "" H 14000 5850 50  0001 C CNN
	1    14000 5850
	1    0    0    -1  
$EndComp
Wire Wire Line
	14150 5300 13650 5300
Wire Wire Line
	13650 5300 13650 5500
$Comp
L power:GND #PWR?
U 1 1 5ED6C9EE
P 13650 5850
AR Path="/5E708DE7/5ED6C9EE" Ref="#PWR?"  Part="1" 
AR Path="/5ED6C9EE" Ref="#PWR0148"  Part="1" 
F 0 "#PWR0148" H 13650 5600 50  0001 C CNN
F 1 "GND" H 13655 5677 50  0000 C CNN
F 2 "" H 13650 5850 50  0001 C CNN
F 3 "" H 13650 5850 50  0001 C CNN
	1    13650 5850
	1    0    0    -1  
$EndComp
Wire Wire Line
	13650 5850 13650 5800
Wire Wire Line
	14000 5400 14000 5850
Text Label 13250 5300 0    50   ~ 0
Vcc_BATT
Wire Wire Line
	13650 5300 13250 5300
Connection ~ 13650 5300
Wire Wire Line
	15300 5450 15600 5450
Connection ~ 15300 5450
$Comp
L Device:C C?
U 1 1 5ED6C9FB
P 15450 7350
AR Path="/5E708DE7/5ED6C9FB" Ref="C?"  Part="1" 
AR Path="/5ED6C9FB" Ref="C33"  Part="1" 
F 0 "C33" H 15500 7450 50  0000 L CNN
F 1 "2.2u" H 15500 7250 50  0000 L CNN
F 2 "Capacitor_SMD:C_1206_3216Metric_Pad1.42x1.75mm_HandSolder" H 15488 7200 50  0001 C CNN
F 3 "~" H 15450 7350 50  0001 C CNN
	1    15450 7350
	1    0    0    -1  
$EndComp
$Comp
L Device:C C?
U 1 1 5ED6CA01
P 13800 7350
AR Path="/5E708DE7/5ED6CA01" Ref="C?"  Part="1" 
AR Path="/5ED6CA01" Ref="C28"  Part="1" 
F 0 "C28" H 13850 7450 50  0000 L CNN
F 1 "2.2u" H 13850 7250 50  0000 L CNN
F 2 "Capacitor_SMD:C_1206_3216Metric_Pad1.42x1.75mm_HandSolder" H 13838 7200 50  0001 C CNN
F 3 "~" H 13800 7350 50  0001 C CNN
	1    13800 7350
	1    0    0    -1  
$EndComp
$Comp
L zeman:TPS709 U?
U 1 1 5ED6CA07
P 14600 7100
AR Path="/5E708DE7/5ED6CA07" Ref="U?"  Part="1" 
AR Path="/5ED6CA07" Ref="U8"  Part="1" 
F 0 "U8" H 14600 7425 50  0000 C CNN
F 1 "TPS70918" H 14600 7334 50  0000 C CNN
F 2 "Package_TO_SOT_SMD:SOT-23-5_HandSoldering" H 14600 7100 50  0001 C CNN
F 3 "" H 14600 7100 50  0001 C CNN
	1    14600 7100
	1    0    0    -1  
$EndComp
$Comp
L Device:C C?
U 1 1 5ED6CA0D
P 15150 7350
AR Path="/5E708DE7/5ED6CA0D" Ref="C?"  Part="1" 
AR Path="/5ED6CA0D" Ref="C30"  Part="1" 
F 0 "C30" H 15200 7450 50  0000 L CNN
F 1 "100n" H 15200 7250 50  0000 L CNN
F 2 "Capacitor_SMD:C_0603_1608Metric_Pad1.05x0.95mm_HandSolder" H 15188 7200 50  0001 C CNN
F 3 "~" H 15150 7350 50  0001 C CNN
	1    15150 7350
	1    0    0    -1  
$EndComp
Wire Wire Line
	15150 7500 15150 7550
Wire Wire Line
	14900 7150 15150 7150
Wire Wire Line
	15450 7500 15450 7550
Wire Wire Line
	15150 7200 15150 7150
Connection ~ 15150 7150
Wire Wire Line
	15150 7150 15450 7150
Wire Wire Line
	15450 7150 15450 7200
Wire Wire Line
	14300 7100 14150 7100
$Comp
L power:GND #PWR?
U 1 1 5ED6CA1B
P 14150 7550
AR Path="/5E708DE7/5ED6CA1B" Ref="#PWR?"  Part="1" 
AR Path="/5ED6CA1B" Ref="#PWR0149"  Part="1" 
F 0 "#PWR0149" H 14150 7300 50  0001 C CNN
F 1 "GND" H 14155 7377 50  0000 C CNN
F 2 "" H 14150 7550 50  0001 C CNN
F 3 "" H 14150 7550 50  0001 C CNN
	1    14150 7550
	1    0    0    -1  
$EndComp
Wire Wire Line
	14300 7000 13800 7000
Wire Wire Line
	13800 7000 13800 7200
$Comp
L power:GND #PWR?
U 1 1 5ED6CA23
P 13800 7550
AR Path="/5E708DE7/5ED6CA23" Ref="#PWR?"  Part="1" 
AR Path="/5ED6CA23" Ref="#PWR0150"  Part="1" 
F 0 "#PWR0150" H 13800 7300 50  0001 C CNN
F 1 "GND" H 13805 7377 50  0000 C CNN
F 2 "" H 13800 7550 50  0001 C CNN
F 3 "" H 13800 7550 50  0001 C CNN
	1    13800 7550
	1    0    0    -1  
$EndComp
Wire Wire Line
	13800 7550 13800 7500
Wire Wire Line
	14150 7100 14150 7550
Text Label 13400 7000 0    50   ~ 0
Vcc_BATT
Wire Wire Line
	13800 7000 13400 7000
Connection ~ 13800 7000
Wire Wire Line
	15450 7150 15750 7150
Connection ~ 15450 7150
$Comp
L power:GND #PWR?
U 1 1 5ED6CA30
P 15350 9450
AR Path="/5E708DE7/5ED6CA30" Ref="#PWR?"  Part="1" 
AR Path="/5ED6CA30" Ref="#PWR0151"  Part="1" 
F 0 "#PWR0151" H 15350 9200 50  0001 C CNN
F 1 "GND" H 15355 9277 50  0000 C CNN
F 2 "" H 15350 9450 50  0001 C CNN
F 3 "" H 15350 9450 50  0001 C CNN
	1    15350 9450
	1    0    0    -1  
$EndComp
$Comp
L Device:L L?
U 1 1 5ED6CA36
P 15150 9000
AR Path="/5E708DE7/5ED6CA36" Ref="L?"  Part="1" 
AR Path="/5ED6CA36" Ref="L2"  Part="1" 
F 0 "L2" V 15200 9150 50  0000 C CNN
F 1 "2.2u" V 15100 9000 50  0000 C CNN
F 2 "zeman:IFSC0806" H 15150 9000 50  0001 C CNN
F 3 "~" H 15150 9000 50  0001 C CNN
	1    15150 9000
	0    -1   -1   0   
$EndComp
$Comp
L Device:C C?
U 1 1 5ED6CA3C
P 13650 9250
AR Path="/5E708DE7/5ED6CA3C" Ref="C?"  Part="1" 
AR Path="/5ED6CA3C" Ref="C27"  Part="1" 
F 0 "C27" H 13700 9350 50  0000 L CNN
F 1 "10u" H 13700 9150 50  0000 L CNN
F 2 "Capacitor_SMD:C_0805_2012Metric_Pad1.15x1.40mm_HandSolder" H 13688 9100 50  0001 C CNN
F 3 "~" H 13650 9250 50  0001 C CNN
	1    13650 9250
	1    0    0    -1  
$EndComp
$Comp
L power:GND #PWR?
U 1 1 5ED6CA42
P 13650 9450
AR Path="/5E708DE7/5ED6CA42" Ref="#PWR?"  Part="1" 
AR Path="/5ED6CA42" Ref="#PWR0152"  Part="1" 
F 0 "#PWR0152" H 13650 9200 50  0001 C CNN
F 1 "GND" H 13655 9277 50  0000 C CNN
F 2 "" H 13650 9450 50  0001 C CNN
F 3 "" H 13650 9450 50  0001 C CNN
	1    13650 9450
	1    0    0    -1  
$EndComp
$Comp
L power:GND #PWR?
U 1 1 5ED6CA48
P 13900 8700
AR Path="/5E708DE7/5ED6CA48" Ref="#PWR?"  Part="1" 
AR Path="/5ED6CA48" Ref="#PWR0153"  Part="1" 
F 0 "#PWR0153" H 13900 8450 50  0001 C CNN
F 1 "GND" H 13800 8600 50  0000 C CNN
F 2 "" H 13900 8700 50  0001 C CNN
F 3 "" H 13900 8700 50  0001 C CNN
	1    13900 8700
	1    0    0    -1  
$EndComp
$Comp
L Device:C C?
U 1 1 5ED6CA4E
P 15350 9200
AR Path="/5E708DE7/5ED6CA4E" Ref="C?"  Part="1" 
AR Path="/5ED6CA4E" Ref="C32"  Part="1" 
F 0 "C32" H 15400 9300 50  0000 L CNN
F 1 "10u" H 15400 9100 50  0000 L CNN
F 2 "Capacitor_SMD:C_0805_2012Metric_Pad1.15x1.40mm_HandSolder" H 15388 9050 50  0001 C CNN
F 3 "~" H 15350 9200 50  0001 C CNN
	1    15350 9200
	1    0    0    -1  
$EndComp
Text Label 13200 9000 0    50   ~ 0
Vcc_BATT
Wire Wire Line
	9700 7950 9700 8100
$Comp
L power:GNDA #PWR?
U 1 1 5ED6CA56
P 15150 7550
AR Path="/5E708DE7/5ED6CA56" Ref="#PWR?"  Part="1" 
AR Path="/5ED6CA56" Ref="#PWR0154"  Part="1" 
F 0 "#PWR0154" H 15150 7300 50  0001 C CNN
F 1 "GNDA" H 15155 7377 50  0000 C CNN
F 2 "" H 15150 7550 50  0001 C CNN
F 3 "" H 15150 7550 50  0001 C CNN
	1    15150 7550
	1    0    0    -1  
$EndComp
$Comp
L power:GNDA #PWR?
U 1 1 5ED6CA5C
P 15450 7550
AR Path="/5E708DE7/5ED6CA5C" Ref="#PWR?"  Part="1" 
AR Path="/5ED6CA5C" Ref="#PWR0155"  Part="1" 
F 0 "#PWR0155" H 15450 7300 50  0001 C CNN
F 1 "GNDA" H 15455 7377 50  0000 C CNN
F 2 "" H 15450 7550 50  0001 C CNN
F 3 "" H 15450 7550 50  0001 C CNN
	1    15450 7550
	1    0    0    -1  
$EndComp
$Comp
L power:GNDA #PWR?
U 1 1 5ED6CA62
P 15000 5850
AR Path="/5E708DE7/5ED6CA62" Ref="#PWR?"  Part="1" 
AR Path="/5ED6CA62" Ref="#PWR0156"  Part="1" 
F 0 "#PWR0156" H 15000 5600 50  0001 C CNN
F 1 "GNDA" H 15005 5677 50  0000 C CNN
F 2 "" H 15000 5850 50  0001 C CNN
F 3 "" H 15000 5850 50  0001 C CNN
	1    15000 5850
	1    0    0    -1  
$EndComp
$Comp
L power:GNDA #PWR?
U 1 1 5ED6CA68
P 15300 5850
AR Path="/5E708DE7/5ED6CA68" Ref="#PWR?"  Part="1" 
AR Path="/5ED6CA68" Ref="#PWR0157"  Part="1" 
F 0 "#PWR0157" H 15300 5600 50  0001 C CNN
F 1 "GNDA" H 15305 5677 50  0000 C CNN
F 2 "" H 15300 5850 50  0001 C CNN
F 3 "" H 15300 5850 50  0001 C CNN
	1    15300 5850
	1    0    0    -1  
$EndComp
$Comp
L power:GNDA #PWR?
U 1 1 5ED6CA6E
P 11250 9600
AR Path="/5E708DE7/5ED6CA6E" Ref="#PWR?"  Part="1" 
AR Path="/5ED6CA6E" Ref="#PWR0158"  Part="1" 
F 0 "#PWR0158" H 11250 9350 50  0001 C CNN
F 1 "GNDA" H 11255 9427 50  0000 C CNN
F 2 "" H 11250 9600 50  0001 C CNN
F 3 "" H 11250 9600 50  0001 C CNN
	1    11250 9600
	1    0    0    -1  
$EndComp
$Comp
L power:GND #PWR?
U 1 1 5ED6CA74
P 10550 9600
AR Path="/5E708DE7/5ED6CA74" Ref="#PWR?"  Part="1" 
AR Path="/5ED6CA74" Ref="#PWR0159"  Part="1" 
F 0 "#PWR0159" H 10550 9350 50  0001 C CNN
F 1 "GND" H 10555 9427 50  0000 C CNN
F 2 "" H 10550 9600 50  0001 C CNN
F 3 "" H 10550 9600 50  0001 C CNN
	1    10550 9600
	1    0    0    -1  
$EndComp
Wire Wire Line
	10550 9600 10550 9500
Wire Wire Line
	11250 9350 11250 9500
Text Notes 10350 9000 0    129  ~ 0
ANALOG GROUND TIE 
$Comp
L zeman:TPS6217 U?
U 1 1 5ED6CA7D
P 14400 8950
AR Path="/5E708DE7/5ED6CA7D" Ref="U?"  Part="1" 
AR Path="/5ED6CA7D" Ref="U6"  Part="1" 
F 0 "U6" H 14400 9365 50  0000 C CNN
F 1 "TPS6217" H 14400 9274 50  0000 C CNN
F 2 "Package_SON:WSON-8-1EP_2x2mm_P0.5mm_EP0.9x1.6mm_ThermalVias" H 14400 8950 50  0001 C CNN
F 3 "" H 14400 8950 50  0001 C CNN
	1    14400 8950
	1    0    0    -1  
$EndComp
Wire Wire Line
	14050 9000 13850 9000
Wire Wire Line
	13850 9000 13850 8900
Wire Wire Line
	13850 8900 14050 8900
Wire Wire Line
	14750 9000 15000 9000
Wire Wire Line
	15350 9050 15350 9000
Wire Wire Line
	15350 9000 15300 9000
$Comp
L power:GND #PWR?
U 1 1 5ED6CA89
P 14900 8700
AR Path="/5E708DE7/5ED6CA89" Ref="#PWR?"  Part="1" 
AR Path="/5ED6CA89" Ref="#PWR0160"  Part="1" 
F 0 "#PWR0160" H 14900 8450 50  0001 C CNN
F 1 "GND" H 15000 8600 50  0000 C CNN
F 2 "" H 14900 8700 50  0001 C CNN
F 3 "" H 14900 8700 50  0001 C CNN
	1    14900 8700
	1    0    0    -1  
$EndComp
Connection ~ 13850 9000
Wire Wire Line
	14750 8900 15350 8900
Wire Wire Line
	15350 8900 15350 9000
Connection ~ 15350 9000
Wire Wire Line
	14750 8800 14800 8800
Wire Wire Line
	14050 8800 14000 8800
Wire Wire Line
	14000 8800 14000 8650
Wire Wire Line
	14000 8650 13900 8650
Wire Wire Line
	13900 8650 13900 8700
Wire Wire Line
	14800 8800 14800 8650
Wire Wire Line
	14800 8650 14900 8650
Wire Wire Line
	14900 8650 14900 8700
Wire Wire Line
	13900 9100 14050 9100
Wire Wire Line
	13900 9100 13900 9450
Wire Wire Line
	13200 9000 13650 9000
Wire Wire Line
	13650 9100 13650 9000
Connection ~ 13650 9000
Wire Wire Line
	13650 9000 13850 9000
Wire Wire Line
	13650 9450 13650 9400
Wire Wire Line
	15350 9350 15350 9450
Wire Wire Line
	14750 9100 14900 9100
$Comp
L power:GND #PWR?
U 1 1 5ED6CAA4
P 14900 9450
AR Path="/5E708DE7/5ED6CAA4" Ref="#PWR?"  Part="1" 
AR Path="/5ED6CAA4" Ref="#PWR0161"  Part="1" 
F 0 "#PWR0161" H 14900 9200 50  0001 C CNN
F 1 "GND" H 14905 9277 50  0000 C CNN
F 2 "" H 14900 9450 50  0001 C CNN
F 3 "" H 14900 9450 50  0001 C CNN
	1    14900 9450
	1    0    0    -1  
$EndComp
$Comp
L power:GND #PWR?
U 1 1 5ED6CAAA
P 13900 9450
AR Path="/5E708DE7/5ED6CAAA" Ref="#PWR?"  Part="1" 
AR Path="/5ED6CAAA" Ref="#PWR0162"  Part="1" 
F 0 "#PWR0162" H 13900 9200 50  0001 C CNN
F 1 "GND" H 13905 9277 50  0000 C CNN
F 2 "" H 13900 9450 50  0001 C CNN
F 3 "" H 13900 9450 50  0001 C CNN
	1    13900 9450
	1    0    0    -1  
$EndComp
Wire Wire Line
	14900 9450 14900 9100
Wire Wire Line
	15350 9000 15650 9000
Text GLabel 9850 6450 1    50   BiDi ~ 0
D-
$Comp
L power:+3.3V #PWR?
U 1 1 5ED6CAB3
P 9500 5550
AR Path="/5E708DE7/5ED6CAB3" Ref="#PWR?"  Part="1" 
AR Path="/5ED6CAB3" Ref="#PWR0163"  Part="1" 
F 0 "#PWR0163" H 9500 5400 50  0001 C CNN
F 1 "+3.3V" H 9515 5723 50  0000 C CNN
F 2 "" H 9500 5550 50  0001 C CNN
F 3 "" H 9500 5550 50  0001 C CNN
	1    9500 5550
	1    0    0    -1  
$EndComp
$Comp
L power:+3.3V #PWR?
U 1 1 5ED6CAB9
P 9150 5550
AR Path="/5E708DE7/5ED6CAB9" Ref="#PWR?"  Part="1" 
AR Path="/5ED6CAB9" Ref="#PWR0164"  Part="1" 
F 0 "#PWR0164" H 9150 5400 50  0001 C CNN
F 1 "+3.3V" H 9165 5723 50  0000 C CNN
F 2 "" H 9150 5550 50  0001 C CNN
F 3 "" H 9150 5550 50  0001 C CNN
	1    9150 5550
	1    0    0    -1  
$EndComp
$Comp
L power:+1V8 #PWR?
U 1 1 5ED6CABF
P 15750 7150
AR Path="/5E708DE7/5ED6CABF" Ref="#PWR?"  Part="1" 
AR Path="/5ED6CABF" Ref="#PWR0177"  Part="1" 
F 0 "#PWR0177" H 15750 7000 50  0001 C CNN
F 1 "+1V8" H 15765 7323 50  0000 C CNN
F 2 "" H 15750 7150 50  0001 C CNN
F 3 "" H 15750 7150 50  0001 C CNN
	1    15750 7150
	1    0    0    -1  
$EndComp
$Comp
L power:+3.3V #PWR?
U 1 1 5ED6CAC5
P 15650 9000
AR Path="/5E708DE7/5ED6CAC5" Ref="#PWR?"  Part="1" 
AR Path="/5ED6CAC5" Ref="#PWR0178"  Part="1" 
F 0 "#PWR0178" H 15650 8850 50  0001 C CNN
F 1 "+3.3V" H 15665 9173 50  0000 C CNN
F 2 "" H 15650 9000 50  0001 C CNN
F 3 "" H 15650 9000 50  0001 C CNN
	1    15650 9000
	1    0    0    -1  
$EndComp
$Comp
L power:+5VA #PWR?
U 1 1 5ED6CACB
P 15600 5450
AR Path="/5E708DE7/5ED6CACB" Ref="#PWR?"  Part="1" 
AR Path="/5ED6CACB" Ref="#PWR0179"  Part="1" 
F 0 "#PWR0179" H 15600 5300 50  0001 C CNN
F 1 "+5VA" H 15615 5623 50  0000 C CNN
F 2 "" H 15600 5450 50  0001 C CNN
F 3 "" H 15600 5450 50  0001 C CNN
	1    15600 5450
	1    0    0    -1  
$EndComp
Text GLabel 11000 7500 2    50   BiDi ~ 0
V_USB
Wire Wire Line
	10850 7500 11000 7500
Wire Wire Line
	9950 6500 9850 6500
Wire Wire Line
	9850 6500 9850 6450
Wire Wire Line
	10950 7600 10950 7650
Text GLabel 10950 7650 3    50   BiDi ~ 0
D+
$Comp
L zeman:BQ25886 U?
U 1 1 5ED6CAD7
P 10450 7050
AR Path="/5E708DE7/5ED6CAD7" Ref="U?"  Part="1" 
AR Path="/5ED6CAD7" Ref="U5"  Part="1" 
F 0 "U5" H 10400 7865 50  0000 C CNN
F 1 "BQ25886" H 10400 7774 50  0000 C CNN
F 2 "zeman:QFN-24_0.5" H 10500 7050 50  0001 C CNN
F 3 "" H 10500 7050 50  0001 C CNN
	1    10450 7050
	1    0    0    -1  
$EndComp
$Comp
L Device:Net-Tie_2 NT?
U 1 1 5ED6CADD
P 10900 9350
AR Path="/5E708DE7/5ED6CADD" Ref="NT?"  Part="1" 
AR Path="/5ED6CADD" Ref="NT1"  Part="1" 
F 0 "NT1" H 10900 9531 50  0000 C CNN
F 1 "Net-Tie_2" H 10900 9440 50  0000 C CNN
F 2 "NetTie:NetTie-2_SMD_Pad0.5mm" H 10900 9350 50  0001 C CNN
F 3 "~" H 10900 9350 50  0001 C CNN
	1    10900 9350
	1    0    0    -1  
$EndComp
Wire Wire Line
	10550 9350 10800 9350
Wire Wire Line
	11000 9350 11250 9350
$Comp
L Device:Net-Tie_2 NT?
U 1 1 5ED6CAE5
P 10900 9500
AR Path="/5E708DE7/5ED6CAE5" Ref="NT?"  Part="1" 
AR Path="/5ED6CAE5" Ref="NT2"  Part="1" 
F 0 "NT2" H 10900 9681 50  0000 C CNN
F 1 "Net-Tie_2" H 10900 9590 50  0000 C CNN
F 2 "NetTie:NetTie-2_SMD_Pad0.5mm" H 10900 9500 50  0001 C CNN
F 3 "~" H 10900 9500 50  0001 C CNN
	1    10900 9500
	1    0    0    -1  
$EndComp
Wire Wire Line
	10800 9500 10550 9500
Connection ~ 10550 9500
Wire Wire Line
	10550 9500 10550 9350
Wire Wire Line
	11250 9500 11000 9500
Connection ~ 11250 9500
Wire Wire Line
	11250 9500 11250 9600
$EndSCHEMATC
