EESchema Schematic File Version 4
EELAYER 30 0
EELAYER END
$Descr A3 16535 11693
encoding utf-8
Sheet 2 2
Title ""
Date ""
Rev ""
Comp ""
Comment1 ""
Comment2 ""
Comment3 ""
Comment4 ""
$EndDescr
Wire Wire Line
	5000 3600 5100 3600
Wire Wire Line
	5000 3500 5100 3500
Wire Wire Line
	5100 3500 5100 3600
Connection ~ 5100 3600
Wire Wire Line
	5000 3400 5100 3400
Wire Wire Line
	5000 3300 5100 3300
Wire Wire Line
	5100 3300 5100 3400
Wire Wire Line
	5000 3700 5100 3700
Wire Wire Line
	5100 3700 5100 3800
Wire Wire Line
	5000 3800 5100 3800
Connection ~ 5100 3800
Wire Wire Line
	5000 4100 5100 4100
Wire Wire Line
	5100 4100 5100 4200
Wire Wire Line
	5000 4200 5100 4200
Connection ~ 5100 4200
Wire Wire Line
	5000 4000 5100 4000
Wire Wire Line
	5000 3900 5100 3900
Wire Wire Line
	5100 3900 5100 4000
$Comp
L power:GND #PWR0134
U 1 1 5E714945
P 5350 3950
F 0 "#PWR0134" H 5350 3700 50  0001 C CNN
F 1 "GND" H 5350 3800 50  0000 C CNN
F 2 "" H 5350 3950 50  0001 C CNN
F 3 "" H 5350 3950 50  0001 C CNN
	1    5350 3950
	1    0    0    -1  
$EndComp
$Comp
L Connector:Conn_01x02_Male J3
U 1 1 5E715649
P 5600 3400
F 0 "J3" H 5550 3400 50  0000 C CNN
F 1 "battery_conn" H 5350 3300 50  0000 C CNN
F 2 "Connector_PinHeader_1.00mm:PinHeader_1x02_P1.00mm_Vertical" H 5600 3400 50  0001 C CNN
F 3 "~" H 5600 3400 50  0001 C CNN
	1    5600 3400
	-1   0    0    1   
$EndComp
Wire Wire Line
	5100 3600 6350 3600
Connection ~ 5100 3300
Wire Wire Line
	5100 3300 5400 3300
Wire Wire Line
	5400 3400 5350 3400
Wire Wire Line
	5350 3400 5350 3450
$Comp
L power:GND #PWR0135
U 1 1 5E71C126
P 5350 3450
F 0 "#PWR0135" H 5350 3200 50  0001 C CNN
F 1 "GND" H 5450 3350 50  0000 C CNN
F 2 "" H 5350 3450 50  0001 C CNN
F 3 "" H 5350 3450 50  0001 C CNN
	1    5350 3450
	1    0    0    -1  
$EndComp
Wire Wire Line
	5100 3900 5350 3900
Wire Wire Line
	5350 3900 5350 3950
Connection ~ 5100 3900
Wire Wire Line
	5000 4400 5100 4400
$Comp
L Device:C C22
U 1 1 5E721D87
P 5600 4350
F 0 "C22" H 5650 4450 50  0000 L CNN
F 1 "2.2u" H 5600 4250 50  0000 L CNN
F 2 "Capacitor_SMD:C_1206_3216Metric_Pad1.42x1.75mm_HandSolder" H 5638 4200 50  0001 C CNN
F 3 "~" H 5600 4350 50  0001 C CNN
	1    5600 4350
	1    0    0    -1  
$EndComp
$Comp
L Device:C C23
U 1 1 5E72243E
P 5900 4350
F 0 "C23" H 5950 4450 50  0000 L CNN
F 1 "47u" H 5900 4250 50  0000 L CNN
F 2 "Capacitor_SMD:C_1206_3216Metric_Pad1.42x1.75mm_HandSolder" H 5938 4200 50  0001 C CNN
F 3 "~" H 5900 4350 50  0001 C CNN
	1    5900 4350
	1    0    0    -1  
$EndComp
Wire Wire Line
	5100 4200 5600 4200
Connection ~ 5600 4200
Wire Wire Line
	5600 4200 5900 4200
Connection ~ 5900 4200
Wire Wire Line
	5900 4200 6050 4200
Wire Wire Line
	5600 4500 5600 4550
Wire Wire Line
	5900 4500 5900 4550
$Comp
L power:GND #PWR0136
U 1 1 5E723DDD
P 5600 4550
F 0 "#PWR0136" H 5600 4300 50  0001 C CNN
F 1 "GND" H 5600 4400 50  0000 C CNN
F 2 "" H 5600 4550 50  0001 C CNN
F 3 "" H 5600 4550 50  0001 C CNN
	1    5600 4550
	1    0    0    -1  
$EndComp
$Comp
L power:GND #PWR0137
U 1 1 5E7243FC
P 5900 4550
F 0 "#PWR0137" H 5900 4300 50  0001 C CNN
F 1 "GND" H 5900 4400 50  0000 C CNN
F 2 "" H 5900 4550 50  0001 C CNN
F 3 "" H 5900 4550 50  0001 C CNN
	1    5900 4550
	1    0    0    -1  
$EndComp
$Comp
L Device:L L1
U 1 1 5E724813
P 6050 4000
F 0 "L1" H 6102 4046 50  0000 L CNN
F 1 "6.8u" H 6102 3955 50  0000 L CNN
F 2 "zeman:IFSC0806" H 6050 4000 50  0001 C CNN
F 3 "~" H 6050 4000 50  0001 C CNN
	1    6050 4000
	1    0    0    -1  
$EndComp
Wire Wire Line
	6050 3800 6050 3850
Wire Wire Line
	5100 3800 6050 3800
Wire Wire Line
	6050 4150 6050 4200
Wire Wire Line
	4100 4400 3850 4400
Wire Wire Line
	3850 4400 3850 4450
$Comp
L Device:C C21
U 1 1 5E7260E0
P 3850 4600
F 0 "C21" H 3900 4700 50  0000 L CNN
F 1 "100n" H 3850 4500 50  0000 L CNN
F 2 "Capacitor_SMD:C_0603_1608Metric_Pad1.05x0.95mm_HandSolder" H 3888 4450 50  0001 C CNN
F 3 "~" H 3850 4600 50  0001 C CNN
	1    3850 4600
	1    0    0    -1  
$EndComp
Text Label 5900 3800 0    50   ~ 0
SW
Text Label 3850 4900 0    50   ~ 0
SW
$Comp
L Device:C C25
U 1 1 5E727D62
P 6700 3750
F 0 "C25" H 6750 3850 50  0000 L CNN
F 1 "2.2u" H 6750 3650 50  0000 L CNN
F 2 "Capacitor_SMD:C_1206_3216Metric_Pad1.42x1.75mm_HandSolder" H 6738 3600 50  0001 C CNN
F 3 "~" H 6700 3750 50  0001 C CNN
	1    6700 3750
	1    0    0    -1  
$EndComp
$Comp
L Device:C C26
U 1 1 5E728503
P 7000 3750
F 0 "C26" H 7050 3850 50  0000 L CNN
F 1 "47u" H 7050 3650 50  0000 L CNN
F 2 "Capacitor_SMD:C_1206_3216Metric_Pad1.42x1.75mm_HandSolder" H 7038 3600 50  0001 C CNN
F 3 "~" H 7000 3750 50  0001 C CNN
	1    7000 3750
	1    0    0    -1  
$EndComp
Connection ~ 6350 3600
$Comp
L power:GND #PWR0138
U 1 1 5E72988F
P 6350 3950
F 0 "#PWR0138" H 6350 3700 50  0001 C CNN
F 1 "GND" H 6400 3800 50  0000 C CNN
F 2 "" H 6350 3950 50  0001 C CNN
F 3 "" H 6350 3950 50  0001 C CNN
	1    6350 3950
	1    0    0    -1  
$EndComp
$Comp
L power:GND #PWR0139
U 1 1 5E729EF5
P 6700 3950
F 0 "#PWR0139" H 6700 3700 50  0001 C CNN
F 1 "GND" H 6750 3800 50  0000 C CNN
F 2 "" H 6700 3950 50  0001 C CNN
F 3 "" H 6700 3950 50  0001 C CNN
	1    6700 3950
	1    0    0    -1  
$EndComp
Wire Wire Line
	6350 3950 6350 3900
Wire Wire Line
	6700 3900 6700 3950
$Comp
L Device:C C20
U 1 1 5E72C5D1
P 3550 4600
F 0 "C20" H 3600 4700 50  0000 L CNN
F 1 "2.2u" H 3550 4500 50  0000 L CNN
F 2 "Capacitor_SMD:C_1206_3216Metric_Pad1.42x1.75mm_HandSolder" H 3588 4450 50  0001 C CNN
F 3 "~" H 3550 4600 50  0001 C CNN
	1    3550 4600
	1    0    0    -1  
$EndComp
Wire Wire Line
	4100 4300 3550 4300
Wire Wire Line
	3550 4300 3550 4450
Wire Wire Line
	3300 4200 3300 4450
Wire Wire Line
	3300 4200 4100 4200
Wire Wire Line
	3050 4000 4100 4000
Wire Wire Line
	3050 4000 3050 4450
Wire Wire Line
	4100 3800 2800 3800
$Comp
L Device:R R25
U 1 1 5E737C51
P 2800 4600
F 0 "R25" H 2800 4750 50  0000 L CNN
F 1 "150K" H 2800 4450 50  0000 L CNN
F 2 "Resistor_SMD:R_1206_3216Metric_Pad1.42x1.75mm_HandSolder" V 2730 4600 50  0001 C CNN
F 3 "~" H 2800 4600 50  0001 C CNN
	1    2800 4600
	1    0    0    -1  
$EndComp
Wire Wire Line
	2800 3800 2800 4450
Wire Wire Line
	3050 4750 3050 4800
Wire Wire Line
	3300 4750 3300 4800
Wire Wire Line
	3550 4750 3550 4800
Wire Wire Line
	2800 4750 2800 4800
$Comp
L power:GND #PWR0140
U 1 1 5E72E627
P 3550 4800
F 0 "#PWR0140" H 3550 4550 50  0001 C CNN
F 1 "GND" H 3555 4627 50  0000 C CNN
F 2 "" H 3550 4800 50  0001 C CNN
F 3 "" H 3550 4800 50  0001 C CNN
	1    3550 4800
	1    0    0    -1  
$EndComp
$Comp
L power:GND #PWR0141
U 1 1 5E73293D
P 3300 4800
F 0 "#PWR0141" H 3300 4550 50  0001 C CNN
F 1 "GND" H 3305 4627 50  0000 C CNN
F 2 "" H 3300 4800 50  0001 C CNN
F 3 "" H 3300 4800 50  0001 C CNN
	1    3300 4800
	1    0    0    -1  
$EndComp
$Comp
L power:GND #PWR0142
U 1 1 5E735C8E
P 3050 4800
F 0 "#PWR0142" H 3050 4550 50  0001 C CNN
F 1 "GND" H 3055 4627 50  0000 C CNN
F 2 "" H 3050 4800 50  0001 C CNN
F 3 "" H 3050 4800 50  0001 C CNN
	1    3050 4800
	1    0    0    -1  
$EndComp
$Comp
L power:GND #PWR0143
U 1 1 5E739BEB
P 2800 4800
F 0 "#PWR0143" H 2800 4550 50  0001 C CNN
F 1 "GND" H 2805 4627 50  0000 C CNN
F 2 "" H 2800 4800 50  0001 C CNN
F 3 "" H 2800 4800 50  0001 C CNN
	1    2800 4800
	1    0    0    -1  
$EndComp
Wire Wire Line
	4100 3700 2550 3700
Wire Wire Line
	2550 3700 2550 4450
$Comp
L Device:R R24
U 1 1 5E74122E
P 2550 4600
F 0 "R24" H 2550 4750 50  0000 L CNN
F 1 "10K" H 2550 4450 50  0000 L CNN
F 2 "Resistor_SMD:R_0805_2012Metric_Pad1.15x1.40mm_HandSolder" V 2480 4600 50  0001 C CNN
F 3 "~" H 2550 4600 50  0001 C CNN
	1    2550 4600
	1    0    0    -1  
$EndComp
Wire Wire Line
	2550 4750 2550 4800
$Comp
L power:GND #PWR0144
U 1 1 5E7423C1
P 2550 4800
F 0 "#PWR0144" H 2550 4550 50  0001 C CNN
F 1 "GND" H 2555 4627 50  0000 C CNN
F 2 "" H 2550 4800 50  0001 C CNN
F 3 "" H 2550 4800 50  0001 C CNN
	1    2550 4800
	1    0    0    -1  
$EndComp
$Comp
L Device:LED D6
U 1 1 5E74293A
P 3650 2950
F 0 "D6" V 3689 2833 50  0000 R CNN
F 1 "LED" V 3598 2833 50  0000 R CNN
F 2 "LED_SMD:LED_0805_2012Metric_Pad1.15x1.40mm_HandSolder" H 3650 2950 50  0001 C CNN
F 3 "~" H 3650 2950 50  0001 C CNN
	1    3650 2950
	0    -1   -1   0   
$EndComp
$Comp
L Device:R R32
U 1 1 5E74810C
P 3650 2650
F 0 "R32" H 3720 2696 50  0000 L CNN
F 1 "2.2K" H 3720 2605 50  0000 L CNN
F 2 "Resistor_SMD:R_1206_3216Metric_Pad1.42x1.75mm_HandSolder" V 3580 2650 50  0001 C CNN
F 3 "~" H 3650 2650 50  0001 C CNN
	1    3650 2650
	1    0    0    -1  
$EndComp
Wire Wire Line
	3650 2500 3650 2350
Wire Wire Line
	3650 3100 3650 3400
Wire Wire Line
	3650 3400 4100 3400
Wire Wire Line
	4100 3600 2300 3600
Wire Wire Line
	2300 3600 2300 4800
$Comp
L power:GND #PWR0145
U 1 1 5E74D3EF
P 2300 4800
F 0 "#PWR0145" H 2300 4550 50  0001 C CNN
F 1 "GND" H 2305 4627 50  0000 C CNN
F 2 "" H 2300 4800 50  0001 C CNN
F 3 "" H 2300 4800 50  0001 C CNN
	1    2300 4800
	1    0    0    -1  
$EndComp
$Comp
L Device:LED D5
U 1 1 5E75253E
P 3300 2950
F 0 "D5" V 3339 2833 50  0000 R CNN
F 1 "LED" V 3248 2833 50  0000 R CNN
F 2 "LED_SMD:LED_0805_2012Metric_Pad1.15x1.40mm_HandSolder" H 3300 2950 50  0001 C CNN
F 3 "~" H 3300 2950 50  0001 C CNN
	1    3300 2950
	0    -1   -1   0   
$EndComp
$Comp
L Device:R R30
U 1 1 5E752544
P 3300 2650
F 0 "R30" H 3370 2696 50  0000 L CNN
F 1 "2.2K" H 3370 2605 50  0000 L CNN
F 2 "Resistor_SMD:R_1206_3216Metric_Pad1.42x1.75mm_HandSolder" V 3230 2650 50  0001 C CNN
F 3 "~" H 3300 2650 50  0001 C CNN
	1    3300 2650
	1    0    0    -1  
$EndComp
Wire Wire Line
	3300 2500 3300 2350
Wire Wire Line
	3300 3100 3300 4100
Wire Wire Line
	3300 4100 4100 4100
Wire Wire Line
	4100 3900 3850 3900
Text Label 3850 3900 0    50   ~ 0
TS
Text Label 2550 6550 0    50   ~ 0
TS
Wire Wire Line
	2550 6550 2800 6550
$Comp
L Device:R R26
U 1 1 5E75A7AC
P 2800 6350
F 0 "R26" H 2600 6400 50  0000 L CNN
F 1 "5.24K" H 2500 6300 50  0000 L CNN
F 2 "Resistor_SMD:R_0805_2012Metric_Pad1.15x1.40mm_HandSolder" V 2730 6350 50  0001 C CNN
F 3 "~" H 2800 6350 50  0001 C CNN
	1    2800 6350
	1    0    0    -1  
$EndComp
$Comp
L Device:R R27
U 1 1 5E75AEEC
P 2800 6750
F 0 "R27" H 2600 6800 50  0000 L CNN
F 1 "30.31K" H 2450 6700 50  0000 L CNN
F 2 "Resistor_SMD:R_0805_2012Metric_Pad1.15x1.40mm_HandSolder" V 2730 6750 50  0001 C CNN
F 3 "~" H 2800 6750 50  0001 C CNN
	1    2800 6750
	1    0    0    -1  
$EndComp
$Comp
L power:GND #PWR0146
U 1 1 5E75B671
P 2800 6950
F 0 "#PWR0146" H 2800 6700 50  0001 C CNN
F 1 "GND" H 2805 6777 50  0000 C CNN
F 2 "" H 2800 6950 50  0001 C CNN
F 3 "" H 2800 6950 50  0001 C CNN
	1    2800 6950
	1    0    0    -1  
$EndComp
Text Label 3550 4300 0    50   ~ 0
V_REGN
Wire Wire Line
	2800 6100 2800 6200
Wire Wire Line
	2800 6500 2800 6550
Wire Wire Line
	2800 6600 2800 6550
Connection ~ 2800 6550
Wire Wire Line
	2800 6950 2800 6900
$Comp
L Connector:Conn_01x02_Male J2
U 1 1 5E7637EC
P 3250 6650
F 0 "J2" H 3200 6650 50  0000 C CNN
F 1 "NTC_conn" H 3000 6550 50  0000 C CNN
F 2 "Connector_PinHeader_1.00mm:PinHeader_1x02_P1.00mm_Vertical" H 3250 6650 50  0001 C CNN
F 3 "~" H 3250 6650 50  0001 C CNN
	1    3250 6650
	-1   0    0    1   
$EndComp
Wire Wire Line
	2800 6550 3050 6550
Wire Wire Line
	3050 6650 3050 6950
$Comp
L power:GND #PWR0147
U 1 1 5E768849
P 3050 6950
F 0 "#PWR0147" H 3050 6700 50  0001 C CNN
F 1 "GND" H 3055 6777 50  0000 C CNN
F 2 "" H 3050 6950 50  0001 C CNN
F 3 "" H 3050 6950 50  0001 C CNN
	1    3050 6950
	1    0    0    -1  
$EndComp
Text Label 6700 3600 0    50   ~ 0
Vcc_BATT
Text Label 2800 6100 0    50   ~ 0
V_REGN
Text Notes 2100 1900 0    129  ~ 0
BATTERY MANAGEMENT
Text Notes 2300 5900 0    50   ~ 0
BATTERY TEMP SENSOR
$Comp
L Device:R R29
U 1 1 5E7B28F9
P 3050 4600
F 0 "R29" H 3050 4750 50  0000 L CNN
F 1 "1K" H 3050 4450 50  0000 L CNN
F 2 "Resistor_SMD:R_1206_3216Metric_Pad1.42x1.75mm_HandSolder" V 2980 4600 50  0001 C CNN
F 3 "~" H 3050 4600 50  0001 C CNN
	1    3050 4600
	1    0    0    -1  
$EndComp
$Comp
L Device:R R31
U 1 1 5E7B2CC2
P 3300 4600
F 0 "R31" H 3300 4750 50  0000 L CNN
F 1 "2.2K" H 3300 4450 50  0000 L CNN
F 2 "Resistor_SMD:R_1206_3216Metric_Pad1.42x1.75mm_HandSolder" V 3230 4600 50  0001 C CNN
F 3 "~" H 3300 4600 50  0001 C CNN
	1    3300 4600
	1    0    0    -1  
$EndComp
Text Notes 10550 2250 0    129  ~ 0
5VA
Text Notes 10400 4550 0    129  ~ 0
1V8A
Text Notes 10550 6850 0    129  ~ 0
3V3D
Wire Wire Line
	6350 3600 6700 3600
Connection ~ 6700 3600
Wire Wire Line
	6700 3600 7000 3600
$Comp
L Device:C C24
U 1 1 5E7BAE4F
P 6350 3750
F 0 "C24" H 6400 3850 50  0000 L CNN
F 1 "100n" H 6400 3650 50  0000 L CNN
F 2 "Capacitor_SMD:C_0603_1608Metric_Pad1.05x0.95mm_HandSolder" H 6388 3600 50  0001 C CNN
F 3 "~" H 6350 3750 50  0001 C CNN
	1    6350 3750
	1    0    0    -1  
$EndComp
$Comp
L power:GND #PWR0148
U 1 1 5E7BB2E3
P 7000 3950
F 0 "#PWR0148" H 7000 3700 50  0001 C CNN
F 1 "GND" H 7050 3800 50  0000 C CNN
F 2 "" H 7000 3950 50  0001 C CNN
F 3 "" H 7000 3950 50  0001 C CNN
	1    7000 3950
	1    0    0    -1  
$EndComp
Wire Wire Line
	7000 3900 7000 3950
$Comp
L Device:C C33
U 1 1 5E7D59DB
P 11500 3200
F 0 "C33" H 11550 3300 50  0000 L CNN
F 1 "2.2u" H 11550 3100 50  0000 L CNN
F 2 "Capacitor_SMD:C_1206_3216Metric_Pad1.42x1.75mm_HandSolder" H 11538 3050 50  0001 C CNN
F 3 "~" H 11500 3200 50  0001 C CNN
	1    11500 3200
	1    0    0    -1  
$EndComp
$Comp
L Device:C C29
U 1 1 5E7D86EA
P 9850 3200
F 0 "C29" H 9900 3300 50  0000 L CNN
F 1 "2.2u" H 9900 3100 50  0000 L CNN
F 2 "Capacitor_SMD:C_1206_3216Metric_Pad1.42x1.75mm_HandSolder" H 9888 3050 50  0001 C CNN
F 3 "~" H 9850 3200 50  0001 C CNN
	1    9850 3200
	1    0    0    -1  
$EndComp
$Comp
L zeman:TPS709 U6
U 1 1 5E7E0652
P 10650 2950
F 0 "U6" H 10450 3150 50  0000 L CNN
F 1 "TPS7095" H 10550 2750 50  0000 L CNN
F 2 "Package_TO_SOT_SMD:SOT-23-5_HandSoldering" H 10650 2950 50  0001 C CNN
F 3 "" H 10650 2950 50  0001 C CNN
	1    10650 2950
	1    0    0    -1  
$EndComp
$Comp
L Device:C C31
U 1 1 5E7E6870
P 11200 3200
F 0 "C31" H 11250 3300 50  0000 L CNN
F 1 "100n" H 11250 3100 50  0000 L CNN
F 2 "Capacitor_SMD:C_0603_1608Metric_Pad1.05x0.95mm_HandSolder" H 11238 3050 50  0001 C CNN
F 3 "~" H 11200 3200 50  0001 C CNN
	1    11200 3200
	1    0    0    -1  
$EndComp
Wire Wire Line
	11200 3350 11200 3400
Wire Wire Line
	10950 3000 11200 3000
Wire Wire Line
	11500 3350 11500 3400
Wire Wire Line
	11200 3050 11200 3000
Connection ~ 11200 3000
Wire Wire Line
	11200 3000 11500 3000
Wire Wire Line
	11500 3000 11500 3050
Wire Wire Line
	10350 2950 10200 2950
$Comp
L power:GND #PWR0149
U 1 1 5E7F82EF
P 10200 3400
F 0 "#PWR0149" H 10200 3150 50  0001 C CNN
F 1 "GND" H 10205 3227 50  0000 C CNN
F 2 "" H 10200 3400 50  0001 C CNN
F 3 "" H 10200 3400 50  0001 C CNN
	1    10200 3400
	1    0    0    -1  
$EndComp
Wire Wire Line
	10350 2850 9850 2850
Wire Wire Line
	9850 2850 9850 3050
$Comp
L power:GND #PWR0150
U 1 1 5E801B1E
P 9850 3400
F 0 "#PWR0150" H 9850 3150 50  0001 C CNN
F 1 "GND" H 9855 3227 50  0000 C CNN
F 2 "" H 9850 3400 50  0001 C CNN
F 3 "" H 9850 3400 50  0001 C CNN
	1    9850 3400
	1    0    0    -1  
$EndComp
Wire Wire Line
	9850 3400 9850 3350
Wire Wire Line
	10200 2950 10200 3400
Text Label 9450 2850 0    50   ~ 0
Vcc_BATT
Wire Wire Line
	9850 2850 9450 2850
Connection ~ 9850 2850
Wire Wire Line
	11500 3000 11800 3000
Connection ~ 11500 3000
$Comp
L Device:C C34
U 1 1 5E812EB9
P 11500 5500
F 0 "C34" H 11550 5600 50  0000 L CNN
F 1 "2.2u" H 11550 5400 50  0000 L CNN
F 2 "Capacitor_SMD:C_1206_3216Metric_Pad1.42x1.75mm_HandSolder" H 11538 5350 50  0001 C CNN
F 3 "~" H 11500 5500 50  0001 C CNN
	1    11500 5500
	1    0    0    -1  
$EndComp
$Comp
L Device:C C30
U 1 1 5E812EBF
P 9850 5500
F 0 "C30" H 9900 5600 50  0000 L CNN
F 1 "2.2u" H 9900 5400 50  0000 L CNN
F 2 "Capacitor_SMD:C_1206_3216Metric_Pad1.42x1.75mm_HandSolder" H 9888 5350 50  0001 C CNN
F 3 "~" H 9850 5500 50  0001 C CNN
	1    9850 5500
	1    0    0    -1  
$EndComp
$Comp
L zeman:TPS709 U7
U 1 1 5E812EC5
P 10650 5250
F 0 "U7" H 10650 5575 50  0000 C CNN
F 1 "TPS70918" H 10650 5484 50  0000 C CNN
F 2 "Package_TO_SOT_SMD:SOT-23-5_HandSoldering" H 10650 5250 50  0001 C CNN
F 3 "" H 10650 5250 50  0001 C CNN
	1    10650 5250
	1    0    0    -1  
$EndComp
$Comp
L Device:C C32
U 1 1 5E812ECB
P 11200 5500
F 0 "C32" H 11250 5600 50  0000 L CNN
F 1 "100n" H 11250 5400 50  0000 L CNN
F 2 "Capacitor_SMD:C_0603_1608Metric_Pad1.05x0.95mm_HandSolder" H 11238 5350 50  0001 C CNN
F 3 "~" H 11200 5500 50  0001 C CNN
	1    11200 5500
	1    0    0    -1  
$EndComp
Wire Wire Line
	11200 5650 11200 5700
Wire Wire Line
	10950 5300 11200 5300
Wire Wire Line
	11500 5650 11500 5700
Wire Wire Line
	11200 5350 11200 5300
Connection ~ 11200 5300
Wire Wire Line
	11200 5300 11500 5300
Wire Wire Line
	11500 5300 11500 5350
Wire Wire Line
	10350 5250 10200 5250
$Comp
L power:GND #PWR0151
U 1 1 5E812EE5
P 10200 5700
F 0 "#PWR0151" H 10200 5450 50  0001 C CNN
F 1 "GND" H 10205 5527 50  0000 C CNN
F 2 "" H 10200 5700 50  0001 C CNN
F 3 "" H 10200 5700 50  0001 C CNN
	1    10200 5700
	1    0    0    -1  
$EndComp
Wire Wire Line
	10350 5150 9850 5150
Wire Wire Line
	9850 5150 9850 5350
$Comp
L power:GND #PWR0152
U 1 1 5E812EED
P 9850 5700
F 0 "#PWR0152" H 9850 5450 50  0001 C CNN
F 1 "GND" H 9855 5527 50  0000 C CNN
F 2 "" H 9850 5700 50  0001 C CNN
F 3 "" H 9850 5700 50  0001 C CNN
	1    9850 5700
	1    0    0    -1  
$EndComp
Wire Wire Line
	9850 5700 9850 5650
Wire Wire Line
	10200 5250 10200 5700
Text Label 9450 5150 0    50   ~ 0
Vcc_BATT
Wire Wire Line
	9850 5150 9450 5150
Connection ~ 9850 5150
Wire Wire Line
	11500 5300 11800 5300
Connection ~ 11500 5300
$Comp
L power:GND #PWR0153
U 1 1 5E8401F5
P 11700 8050
F 0 "#PWR0153" H 11700 7800 50  0001 C CNN
F 1 "GND" H 11705 7877 50  0000 C CNN
F 2 "" H 11700 8050 50  0001 C CNN
F 3 "" H 11700 8050 50  0001 C CNN
	1    11700 8050
	1    0    0    -1  
$EndComp
$Comp
L Device:L L2
U 1 1 5E847CB0
P 11500 7600
F 0 "L2" V 11550 7750 50  0000 C CNN
F 1 "2.2u" V 11450 7600 50  0000 C CNN
F 2 "zeman:IFSC0806" H 11500 7600 50  0001 C CNN
F 3 "~" H 11500 7600 50  0001 C CNN
	1    11500 7600
	0    -1   -1   0   
$EndComp
$Comp
L Device:C C27
U 1 1 5E865B02
P 10000 7850
F 0 "C27" H 10050 7950 50  0000 L CNN
F 1 "10u" H 10050 7750 50  0000 L CNN
F 2 "Capacitor_SMD:C_0805_2012Metric_Pad1.15x1.40mm_HandSolder" H 10038 7700 50  0001 C CNN
F 3 "~" H 10000 7850 50  0001 C CNN
	1    10000 7850
	1    0    0    -1  
$EndComp
$Comp
L power:GND #PWR0155
U 1 1 5E86A019
P 10000 8050
F 0 "#PWR0155" H 10000 7800 50  0001 C CNN
F 1 "GND" H 10005 7877 50  0000 C CNN
F 2 "" H 10000 8050 50  0001 C CNN
F 3 "" H 10000 8050 50  0001 C CNN
	1    10000 8050
	1    0    0    -1  
$EndComp
$Comp
L power:GND #PWR0156
U 1 1 5E86AD47
P 10250 7300
F 0 "#PWR0156" H 10250 7050 50  0001 C CNN
F 1 "GND" H 10150 7200 50  0000 C CNN
F 2 "" H 10250 7300 50  0001 C CNN
F 3 "" H 10250 7300 50  0001 C CNN
	1    10250 7300
	1    0    0    -1  
$EndComp
$Comp
L Device:C C36
U 1 1 5E884A67
P 11700 7800
F 0 "C36" H 11750 7900 50  0000 L CNN
F 1 "10u" H 11750 7700 50  0000 L CNN
F 2 "Capacitor_SMD:C_0805_2012Metric_Pad1.15x1.40mm_HandSolder" H 11738 7650 50  0001 C CNN
F 3 "~" H 11700 7800 50  0001 C CNN
	1    11700 7800
	1    0    0    -1  
$EndComp
Text Label 9550 7600 0    50   ~ 0
Vcc_BATT
Wire Wire Line
	3850 4750 3850 4900
$Comp
L power:GNDA #PWR0159
U 1 1 5E74E23F
P 11200 5700
F 0 "#PWR0159" H 11200 5450 50  0001 C CNN
F 1 "GNDA" H 11205 5527 50  0000 C CNN
F 2 "" H 11200 5700 50  0001 C CNN
F 3 "" H 11200 5700 50  0001 C CNN
	1    11200 5700
	1    0    0    -1  
$EndComp
$Comp
L power:GNDA #PWR0160
U 1 1 5E74F287
P 11500 5700
F 0 "#PWR0160" H 11500 5450 50  0001 C CNN
F 1 "GNDA" H 11505 5527 50  0000 C CNN
F 2 "" H 11500 5700 50  0001 C CNN
F 3 "" H 11500 5700 50  0001 C CNN
	1    11500 5700
	1    0    0    -1  
$EndComp
$Comp
L power:GNDA #PWR0161
U 1 1 5E74F768
P 11200 3400
F 0 "#PWR0161" H 11200 3150 50  0001 C CNN
F 1 "GNDA" H 11205 3227 50  0000 C CNN
F 2 "" H 11200 3400 50  0001 C CNN
F 3 "" H 11200 3400 50  0001 C CNN
	1    11200 3400
	1    0    0    -1  
$EndComp
$Comp
L power:GNDA #PWR0162
U 1 1 5E750C78
P 11500 3400
F 0 "#PWR0162" H 11500 3150 50  0001 C CNN
F 1 "GNDA" H 11505 3227 50  0000 C CNN
F 2 "" H 11500 3400 50  0001 C CNN
F 3 "" H 11500 3400 50  0001 C CNN
	1    11500 3400
	1    0    0    -1  
$EndComp
$Comp
L power:GNDA #PWR0163
U 1 1 5E751082
P 5400 6750
F 0 "#PWR0163" H 5400 6500 50  0001 C CNN
F 1 "GNDA" H 5405 6577 50  0000 C CNN
F 2 "" H 5400 6750 50  0001 C CNN
F 3 "" H 5400 6750 50  0001 C CNN
	1    5400 6750
	1    0    0    -1  
$EndComp
$Comp
L power:GND #PWR0164
U 1 1 5E754C9E
P 4700 6750
F 0 "#PWR0164" H 4700 6500 50  0001 C CNN
F 1 "GND" H 4705 6577 50  0000 C CNN
F 2 "" H 4700 6750 50  0001 C CNN
F 3 "" H 4700 6750 50  0001 C CNN
	1    4700 6750
	1    0    0    -1  
$EndComp
Wire Wire Line
	4700 6750 4700 6650
Wire Wire Line
	5400 6500 5400 6650
Text Notes 4500 6150 0    129  ~ 0
ANALOG GROUND TIE 
$Comp
L zeman:TPS6217 U8
U 1 1 5E82687B
P 10750 7550
F 0 "U8" H 10750 7965 50  0000 C CNN
F 1 "TPS6217" H 10750 7874 50  0000 C CNN
F 2 "Package_SON:WSON-8-1EP_2x2mm_P0.5mm_EP0.9x1.6mm_ThermalVias" H 10750 7550 50  0001 C CNN
F 3 "" H 10750 7550 50  0001 C CNN
	1    10750 7550
	1    0    0    -1  
$EndComp
Wire Wire Line
	10400 7600 10200 7600
Wire Wire Line
	10200 7600 10200 7500
Wire Wire Line
	10200 7500 10400 7500
Wire Wire Line
	11100 7600 11350 7600
Wire Wire Line
	11700 7650 11700 7600
Wire Wire Line
	11700 7600 11650 7600
$Comp
L power:GND #PWR0154
U 1 1 5E87C66A
P 11250 7300
F 0 "#PWR0154" H 11250 7050 50  0001 C CNN
F 1 "GND" H 11350 7200 50  0000 C CNN
F 2 "" H 11250 7300 50  0001 C CNN
F 3 "" H 11250 7300 50  0001 C CNN
	1    11250 7300
	1    0    0    -1  
$EndComp
Connection ~ 10200 7600
Wire Wire Line
	11100 7500 11700 7500
Wire Wire Line
	11700 7500 11700 7600
Connection ~ 11700 7600
Wire Wire Line
	11100 7400 11150 7400
Wire Wire Line
	10400 7400 10350 7400
Wire Wire Line
	10350 7400 10350 7250
Wire Wire Line
	10350 7250 10250 7250
Wire Wire Line
	10250 7250 10250 7300
Wire Wire Line
	11150 7400 11150 7250
Wire Wire Line
	11150 7250 11250 7250
Wire Wire Line
	11250 7250 11250 7300
Wire Wire Line
	10250 7700 10400 7700
Wire Wire Line
	10250 7700 10250 8050
Wire Wire Line
	9550 7600 10000 7600
Wire Wire Line
	10000 7700 10000 7600
Connection ~ 10000 7600
Wire Wire Line
	10000 7600 10200 7600
Wire Wire Line
	10000 8050 10000 8000
Wire Wire Line
	11700 7950 11700 8050
Wire Wire Line
	11100 7700 11250 7700
$Comp
L power:GND #PWR0157
U 1 1 5E8EE816
P 11250 8050
F 0 "#PWR0157" H 11250 7800 50  0001 C CNN
F 1 "GND" H 11255 7877 50  0000 C CNN
F 2 "" H 11250 8050 50  0001 C CNN
F 3 "" H 11250 8050 50  0001 C CNN
	1    11250 8050
	1    0    0    -1  
$EndComp
$Comp
L power:GND #PWR0158
U 1 1 5E8EEE3F
P 10250 8050
F 0 "#PWR0158" H 10250 7800 50  0001 C CNN
F 1 "GND" H 10255 7877 50  0000 C CNN
F 2 "" H 10250 8050 50  0001 C CNN
F 3 "" H 10250 8050 50  0001 C CNN
	1    10250 8050
	1    0    0    -1  
$EndComp
Wire Wire Line
	11250 8050 11250 7700
Wire Wire Line
	11700 7600 12000 7600
Text GLabel 4000 3250 1    50   BiDi ~ 0
D-
$Comp
L power:+3.3V #PWR0177
U 1 1 5E8DD4F0
P 3650 2350
F 0 "#PWR0177" H 3650 2200 50  0001 C CNN
F 1 "+3.3V" H 3665 2523 50  0000 C CNN
F 2 "" H 3650 2350 50  0001 C CNN
F 3 "" H 3650 2350 50  0001 C CNN
	1    3650 2350
	1    0    0    -1  
$EndComp
$Comp
L power:+3.3V #PWR0178
U 1 1 5E8E1A1C
P 3300 2350
F 0 "#PWR0178" H 3300 2200 50  0001 C CNN
F 1 "+3.3V" H 3315 2523 50  0000 C CNN
F 2 "" H 3300 2350 50  0001 C CNN
F 3 "" H 3300 2350 50  0001 C CNN
	1    3300 2350
	1    0    0    -1  
$EndComp
$Comp
L power:+1V8 #PWR0179
U 1 1 5E8E31DB
P 11800 5300
F 0 "#PWR0179" H 11800 5150 50  0001 C CNN
F 1 "+1V8" H 11815 5473 50  0000 C CNN
F 2 "" H 11800 5300 50  0001 C CNN
F 3 "" H 11800 5300 50  0001 C CNN
	1    11800 5300
	1    0    0    -1  
$EndComp
$Comp
L power:+3.3V #PWR0180
U 1 1 5E8E4523
P 12000 7600
F 0 "#PWR0180" H 12000 7450 50  0001 C CNN
F 1 "+3.3V" H 12015 7773 50  0000 C CNN
F 2 "" H 12000 7600 50  0001 C CNN
F 3 "" H 12000 7600 50  0001 C CNN
	1    12000 7600
	1    0    0    -1  
$EndComp
$Comp
L power:+5VA #PWR0181
U 1 1 5E8E82BA
P 11800 3000
F 0 "#PWR0181" H 11800 2850 50  0001 C CNN
F 1 "+5VA" H 11815 3173 50  0000 C CNN
F 2 "" H 11800 3000 50  0001 C CNN
F 3 "" H 11800 3000 50  0001 C CNN
	1    11800 3000
	1    0    0    -1  
$EndComp
Text GLabel 5150 4300 2    50   BiDi ~ 0
V_USB
Wire Wire Line
	5000 4300 5150 4300
Wire Wire Line
	4100 3300 4000 3300
Wire Wire Line
	4000 3300 4000 3250
Wire Wire Line
	5100 4400 5100 4450
Text GLabel 5100 4450 3    50   BiDi ~ 0
D+
$Comp
L zeman:BQ25886 U5
U 1 1 5E979C2A
P 4600 3850
F 0 "U5" H 4550 4665 50  0000 C CNN
F 1 "BQ25886" H 4550 4574 50  0000 C CNN
F 2 "zeman:QFN-24_0.5" H 4650 3850 50  0001 C CNN
F 3 "" H 4650 3850 50  0001 C CNN
	1    4600 3850
	1    0    0    -1  
$EndComp
$Comp
L Device:Net-Tie_2 NT1
U 1 1 5EB30327
P 5050 6500
F 0 "NT1" H 5050 6681 50  0000 C CNN
F 1 "Net-Tie_2" H 5050 6590 50  0000 C CNN
F 2 "NetTie:NetTie-2_SMD_Pad0.5mm" H 5050 6500 50  0001 C CNN
F 3 "~" H 5050 6500 50  0001 C CNN
	1    5050 6500
	1    0    0    -1  
$EndComp
Wire Wire Line
	4700 6500 4950 6500
Wire Wire Line
	5150 6500 5400 6500
$Comp
L Device:Net-Tie_2 NT2
U 1 1 5EB4E56A
P 5050 6650
F 0 "NT2" H 5050 6831 50  0000 C CNN
F 1 "Net-Tie_2" H 5050 6740 50  0000 C CNN
F 2 "NetTie:NetTie-2_SMD_Pad0.5mm" H 5050 6650 50  0001 C CNN
F 3 "~" H 5050 6650 50  0001 C CNN
	1    5050 6650
	1    0    0    -1  
$EndComp
Wire Wire Line
	4950 6650 4700 6650
Connection ~ 4700 6650
Wire Wire Line
	4700 6650 4700 6500
Wire Wire Line
	5400 6650 5150 6650
Connection ~ 5400 6650
Wire Wire Line
	5400 6650 5400 6750
Connection ~ 12050 5050
$EndSCHEMATC
