G04 #@! TF.GenerationSoftware,KiCad,Pcbnew,(5.1.4)-1*
G04 #@! TF.CreationDate,2020-03-22T15:02:08+01:00*
G04 #@! TF.ProjectId,LSA00,4c534130-302e-46b6-9963-61645f706362,rev?*
G04 #@! TF.SameCoordinates,Original*
G04 #@! TF.FileFunction,Soldermask,Bot*
G04 #@! TF.FilePolarity,Negative*
%FSLAX46Y46*%
G04 Gerber Fmt 4.6, Leading zero omitted, Abs format (unit mm)*
G04 Created by KiCad (PCBNEW (5.1.4)-1) date 2020-03-22 15:02:08*
%MOMM*%
%LPD*%
G04 APERTURE LIST*
%ADD10C,0.100000*%
G04 APERTURE END LIST*
D10*
G36*
X100579487Y-220448996D02*
G01*
X100816253Y-220547068D01*
X100816255Y-220547069D01*
X101029339Y-220689447D01*
X101210553Y-220870661D01*
X101352932Y-221083747D01*
X101451004Y-221320513D01*
X101501000Y-221571861D01*
X101501000Y-221828139D01*
X101451004Y-222079487D01*
X101352932Y-222316253D01*
X101352931Y-222316255D01*
X101210553Y-222529339D01*
X101029339Y-222710553D01*
X100816255Y-222852931D01*
X100816254Y-222852932D01*
X100816253Y-222852932D01*
X100579487Y-222951004D01*
X100328139Y-223001000D01*
X100071861Y-223001000D01*
X99820513Y-222951004D01*
X99583747Y-222852932D01*
X99583746Y-222852932D01*
X99583745Y-222852931D01*
X99370661Y-222710553D01*
X99189447Y-222529339D01*
X99047069Y-222316255D01*
X99047068Y-222316253D01*
X98948996Y-222079487D01*
X98899000Y-221828139D01*
X98899000Y-221571861D01*
X98948996Y-221320513D01*
X99047068Y-221083747D01*
X99189447Y-220870661D01*
X99370661Y-220689447D01*
X99583745Y-220547069D01*
X99583747Y-220547068D01*
X99820513Y-220448996D01*
X100071861Y-220399000D01*
X100328139Y-220399000D01*
X100579487Y-220448996D01*
X100579487Y-220448996D01*
G37*
G36*
X113362820Y-216870103D02*
G01*
X113396985Y-216880467D01*
X113428464Y-216897293D01*
X113456060Y-216919940D01*
X113478707Y-216947536D01*
X113495533Y-216979015D01*
X113505897Y-217013180D01*
X113510000Y-217054842D01*
X113510000Y-218304158D01*
X113505897Y-218345820D01*
X113495533Y-218379985D01*
X113478707Y-218411464D01*
X113456060Y-218439060D01*
X113428464Y-218461707D01*
X113396985Y-218478533D01*
X113362820Y-218488897D01*
X113321158Y-218493000D01*
X110246842Y-218493000D01*
X110205180Y-218488897D01*
X110171015Y-218478533D01*
X110139536Y-218461707D01*
X110111940Y-218439060D01*
X110089293Y-218411464D01*
X110072467Y-218379985D01*
X110062103Y-218345820D01*
X110058000Y-218304158D01*
X110058000Y-217054842D01*
X110062103Y-217013180D01*
X110072467Y-216979015D01*
X110089293Y-216947536D01*
X110111940Y-216919940D01*
X110139536Y-216897293D01*
X110171015Y-216880467D01*
X110205180Y-216870103D01*
X110246842Y-216866000D01*
X113321158Y-216866000D01*
X113362820Y-216870103D01*
X113362820Y-216870103D01*
G37*
G36*
X116589642Y-216461781D02*
G01*
X116735414Y-216522162D01*
X116735416Y-216522163D01*
X116866608Y-216609822D01*
X116978178Y-216721392D01*
X117065837Y-216852584D01*
X117065838Y-216852586D01*
X117126219Y-216998358D01*
X117157000Y-217153107D01*
X117157000Y-217310893D01*
X117126219Y-217465642D01*
X117065838Y-217611414D01*
X117065837Y-217611416D01*
X116978178Y-217742608D01*
X116866608Y-217854178D01*
X116735416Y-217941837D01*
X116735415Y-217941838D01*
X116735414Y-217941838D01*
X116589642Y-218002219D01*
X116434893Y-218033000D01*
X116277107Y-218033000D01*
X116122358Y-218002219D01*
X115976586Y-217941838D01*
X115976585Y-217941838D01*
X115976584Y-217941837D01*
X115845392Y-217854178D01*
X115733822Y-217742608D01*
X115646163Y-217611416D01*
X115646162Y-217611414D01*
X115585781Y-217465642D01*
X115555000Y-217310893D01*
X115555000Y-217153107D01*
X115585781Y-216998358D01*
X115646162Y-216852586D01*
X115646163Y-216852584D01*
X115733822Y-216721392D01*
X115845392Y-216609822D01*
X115976584Y-216522163D01*
X115976586Y-216522162D01*
X116122358Y-216461781D01*
X116277107Y-216431000D01*
X116434893Y-216431000D01*
X116589642Y-216461781D01*
X116589642Y-216461781D01*
G37*
G36*
X119986354Y-215016263D02*
G01*
X120023850Y-215027638D01*
X120058409Y-215046110D01*
X120093473Y-215074886D01*
X120545114Y-215526527D01*
X120573890Y-215561591D01*
X120592362Y-215596150D01*
X120603737Y-215633646D01*
X120607577Y-215672645D01*
X120603737Y-215711644D01*
X120592362Y-215749140D01*
X120573890Y-215783699D01*
X120545114Y-215818763D01*
X120022763Y-216341114D01*
X119987699Y-216369890D01*
X119953140Y-216388362D01*
X119915644Y-216399737D01*
X119876645Y-216403577D01*
X119837646Y-216399737D01*
X119800150Y-216388362D01*
X119765591Y-216369890D01*
X119730527Y-216341114D01*
X119278886Y-215889473D01*
X119250110Y-215854409D01*
X119231638Y-215819850D01*
X119220263Y-215782354D01*
X119216423Y-215743355D01*
X119220263Y-215704356D01*
X119231638Y-215666860D01*
X119250110Y-215632301D01*
X119278886Y-215597237D01*
X119801237Y-215074886D01*
X119836301Y-215046110D01*
X119870860Y-215027638D01*
X119908356Y-215016263D01*
X119947355Y-215012423D01*
X119986354Y-215016263D01*
X119986354Y-215016263D01*
G37*
G36*
X116115562Y-213896181D02*
G01*
X116150481Y-213906774D01*
X116182663Y-213923976D01*
X116210873Y-213947127D01*
X116234024Y-213975337D01*
X116251226Y-214007519D01*
X116261819Y-214042438D01*
X116266000Y-214084895D01*
X116266000Y-215226105D01*
X116261819Y-215268562D01*
X116251226Y-215303481D01*
X116234024Y-215335663D01*
X116210873Y-215363873D01*
X116182663Y-215387024D01*
X116150481Y-215404226D01*
X116115562Y-215414819D01*
X116073105Y-215419000D01*
X114606895Y-215419000D01*
X114564438Y-215414819D01*
X114529519Y-215404226D01*
X114497337Y-215387024D01*
X114469127Y-215363873D01*
X114445976Y-215335663D01*
X114428774Y-215303481D01*
X114418181Y-215268562D01*
X114414000Y-215226105D01*
X114414000Y-214084895D01*
X114418181Y-214042438D01*
X114428774Y-214007519D01*
X114445976Y-213975337D01*
X114469127Y-213947127D01*
X114497337Y-213923976D01*
X114529519Y-213906774D01*
X114564438Y-213896181D01*
X114606895Y-213892000D01*
X116073105Y-213892000D01*
X116115562Y-213896181D01*
X116115562Y-213896181D01*
G37*
G36*
X106375562Y-213815681D02*
G01*
X106410481Y-213826274D01*
X106442663Y-213843476D01*
X106470873Y-213866627D01*
X106494024Y-213894837D01*
X106511226Y-213927019D01*
X106521819Y-213961938D01*
X106526000Y-214004395D01*
X106526000Y-215145605D01*
X106521819Y-215188062D01*
X106511226Y-215222981D01*
X106494024Y-215255163D01*
X106470873Y-215283373D01*
X106442663Y-215306524D01*
X106410481Y-215323726D01*
X106375562Y-215334319D01*
X106333105Y-215338500D01*
X104866895Y-215338500D01*
X104824438Y-215334319D01*
X104789519Y-215323726D01*
X104757337Y-215306524D01*
X104729127Y-215283373D01*
X104705976Y-215255163D01*
X104688774Y-215222981D01*
X104678181Y-215188062D01*
X104674000Y-215145605D01*
X104674000Y-214004395D01*
X104678181Y-213961938D01*
X104688774Y-213927019D01*
X104705976Y-213894837D01*
X104729127Y-213866627D01*
X104757337Y-213843476D01*
X104789519Y-213826274D01*
X104824438Y-213815681D01*
X104866895Y-213811500D01*
X106333105Y-213811500D01*
X106375562Y-213815681D01*
X106375562Y-213815681D01*
G37*
G36*
X121223790Y-213778827D02*
G01*
X121261286Y-213790202D01*
X121295845Y-213808674D01*
X121330909Y-213837450D01*
X121782550Y-214289091D01*
X121811326Y-214324155D01*
X121829798Y-214358714D01*
X121841173Y-214396210D01*
X121845013Y-214435209D01*
X121841173Y-214474208D01*
X121829798Y-214511704D01*
X121811326Y-214546263D01*
X121782550Y-214581327D01*
X121260199Y-215103678D01*
X121225135Y-215132454D01*
X121190576Y-215150926D01*
X121153080Y-215162301D01*
X121114081Y-215166141D01*
X121075082Y-215162301D01*
X121037586Y-215150926D01*
X121003027Y-215132454D01*
X120967963Y-215103678D01*
X120516322Y-214652037D01*
X120487546Y-214616973D01*
X120469074Y-214582414D01*
X120457699Y-214544918D01*
X120453859Y-214505919D01*
X120457699Y-214466920D01*
X120469074Y-214429424D01*
X120487546Y-214394865D01*
X120516322Y-214359801D01*
X121038673Y-213837450D01*
X121073737Y-213808674D01*
X121108296Y-213790202D01*
X121145792Y-213778827D01*
X121184791Y-213774987D01*
X121223790Y-213778827D01*
X121223790Y-213778827D01*
G37*
G36*
X118745770Y-212634523D02*
G01*
X118780689Y-212645116D01*
X118812871Y-212662318D01*
X118845845Y-212689379D01*
X118898877Y-212742411D01*
X118898883Y-212742416D01*
X119829584Y-213673117D01*
X119829589Y-213673123D01*
X119882621Y-213726155D01*
X119909682Y-213759129D01*
X119926884Y-213791311D01*
X119937477Y-213826230D01*
X119941053Y-213862547D01*
X119937477Y-213898864D01*
X119926884Y-213933783D01*
X119909682Y-213965965D01*
X119882621Y-213998939D01*
X119829589Y-214051971D01*
X119829584Y-214051977D01*
X119128693Y-214752868D01*
X119128687Y-214752873D01*
X119075655Y-214805905D01*
X119042681Y-214832966D01*
X119010499Y-214850168D01*
X118975580Y-214860761D01*
X118939263Y-214864337D01*
X118902946Y-214860761D01*
X118868027Y-214850168D01*
X118835845Y-214832966D01*
X118802871Y-214805905D01*
X118749839Y-214752873D01*
X118749833Y-214752868D01*
X117819132Y-213822167D01*
X117819127Y-213822161D01*
X117766095Y-213769129D01*
X117739034Y-213736155D01*
X117721832Y-213703973D01*
X117711239Y-213669054D01*
X117707663Y-213632737D01*
X117711239Y-213596420D01*
X117721832Y-213561501D01*
X117739034Y-213529319D01*
X117766095Y-213496345D01*
X117819127Y-213443313D01*
X117819132Y-213443307D01*
X118520023Y-212742416D01*
X118520029Y-212742411D01*
X118573061Y-212689379D01*
X118606035Y-212662318D01*
X118638217Y-212645116D01*
X118673136Y-212634523D01*
X118709453Y-212630947D01*
X118745770Y-212634523D01*
X118745770Y-212634523D01*
G37*
G36*
X122415636Y-212586981D02*
G01*
X122453132Y-212598356D01*
X122487691Y-212616828D01*
X122522755Y-212645604D01*
X122974396Y-213097245D01*
X123003172Y-213132309D01*
X123021644Y-213166868D01*
X123033019Y-213204364D01*
X123036859Y-213243363D01*
X123033019Y-213282362D01*
X123021644Y-213319858D01*
X123003172Y-213354417D01*
X122974396Y-213389481D01*
X122452045Y-213911832D01*
X122416981Y-213940608D01*
X122382422Y-213959080D01*
X122344926Y-213970455D01*
X122305927Y-213974295D01*
X122266928Y-213970455D01*
X122229432Y-213959080D01*
X122194873Y-213940608D01*
X122159809Y-213911832D01*
X121708168Y-213460191D01*
X121679392Y-213425127D01*
X121660920Y-213390568D01*
X121649545Y-213353072D01*
X121645705Y-213314073D01*
X121649545Y-213275074D01*
X121660920Y-213237578D01*
X121679392Y-213203019D01*
X121708168Y-213167955D01*
X122230519Y-212645604D01*
X122265583Y-212616828D01*
X122300142Y-212598356D01*
X122337638Y-212586981D01*
X122376637Y-212583141D01*
X122415636Y-212586981D01*
X122415636Y-212586981D01*
G37*
G36*
X99930775Y-213743636D02*
G01*
X98268775Y-213743636D01*
X98268775Y-211091636D01*
X99930775Y-211091636D01*
X99930775Y-213743636D01*
X99930775Y-213743636D01*
G37*
G36*
X102630775Y-213743636D02*
G01*
X100968775Y-213743636D01*
X100968775Y-212991636D01*
X102630775Y-212991636D01*
X102630775Y-213743636D01*
X102630775Y-213743636D01*
G37*
G36*
X104014499Y-212578445D02*
G01*
X104051995Y-212589820D01*
X104086554Y-212608292D01*
X104116847Y-212633153D01*
X104141708Y-212663446D01*
X104160180Y-212698005D01*
X104171555Y-212735501D01*
X104176000Y-212780638D01*
X104176000Y-213519362D01*
X104171555Y-213564499D01*
X104160180Y-213601995D01*
X104141708Y-213636554D01*
X104116847Y-213666847D01*
X104086554Y-213691708D01*
X104051995Y-213710180D01*
X104014499Y-213721555D01*
X103969362Y-213726000D01*
X103330638Y-213726000D01*
X103285501Y-213721555D01*
X103248005Y-213710180D01*
X103213446Y-213691708D01*
X103183153Y-213666847D01*
X103158292Y-213636554D01*
X103139820Y-213601995D01*
X103128445Y-213564499D01*
X103124000Y-213519362D01*
X103124000Y-212780638D01*
X103128445Y-212735501D01*
X103139820Y-212698005D01*
X103158292Y-212663446D01*
X103183153Y-212633153D01*
X103213446Y-212608292D01*
X103248005Y-212589820D01*
X103285501Y-212578445D01*
X103330638Y-212574000D01*
X103969362Y-212574000D01*
X104014499Y-212578445D01*
X104014499Y-212578445D01*
G37*
G36*
X120849412Y-210530881D02*
G01*
X120884331Y-210541474D01*
X120916513Y-210558676D01*
X120949487Y-210585737D01*
X121002519Y-210638769D01*
X121002525Y-210638774D01*
X121933226Y-211569475D01*
X121933231Y-211569481D01*
X121986263Y-211622513D01*
X122013324Y-211655487D01*
X122030526Y-211687669D01*
X122041119Y-211722588D01*
X122044695Y-211758905D01*
X122041119Y-211795222D01*
X122030526Y-211830141D01*
X122013324Y-211862323D01*
X121986263Y-211895297D01*
X121933231Y-211948329D01*
X121933226Y-211948335D01*
X121232335Y-212649226D01*
X121232329Y-212649231D01*
X121179297Y-212702263D01*
X121146323Y-212729324D01*
X121114141Y-212746526D01*
X121079222Y-212757119D01*
X121042905Y-212760695D01*
X121006588Y-212757119D01*
X120971669Y-212746526D01*
X120939487Y-212729324D01*
X120906513Y-212702263D01*
X120853481Y-212649231D01*
X120853475Y-212649226D01*
X119922774Y-211718525D01*
X119922769Y-211718519D01*
X119869737Y-211665487D01*
X119842676Y-211632513D01*
X119825474Y-211600331D01*
X119814881Y-211565412D01*
X119811305Y-211529095D01*
X119814881Y-211492778D01*
X119825474Y-211457859D01*
X119842676Y-211425677D01*
X119869737Y-211392703D01*
X119922769Y-211339671D01*
X119922774Y-211339665D01*
X120623665Y-210638774D01*
X120623671Y-210638769D01*
X120676703Y-210585737D01*
X120709677Y-210558676D01*
X120741859Y-210541474D01*
X120776778Y-210530881D01*
X120813095Y-210527305D01*
X120849412Y-210530881D01*
X120849412Y-210530881D01*
G37*
G36*
X123653072Y-211349545D02*
G01*
X123690568Y-211360920D01*
X123725127Y-211379392D01*
X123760191Y-211408168D01*
X124211832Y-211859809D01*
X124240608Y-211894873D01*
X124259080Y-211929432D01*
X124270455Y-211966928D01*
X124274295Y-212005927D01*
X124270455Y-212044926D01*
X124259080Y-212082422D01*
X124240608Y-212116981D01*
X124211832Y-212152045D01*
X123689481Y-212674396D01*
X123654417Y-212703172D01*
X123619858Y-212721644D01*
X123582362Y-212733019D01*
X123543363Y-212736859D01*
X123504364Y-212733019D01*
X123466868Y-212721644D01*
X123432309Y-212703172D01*
X123397245Y-212674396D01*
X122945604Y-212222755D01*
X122916828Y-212187691D01*
X122898356Y-212153132D01*
X122886981Y-212115636D01*
X122883141Y-212076637D01*
X122886981Y-212037638D01*
X122898356Y-212000142D01*
X122916828Y-211965583D01*
X122945604Y-211930519D01*
X123467955Y-211408168D01*
X123503019Y-211379392D01*
X123537578Y-211360920D01*
X123575074Y-211349545D01*
X123614073Y-211345705D01*
X123653072Y-211349545D01*
X123653072Y-211349545D01*
G37*
G36*
X97573562Y-211138681D02*
G01*
X97608481Y-211149274D01*
X97640663Y-211166476D01*
X97668873Y-211189627D01*
X97692024Y-211217837D01*
X97709226Y-211250019D01*
X97719819Y-211284938D01*
X97724000Y-211327395D01*
X97724000Y-212468605D01*
X97719819Y-212511062D01*
X97709226Y-212545981D01*
X97692024Y-212578163D01*
X97668873Y-212606373D01*
X97640663Y-212629524D01*
X97608481Y-212646726D01*
X97573562Y-212657319D01*
X97531105Y-212661500D01*
X96064895Y-212661500D01*
X96022438Y-212657319D01*
X95987519Y-212646726D01*
X95955337Y-212629524D01*
X95927127Y-212606373D01*
X95903976Y-212578163D01*
X95886774Y-212545981D01*
X95876181Y-212511062D01*
X95872000Y-212468605D01*
X95872000Y-211327395D01*
X95876181Y-211284938D01*
X95886774Y-211250019D01*
X95903976Y-211217837D01*
X95927127Y-211189627D01*
X95955337Y-211166476D01*
X95987519Y-211149274D01*
X96022438Y-211138681D01*
X96064895Y-211134500D01*
X97531105Y-211134500D01*
X97573562Y-211138681D01*
X97573562Y-211138681D01*
G37*
G36*
X113362820Y-210895103D02*
G01*
X113396985Y-210905467D01*
X113428464Y-210922293D01*
X113456060Y-210944940D01*
X113478707Y-210972536D01*
X113495533Y-211004015D01*
X113505897Y-211038180D01*
X113510000Y-211079842D01*
X113510000Y-212329158D01*
X113505897Y-212370820D01*
X113495533Y-212404985D01*
X113478707Y-212436464D01*
X113456060Y-212464060D01*
X113428464Y-212486707D01*
X113396985Y-212503533D01*
X113362820Y-212513897D01*
X113321158Y-212518000D01*
X110246842Y-212518000D01*
X110205180Y-212513897D01*
X110171015Y-212503533D01*
X110139536Y-212486707D01*
X110111940Y-212464060D01*
X110089293Y-212436464D01*
X110072467Y-212404985D01*
X110062103Y-212370820D01*
X110058000Y-212329158D01*
X110058000Y-211079842D01*
X110062103Y-211038180D01*
X110072467Y-211004015D01*
X110089293Y-210972536D01*
X110111940Y-210944940D01*
X110139536Y-210922293D01*
X110171015Y-210905467D01*
X110205180Y-210895103D01*
X110246842Y-210891000D01*
X113321158Y-210891000D01*
X113362820Y-210895103D01*
X113362820Y-210895103D01*
G37*
G36*
X116115562Y-210921181D02*
G01*
X116150481Y-210931774D01*
X116182663Y-210948976D01*
X116210873Y-210972127D01*
X116234024Y-211000337D01*
X116251226Y-211032519D01*
X116261819Y-211067438D01*
X116266000Y-211109895D01*
X116266000Y-212251105D01*
X116261819Y-212293562D01*
X116251226Y-212328481D01*
X116234024Y-212360663D01*
X116210873Y-212388873D01*
X116182663Y-212412024D01*
X116150481Y-212429226D01*
X116115562Y-212439819D01*
X116073105Y-212444000D01*
X114606895Y-212444000D01*
X114564438Y-212439819D01*
X114529519Y-212429226D01*
X114497337Y-212412024D01*
X114469127Y-212388873D01*
X114445976Y-212360663D01*
X114428774Y-212328481D01*
X114418181Y-212293562D01*
X114414000Y-212251105D01*
X114414000Y-211109895D01*
X114418181Y-211067438D01*
X114428774Y-211032519D01*
X114445976Y-211000337D01*
X114469127Y-210972127D01*
X114497337Y-210948976D01*
X114529519Y-210931774D01*
X114564438Y-210921181D01*
X114606895Y-210917000D01*
X116073105Y-210917000D01*
X116115562Y-210921181D01*
X116115562Y-210921181D01*
G37*
G36*
X106375562Y-210840681D02*
G01*
X106410481Y-210851274D01*
X106442663Y-210868476D01*
X106470873Y-210891627D01*
X106494024Y-210919837D01*
X106511226Y-210952019D01*
X106521819Y-210986938D01*
X106526000Y-211029395D01*
X106526000Y-212170605D01*
X106521819Y-212213062D01*
X106511226Y-212247981D01*
X106494024Y-212280163D01*
X106470873Y-212308373D01*
X106442663Y-212331524D01*
X106410481Y-212348726D01*
X106375562Y-212359319D01*
X106333105Y-212363500D01*
X104866895Y-212363500D01*
X104824438Y-212359319D01*
X104789519Y-212348726D01*
X104757337Y-212331524D01*
X104729127Y-212308373D01*
X104705976Y-212280163D01*
X104688774Y-212247981D01*
X104678181Y-212213062D01*
X104674000Y-212170605D01*
X104674000Y-211029395D01*
X104678181Y-210986938D01*
X104688774Y-210952019D01*
X104705976Y-210919837D01*
X104729127Y-210891627D01*
X104757337Y-210868476D01*
X104789519Y-210851274D01*
X104824438Y-210840681D01*
X104866895Y-210836500D01*
X106333105Y-210836500D01*
X106375562Y-210840681D01*
X106375562Y-210840681D01*
G37*
G36*
X104014499Y-210828445D02*
G01*
X104051995Y-210839820D01*
X104086554Y-210858292D01*
X104116847Y-210883153D01*
X104141708Y-210913446D01*
X104160180Y-210948005D01*
X104171555Y-210985501D01*
X104176000Y-211030638D01*
X104176000Y-211769362D01*
X104171555Y-211814499D01*
X104160180Y-211851995D01*
X104141708Y-211886554D01*
X104116847Y-211916847D01*
X104086554Y-211941708D01*
X104051995Y-211960180D01*
X104014499Y-211971555D01*
X103969362Y-211976000D01*
X103330638Y-211976000D01*
X103285501Y-211971555D01*
X103248005Y-211960180D01*
X103213446Y-211941708D01*
X103183153Y-211916847D01*
X103158292Y-211886554D01*
X103139820Y-211851995D01*
X103128445Y-211814499D01*
X103124000Y-211769362D01*
X103124000Y-211030638D01*
X103128445Y-210985501D01*
X103139820Y-210948005D01*
X103158292Y-210913446D01*
X103183153Y-210883153D01*
X103213446Y-210858292D01*
X103248005Y-210839820D01*
X103285501Y-210828445D01*
X103330638Y-210824000D01*
X103969362Y-210824000D01*
X104014499Y-210828445D01*
X104014499Y-210828445D01*
G37*
G36*
X102630775Y-211843636D02*
G01*
X100968775Y-211843636D01*
X100968775Y-211091636D01*
X102630775Y-211091636D01*
X102630775Y-211843636D01*
X102630775Y-211843636D01*
G37*
G36*
X97573562Y-208163681D02*
G01*
X97608481Y-208174274D01*
X97640663Y-208191476D01*
X97668873Y-208214627D01*
X97692024Y-208242837D01*
X97709226Y-208275019D01*
X97719819Y-208309938D01*
X97724000Y-208352395D01*
X97724000Y-209493605D01*
X97719819Y-209536062D01*
X97709226Y-209570981D01*
X97692024Y-209603163D01*
X97668873Y-209631373D01*
X97640663Y-209654524D01*
X97608481Y-209671726D01*
X97573562Y-209682319D01*
X97531105Y-209686500D01*
X96064895Y-209686500D01*
X96022438Y-209682319D01*
X95987519Y-209671726D01*
X95955337Y-209654524D01*
X95927127Y-209631373D01*
X95903976Y-209603163D01*
X95886774Y-209570981D01*
X95876181Y-209536062D01*
X95872000Y-209493605D01*
X95872000Y-208352395D01*
X95876181Y-208309938D01*
X95886774Y-208275019D01*
X95903976Y-208242837D01*
X95927127Y-208214627D01*
X95955337Y-208191476D01*
X95987519Y-208174274D01*
X96022438Y-208163681D01*
X96064895Y-208159500D01*
X97531105Y-208159500D01*
X97573562Y-208163681D01*
X97573562Y-208163681D01*
G37*
G36*
X123695674Y-207912965D02*
G01*
X123733367Y-207924399D01*
X123768103Y-207942966D01*
X123798548Y-207967952D01*
X123823534Y-207998397D01*
X123842101Y-208033133D01*
X123853535Y-208070826D01*
X123858000Y-208116161D01*
X123858000Y-209202839D01*
X123853535Y-209248174D01*
X123842101Y-209285867D01*
X123823534Y-209320603D01*
X123798548Y-209351048D01*
X123768103Y-209376034D01*
X123733367Y-209394601D01*
X123695674Y-209406035D01*
X123650339Y-209410500D01*
X122813661Y-209410500D01*
X122768326Y-209406035D01*
X122730633Y-209394601D01*
X122695897Y-209376034D01*
X122665452Y-209351048D01*
X122640466Y-209320603D01*
X122621899Y-209285867D01*
X122610465Y-209248174D01*
X122606000Y-209202839D01*
X122606000Y-208116161D01*
X122610465Y-208070826D01*
X122621899Y-208033133D01*
X122640466Y-207998397D01*
X122665452Y-207967952D01*
X122695897Y-207942966D01*
X122730633Y-207924399D01*
X122768326Y-207912965D01*
X122813661Y-207908500D01*
X123650339Y-207908500D01*
X123695674Y-207912965D01*
X123695674Y-207912965D01*
G37*
G36*
X121645674Y-207912965D02*
G01*
X121683367Y-207924399D01*
X121718103Y-207942966D01*
X121748548Y-207967952D01*
X121773534Y-207998397D01*
X121792101Y-208033133D01*
X121803535Y-208070826D01*
X121808000Y-208116161D01*
X121808000Y-209202839D01*
X121803535Y-209248174D01*
X121792101Y-209285867D01*
X121773534Y-209320603D01*
X121748548Y-209351048D01*
X121718103Y-209376034D01*
X121683367Y-209394601D01*
X121645674Y-209406035D01*
X121600339Y-209410500D01*
X120763661Y-209410500D01*
X120718326Y-209406035D01*
X120680633Y-209394601D01*
X120645897Y-209376034D01*
X120615452Y-209351048D01*
X120590466Y-209320603D01*
X120571899Y-209285867D01*
X120560465Y-209248174D01*
X120556000Y-209202839D01*
X120556000Y-208116161D01*
X120560465Y-208070826D01*
X120571899Y-208033133D01*
X120590466Y-207998397D01*
X120615452Y-207967952D01*
X120645897Y-207942966D01*
X120680633Y-207924399D01*
X120718326Y-207912965D01*
X120763661Y-207908500D01*
X121600339Y-207908500D01*
X121645674Y-207912965D01*
X121645674Y-207912965D01*
G37*
G36*
X119831999Y-208250445D02*
G01*
X119869495Y-208261820D01*
X119904054Y-208280292D01*
X119934347Y-208305153D01*
X119959208Y-208335446D01*
X119977680Y-208370005D01*
X119989055Y-208407501D01*
X119993500Y-208452638D01*
X119993500Y-209191362D01*
X119989055Y-209236499D01*
X119977680Y-209273995D01*
X119959208Y-209308554D01*
X119934347Y-209338847D01*
X119904054Y-209363708D01*
X119869495Y-209382180D01*
X119831999Y-209393555D01*
X119786862Y-209398000D01*
X119148138Y-209398000D01*
X119103001Y-209393555D01*
X119065505Y-209382180D01*
X119030946Y-209363708D01*
X119000653Y-209338847D01*
X118975792Y-209308554D01*
X118957320Y-209273995D01*
X118945945Y-209236499D01*
X118941500Y-209191362D01*
X118941500Y-208452638D01*
X118945945Y-208407501D01*
X118957320Y-208370005D01*
X118975792Y-208335446D01*
X119000653Y-208305153D01*
X119030946Y-208280292D01*
X119065505Y-208261820D01*
X119103001Y-208250445D01*
X119148138Y-208246000D01*
X119786862Y-208246000D01*
X119831999Y-208250445D01*
X119831999Y-208250445D01*
G37*
G36*
X117533642Y-207429781D02*
G01*
X117679414Y-207490162D01*
X117679416Y-207490163D01*
X117810608Y-207577822D01*
X117922178Y-207689392D01*
X118009837Y-207820584D01*
X118009838Y-207820586D01*
X118070219Y-207966358D01*
X118101000Y-208121107D01*
X118101000Y-208278893D01*
X118070219Y-208433642D01*
X118009838Y-208579414D01*
X118009837Y-208579416D01*
X117922178Y-208710608D01*
X117810608Y-208822178D01*
X117679416Y-208909837D01*
X117679415Y-208909838D01*
X117679414Y-208909838D01*
X117533642Y-208970219D01*
X117378893Y-209001000D01*
X117221107Y-209001000D01*
X117066358Y-208970219D01*
X116920586Y-208909838D01*
X116920585Y-208909838D01*
X116920584Y-208909837D01*
X116789392Y-208822178D01*
X116677822Y-208710608D01*
X116590163Y-208579416D01*
X116590162Y-208579414D01*
X116529781Y-208433642D01*
X116499000Y-208278893D01*
X116499000Y-208121107D01*
X116529781Y-207966358D01*
X116590162Y-207820586D01*
X116590163Y-207820584D01*
X116677822Y-207689392D01*
X116789392Y-207577822D01*
X116920584Y-207490163D01*
X116920586Y-207490162D01*
X117066358Y-207429781D01*
X117221107Y-207399000D01*
X117378893Y-207399000D01*
X117533642Y-207429781D01*
X117533642Y-207429781D01*
G37*
G36*
X119831999Y-206500445D02*
G01*
X119869495Y-206511820D01*
X119904054Y-206530292D01*
X119934347Y-206555153D01*
X119959208Y-206585446D01*
X119977680Y-206620005D01*
X119989055Y-206657501D01*
X119993500Y-206702638D01*
X119993500Y-207441362D01*
X119989055Y-207486499D01*
X119977680Y-207523995D01*
X119959208Y-207558554D01*
X119934347Y-207588847D01*
X119904054Y-207613708D01*
X119869495Y-207632180D01*
X119831999Y-207643555D01*
X119786862Y-207648000D01*
X119148138Y-207648000D01*
X119103001Y-207643555D01*
X119065505Y-207632180D01*
X119030946Y-207613708D01*
X119000653Y-207588847D01*
X118975792Y-207558554D01*
X118957320Y-207523995D01*
X118945945Y-207486499D01*
X118941500Y-207441362D01*
X118941500Y-206702638D01*
X118945945Y-206657501D01*
X118957320Y-206620005D01*
X118975792Y-206585446D01*
X119000653Y-206555153D01*
X119030946Y-206530292D01*
X119065505Y-206511820D01*
X119103001Y-206500445D01*
X119148138Y-206496000D01*
X119786862Y-206496000D01*
X119831999Y-206500445D01*
X119831999Y-206500445D01*
G37*
G36*
X121941999Y-206296445D02*
G01*
X121979495Y-206307820D01*
X122014054Y-206326292D01*
X122044347Y-206351153D01*
X122069208Y-206381446D01*
X122087680Y-206416005D01*
X122099055Y-206453501D01*
X122103500Y-206498638D01*
X122103500Y-207137362D01*
X122099055Y-207182499D01*
X122087680Y-207219995D01*
X122069208Y-207254554D01*
X122044347Y-207284847D01*
X122014054Y-207309708D01*
X121979495Y-207328180D01*
X121941999Y-207339555D01*
X121896862Y-207344000D01*
X121158138Y-207344000D01*
X121113001Y-207339555D01*
X121075505Y-207328180D01*
X121040946Y-207309708D01*
X121010653Y-207284847D01*
X120985792Y-207254554D01*
X120967320Y-207219995D01*
X120955945Y-207182499D01*
X120951500Y-207137362D01*
X120951500Y-206498638D01*
X120955945Y-206453501D01*
X120967320Y-206416005D01*
X120985792Y-206381446D01*
X121010653Y-206351153D01*
X121040946Y-206326292D01*
X121075505Y-206307820D01*
X121113001Y-206296445D01*
X121158138Y-206292000D01*
X121896862Y-206292000D01*
X121941999Y-206296445D01*
X121941999Y-206296445D01*
G37*
G36*
X123691999Y-206296445D02*
G01*
X123729495Y-206307820D01*
X123764054Y-206326292D01*
X123794347Y-206351153D01*
X123819208Y-206381446D01*
X123837680Y-206416005D01*
X123849055Y-206453501D01*
X123853500Y-206498638D01*
X123853500Y-207137362D01*
X123849055Y-207182499D01*
X123837680Y-207219995D01*
X123819208Y-207254554D01*
X123794347Y-207284847D01*
X123764054Y-207309708D01*
X123729495Y-207328180D01*
X123691999Y-207339555D01*
X123646862Y-207344000D01*
X122908138Y-207344000D01*
X122863001Y-207339555D01*
X122825505Y-207328180D01*
X122790946Y-207309708D01*
X122760653Y-207284847D01*
X122735792Y-207254554D01*
X122717320Y-207219995D01*
X122705945Y-207182499D01*
X122701500Y-207137362D01*
X122701500Y-206498638D01*
X122705945Y-206453501D01*
X122717320Y-206416005D01*
X122735792Y-206381446D01*
X122760653Y-206351153D01*
X122790946Y-206326292D01*
X122825505Y-206307820D01*
X122863001Y-206296445D01*
X122908138Y-206292000D01*
X123646862Y-206292000D01*
X123691999Y-206296445D01*
X123691999Y-206296445D01*
G37*
G36*
X93713674Y-205703465D02*
G01*
X93751367Y-205714899D01*
X93786103Y-205733466D01*
X93816548Y-205758452D01*
X93841534Y-205788897D01*
X93860101Y-205823633D01*
X93871535Y-205861326D01*
X93876000Y-205906661D01*
X93876000Y-206993339D01*
X93871535Y-207038674D01*
X93860101Y-207076367D01*
X93841534Y-207111103D01*
X93816548Y-207141548D01*
X93786103Y-207166534D01*
X93751367Y-207185101D01*
X93713674Y-207196535D01*
X93668339Y-207201000D01*
X92831661Y-207201000D01*
X92786326Y-207196535D01*
X92748633Y-207185101D01*
X92713897Y-207166534D01*
X92683452Y-207141548D01*
X92658466Y-207111103D01*
X92639899Y-207076367D01*
X92628465Y-207038674D01*
X92624000Y-206993339D01*
X92624000Y-205906661D01*
X92628465Y-205861326D01*
X92639899Y-205823633D01*
X92658466Y-205788897D01*
X92683452Y-205758452D01*
X92713897Y-205733466D01*
X92748633Y-205714899D01*
X92786326Y-205703465D01*
X92831661Y-205699000D01*
X93668339Y-205699000D01*
X93713674Y-205703465D01*
X93713674Y-205703465D01*
G37*
G36*
X95763674Y-205703465D02*
G01*
X95801367Y-205714899D01*
X95836103Y-205733466D01*
X95866548Y-205758452D01*
X95891534Y-205788897D01*
X95910101Y-205823633D01*
X95921535Y-205861326D01*
X95926000Y-205906661D01*
X95926000Y-206993339D01*
X95921535Y-207038674D01*
X95910101Y-207076367D01*
X95891534Y-207111103D01*
X95866548Y-207141548D01*
X95836103Y-207166534D01*
X95801367Y-207185101D01*
X95763674Y-207196535D01*
X95718339Y-207201000D01*
X94881661Y-207201000D01*
X94836326Y-207196535D01*
X94798633Y-207185101D01*
X94763897Y-207166534D01*
X94733452Y-207141548D01*
X94708466Y-207111103D01*
X94689899Y-207076367D01*
X94678465Y-207038674D01*
X94674000Y-206993339D01*
X94674000Y-205906661D01*
X94678465Y-205861326D01*
X94689899Y-205823633D01*
X94708466Y-205788897D01*
X94733452Y-205758452D01*
X94763897Y-205733466D01*
X94798633Y-205714899D01*
X94836326Y-205703465D01*
X94881661Y-205699000D01*
X95718339Y-205699000D01*
X95763674Y-205703465D01*
X95763674Y-205703465D01*
G37*
G36*
X123409808Y-203392078D02*
G01*
X123475969Y-203412149D01*
X123475972Y-203412150D01*
X123536949Y-203444742D01*
X123555897Y-203460293D01*
X123590396Y-203488604D01*
X123618707Y-203523103D01*
X123634258Y-203542051D01*
X123666850Y-203603028D01*
X123666851Y-203603031D01*
X123686922Y-203669191D01*
X123692000Y-203720756D01*
X123692000Y-205155244D01*
X123686922Y-205206809D01*
X123666851Y-205272969D01*
X123666850Y-205272972D01*
X123634258Y-205333949D01*
X123622777Y-205347938D01*
X123590396Y-205387396D01*
X123542492Y-205426708D01*
X123536948Y-205431258D01*
X123510901Y-205445180D01*
X123475969Y-205463851D01*
X123409808Y-205483922D01*
X123346661Y-205490140D01*
X123341000Y-205490698D01*
X123340999Y-205490698D01*
X123272192Y-205483922D01*
X123206031Y-205463851D01*
X123206028Y-205463850D01*
X123145051Y-205431258D01*
X123131062Y-205419777D01*
X123091604Y-205387396D01*
X123047743Y-205333949D01*
X123015149Y-205272969D01*
X122995078Y-205206808D01*
X122990000Y-205155244D01*
X122990001Y-203720756D01*
X122995079Y-203669191D01*
X123015150Y-203603031D01*
X123015151Y-203603028D01*
X123047743Y-203542051D01*
X123063294Y-203523103D01*
X123091605Y-203488604D01*
X123126104Y-203460293D01*
X123145052Y-203444742D01*
X123206029Y-203412150D01*
X123206032Y-203412149D01*
X123272192Y-203392078D01*
X123335339Y-203385860D01*
X123341000Y-203385302D01*
X123341001Y-203385302D01*
X123409808Y-203392078D01*
X123409808Y-203392078D01*
G37*
G36*
X119599808Y-203392078D02*
G01*
X119665969Y-203412149D01*
X119665972Y-203412150D01*
X119726949Y-203444742D01*
X119745897Y-203460293D01*
X119780396Y-203488604D01*
X119808707Y-203523103D01*
X119824258Y-203542051D01*
X119856850Y-203603028D01*
X119856851Y-203603031D01*
X119876922Y-203669191D01*
X119882000Y-203720756D01*
X119882000Y-205155244D01*
X119876922Y-205206809D01*
X119856851Y-205272969D01*
X119856850Y-205272972D01*
X119824258Y-205333949D01*
X119812777Y-205347938D01*
X119780396Y-205387396D01*
X119732492Y-205426708D01*
X119726948Y-205431258D01*
X119700901Y-205445180D01*
X119665969Y-205463851D01*
X119599808Y-205483922D01*
X119536661Y-205490140D01*
X119531000Y-205490698D01*
X119530999Y-205490698D01*
X119462192Y-205483922D01*
X119396031Y-205463851D01*
X119396028Y-205463850D01*
X119335051Y-205431258D01*
X119321062Y-205419777D01*
X119281604Y-205387396D01*
X119237743Y-205333949D01*
X119205149Y-205272969D01*
X119185078Y-205206808D01*
X119180000Y-205155244D01*
X119180001Y-203720756D01*
X119185079Y-203669191D01*
X119205150Y-203603031D01*
X119205151Y-203603028D01*
X119237743Y-203542051D01*
X119253294Y-203523103D01*
X119281605Y-203488604D01*
X119316104Y-203460293D01*
X119335052Y-203444742D01*
X119396029Y-203412150D01*
X119396032Y-203412149D01*
X119462192Y-203392078D01*
X119525339Y-203385860D01*
X119531000Y-203385302D01*
X119531001Y-203385302D01*
X119599808Y-203392078D01*
X119599808Y-203392078D01*
G37*
G36*
X120869808Y-203392078D02*
G01*
X120935969Y-203412149D01*
X120935972Y-203412150D01*
X120996949Y-203444742D01*
X121015897Y-203460293D01*
X121050396Y-203488604D01*
X121078707Y-203523103D01*
X121094258Y-203542051D01*
X121126850Y-203603028D01*
X121126851Y-203603031D01*
X121146922Y-203669191D01*
X121152000Y-203720756D01*
X121152000Y-205155244D01*
X121146922Y-205206809D01*
X121126851Y-205272969D01*
X121126850Y-205272972D01*
X121094258Y-205333949D01*
X121082777Y-205347938D01*
X121050396Y-205387396D01*
X121002492Y-205426708D01*
X120996948Y-205431258D01*
X120970901Y-205445180D01*
X120935969Y-205463851D01*
X120869808Y-205483922D01*
X120806661Y-205490140D01*
X120801000Y-205490698D01*
X120800999Y-205490698D01*
X120732192Y-205483922D01*
X120666031Y-205463851D01*
X120666028Y-205463850D01*
X120605051Y-205431258D01*
X120591062Y-205419777D01*
X120551604Y-205387396D01*
X120507743Y-205333949D01*
X120475149Y-205272969D01*
X120455078Y-205206808D01*
X120450000Y-205155244D01*
X120450001Y-203720756D01*
X120455079Y-203669191D01*
X120475150Y-203603031D01*
X120475151Y-203603028D01*
X120507743Y-203542051D01*
X120523294Y-203523103D01*
X120551605Y-203488604D01*
X120586104Y-203460293D01*
X120605052Y-203444742D01*
X120666029Y-203412150D01*
X120666032Y-203412149D01*
X120732192Y-203392078D01*
X120795339Y-203385860D01*
X120801000Y-203385302D01*
X120801001Y-203385302D01*
X120869808Y-203392078D01*
X120869808Y-203392078D01*
G37*
G36*
X122139808Y-203392078D02*
G01*
X122205969Y-203412149D01*
X122205972Y-203412150D01*
X122266949Y-203444742D01*
X122285897Y-203460293D01*
X122320396Y-203488604D01*
X122348707Y-203523103D01*
X122364258Y-203542051D01*
X122396850Y-203603028D01*
X122396851Y-203603031D01*
X122416922Y-203669191D01*
X122422000Y-203720756D01*
X122422000Y-205155244D01*
X122416922Y-205206809D01*
X122396851Y-205272969D01*
X122396850Y-205272972D01*
X122364258Y-205333949D01*
X122352777Y-205347938D01*
X122320396Y-205387396D01*
X122272492Y-205426708D01*
X122266948Y-205431258D01*
X122240901Y-205445180D01*
X122205969Y-205463851D01*
X122139808Y-205483922D01*
X122076661Y-205490140D01*
X122071000Y-205490698D01*
X122070999Y-205490698D01*
X122002192Y-205483922D01*
X121936031Y-205463851D01*
X121936028Y-205463850D01*
X121875051Y-205431258D01*
X121861062Y-205419777D01*
X121821604Y-205387396D01*
X121777743Y-205333949D01*
X121745149Y-205272969D01*
X121725078Y-205206808D01*
X121720000Y-205155244D01*
X121720001Y-203720756D01*
X121725079Y-203669191D01*
X121745150Y-203603031D01*
X121745151Y-203603028D01*
X121777743Y-203542051D01*
X121793294Y-203523103D01*
X121821605Y-203488604D01*
X121856104Y-203460293D01*
X121875052Y-203444742D01*
X121936029Y-203412150D01*
X121936032Y-203412149D01*
X122002192Y-203392078D01*
X122065339Y-203385860D01*
X122071000Y-203385302D01*
X122071001Y-203385302D01*
X122139808Y-203392078D01*
X122139808Y-203392078D01*
G37*
G36*
X125356499Y-204313445D02*
G01*
X125393995Y-204324820D01*
X125428554Y-204343292D01*
X125458847Y-204368153D01*
X125483708Y-204398446D01*
X125502180Y-204433005D01*
X125513555Y-204470501D01*
X125518000Y-204515638D01*
X125518000Y-205254362D01*
X125513555Y-205299499D01*
X125502180Y-205336995D01*
X125483708Y-205371554D01*
X125458847Y-205401847D01*
X125428554Y-205426708D01*
X125393995Y-205445180D01*
X125356499Y-205456555D01*
X125311362Y-205461000D01*
X124672638Y-205461000D01*
X124627501Y-205456555D01*
X124590005Y-205445180D01*
X124555446Y-205426708D01*
X124525153Y-205401847D01*
X124500292Y-205371554D01*
X124481820Y-205336995D01*
X124470445Y-205299499D01*
X124466000Y-205254362D01*
X124466000Y-204515638D01*
X124470445Y-204470501D01*
X124481820Y-204433005D01*
X124500292Y-204398446D01*
X124525153Y-204368153D01*
X124555446Y-204343292D01*
X124590005Y-204324820D01*
X124627501Y-204313445D01*
X124672638Y-204309000D01*
X125311362Y-204309000D01*
X125356499Y-204313445D01*
X125356499Y-204313445D01*
G37*
G36*
X96001000Y-205251000D02*
G01*
X95099000Y-205251000D01*
X95099000Y-203449000D01*
X96001000Y-203449000D01*
X96001000Y-205251000D01*
X96001000Y-205251000D01*
G37*
G36*
X94001000Y-205251000D02*
G01*
X93099000Y-205251000D01*
X93099000Y-203449000D01*
X94001000Y-203449000D01*
X94001000Y-205251000D01*
X94001000Y-205251000D01*
G37*
G36*
X97943312Y-202980887D02*
G01*
X98033039Y-203008106D01*
X98115731Y-203052306D01*
X98169711Y-203096606D01*
X98190077Y-203110214D01*
X98212716Y-203119592D01*
X98236749Y-203124372D01*
X98261253Y-203124372D01*
X98285286Y-203119592D01*
X98307925Y-203110214D01*
X98328300Y-203096600D01*
X98345627Y-203079273D01*
X98359240Y-203058899D01*
X98368618Y-203036260D01*
X98374000Y-202999975D01*
X98374000Y-202974000D01*
X99326000Y-202974000D01*
X99326000Y-203926000D01*
X98374000Y-203926000D01*
X98374000Y-203900025D01*
X98371598Y-203875639D01*
X98364485Y-203852190D01*
X98352934Y-203830579D01*
X98337389Y-203811637D01*
X98318447Y-203796092D01*
X98296836Y-203784541D01*
X98273387Y-203777428D01*
X98249001Y-203775026D01*
X98224615Y-203777428D01*
X98201166Y-203784541D01*
X98169708Y-203803396D01*
X98115731Y-203847694D01*
X98033039Y-203891894D01*
X97943312Y-203919113D01*
X97873384Y-203926000D01*
X97826616Y-203926000D01*
X97756688Y-203919113D01*
X97666961Y-203891894D01*
X97584269Y-203847694D01*
X97511789Y-203788211D01*
X97452306Y-203715731D01*
X97408106Y-203633039D01*
X97380887Y-203543312D01*
X97371697Y-203450000D01*
X97380887Y-203356688D01*
X97408106Y-203266961D01*
X97452306Y-203184269D01*
X97511789Y-203111789D01*
X97584269Y-203052306D01*
X97666961Y-203008106D01*
X97756688Y-202980887D01*
X97826616Y-202974000D01*
X97873384Y-202974000D01*
X97943312Y-202980887D01*
X97943312Y-202980887D01*
G37*
G36*
X125356499Y-202563445D02*
G01*
X125393995Y-202574820D01*
X125428554Y-202593292D01*
X125458847Y-202618153D01*
X125483708Y-202648446D01*
X125502180Y-202683005D01*
X125513555Y-202720501D01*
X125518000Y-202765638D01*
X125518000Y-203504362D01*
X125513555Y-203549499D01*
X125502180Y-203586995D01*
X125483708Y-203621554D01*
X125458847Y-203651847D01*
X125428554Y-203676708D01*
X125393995Y-203695180D01*
X125356499Y-203706555D01*
X125311362Y-203711000D01*
X124672638Y-203711000D01*
X124627501Y-203706555D01*
X124590005Y-203695180D01*
X124555446Y-203676708D01*
X124525153Y-203651847D01*
X124500292Y-203621554D01*
X124481820Y-203586995D01*
X124470445Y-203549499D01*
X124466000Y-203504362D01*
X124466000Y-202765638D01*
X124470445Y-202720501D01*
X124481820Y-202683005D01*
X124500292Y-202648446D01*
X124525153Y-202618153D01*
X124555446Y-202593292D01*
X124590005Y-202574820D01*
X124627501Y-202563445D01*
X124672638Y-202559000D01*
X125311362Y-202559000D01*
X125356499Y-202563445D01*
X125356499Y-202563445D01*
G37*
G36*
X109248212Y-201406249D02*
G01*
X109342651Y-201434897D01*
X109429687Y-201481418D01*
X109505975Y-201544025D01*
X109568582Y-201620313D01*
X109615103Y-201707348D01*
X109643751Y-201801787D01*
X109651000Y-201875388D01*
X109651000Y-202724612D01*
X109643751Y-202798213D01*
X109615103Y-202892652D01*
X109568582Y-202979687D01*
X109505975Y-203055975D01*
X109429687Y-203118582D01*
X109342652Y-203165103D01*
X109248213Y-203193751D01*
X109150000Y-203203424D01*
X109051788Y-203193751D01*
X108957349Y-203165103D01*
X108870314Y-203118582D01*
X108794026Y-203055975D01*
X108731419Y-202979687D01*
X108684898Y-202892652D01*
X108656250Y-202798213D01*
X108649001Y-202724612D01*
X108649000Y-202724602D01*
X108649000Y-201875389D01*
X108656249Y-201801788D01*
X108684897Y-201707349D01*
X108731418Y-201620313D01*
X108794025Y-201544025D01*
X108870313Y-201481418D01*
X108957348Y-201434897D01*
X109051787Y-201406249D01*
X109150000Y-201396576D01*
X109248212Y-201406249D01*
X109248212Y-201406249D01*
G37*
G36*
X110948212Y-201406249D02*
G01*
X111042651Y-201434897D01*
X111129687Y-201481418D01*
X111205975Y-201544025D01*
X111268582Y-201620313D01*
X111315103Y-201707348D01*
X111343751Y-201801787D01*
X111351000Y-201875388D01*
X111351000Y-202724612D01*
X111343751Y-202798213D01*
X111315103Y-202892652D01*
X111268582Y-202979687D01*
X111205975Y-203055975D01*
X111129687Y-203118582D01*
X111042652Y-203165103D01*
X110948213Y-203193751D01*
X110850000Y-203203424D01*
X110751788Y-203193751D01*
X110657349Y-203165103D01*
X110570314Y-203118582D01*
X110494026Y-203055975D01*
X110431419Y-202979687D01*
X110384898Y-202892652D01*
X110356250Y-202798213D01*
X110349001Y-202724612D01*
X110349000Y-202724602D01*
X110349000Y-201875389D01*
X110356249Y-201801788D01*
X110384897Y-201707349D01*
X110431418Y-201620313D01*
X110494025Y-201544025D01*
X110570313Y-201481418D01*
X110657348Y-201434897D01*
X110751787Y-201406249D01*
X110850000Y-201396576D01*
X110948212Y-201406249D01*
X110948212Y-201406249D01*
G37*
G36*
X95794000Y-200941672D02*
G01*
X95774553Y-200952066D01*
X95755611Y-200967611D01*
X95740066Y-200986553D01*
X95728515Y-201008164D01*
X95721402Y-201031613D01*
X95719000Y-201055999D01*
X95719000Y-202104001D01*
X95721402Y-202128387D01*
X95728515Y-202151836D01*
X95740066Y-202173447D01*
X95755611Y-202192389D01*
X95774553Y-202207934D01*
X95794000Y-202218328D01*
X95794000Y-202831000D01*
X93942000Y-202831000D01*
X93942000Y-202218328D01*
X93961447Y-202207934D01*
X93980389Y-202192389D01*
X93995934Y-202173447D01*
X94007485Y-202151836D01*
X94014598Y-202128387D01*
X94017000Y-202104001D01*
X94017000Y-201055999D01*
X94014598Y-201031613D01*
X94007485Y-201008164D01*
X93995934Y-200986553D01*
X93980389Y-200967611D01*
X93961447Y-200952066D01*
X93942000Y-200941672D01*
X93942000Y-200329000D01*
X95794000Y-200329000D01*
X95794000Y-200941672D01*
X95794000Y-200941672D01*
G37*
G36*
X119599808Y-197992078D02*
G01*
X119665969Y-198012149D01*
X119665972Y-198012150D01*
X119726949Y-198044742D01*
X119740323Y-198055718D01*
X119780396Y-198088604D01*
X119801826Y-198114718D01*
X119824258Y-198142051D01*
X119856850Y-198203028D01*
X119856851Y-198203031D01*
X119876922Y-198269191D01*
X119882000Y-198320756D01*
X119882000Y-199755244D01*
X119876922Y-199806809D01*
X119856851Y-199872969D01*
X119856850Y-199872972D01*
X119824258Y-199933949D01*
X119812777Y-199947938D01*
X119780396Y-199987396D01*
X119730346Y-200028469D01*
X119726948Y-200031258D01*
X119665971Y-200063850D01*
X119665969Y-200063851D01*
X119599808Y-200083922D01*
X119536661Y-200090140D01*
X119531000Y-200090698D01*
X119530999Y-200090698D01*
X119462192Y-200083922D01*
X119396031Y-200063851D01*
X119396028Y-200063850D01*
X119335051Y-200031258D01*
X119321062Y-200019777D01*
X119281604Y-199987396D01*
X119237743Y-199933949D01*
X119205149Y-199872969D01*
X119185078Y-199806808D01*
X119180000Y-199755244D01*
X119180001Y-198320756D01*
X119185079Y-198269191D01*
X119205150Y-198203031D01*
X119205151Y-198203028D01*
X119237743Y-198142051D01*
X119260175Y-198114718D01*
X119281605Y-198088604D01*
X119321678Y-198055718D01*
X119335052Y-198044742D01*
X119396029Y-198012150D01*
X119396032Y-198012149D01*
X119462192Y-197992078D01*
X119525339Y-197985860D01*
X119531000Y-197985302D01*
X119531001Y-197985302D01*
X119599808Y-197992078D01*
X119599808Y-197992078D01*
G37*
G36*
X120869808Y-197992078D02*
G01*
X120935969Y-198012149D01*
X120935972Y-198012150D01*
X120996949Y-198044742D01*
X121010323Y-198055718D01*
X121050396Y-198088604D01*
X121071826Y-198114718D01*
X121094258Y-198142051D01*
X121126850Y-198203028D01*
X121126851Y-198203031D01*
X121146922Y-198269191D01*
X121152000Y-198320756D01*
X121152000Y-199755244D01*
X121146922Y-199806809D01*
X121126851Y-199872969D01*
X121126850Y-199872972D01*
X121094258Y-199933949D01*
X121082777Y-199947938D01*
X121050396Y-199987396D01*
X121000346Y-200028469D01*
X120996948Y-200031258D01*
X120935971Y-200063850D01*
X120935969Y-200063851D01*
X120869808Y-200083922D01*
X120806661Y-200090140D01*
X120801000Y-200090698D01*
X120800999Y-200090698D01*
X120732192Y-200083922D01*
X120666031Y-200063851D01*
X120666028Y-200063850D01*
X120605051Y-200031258D01*
X120591062Y-200019777D01*
X120551604Y-199987396D01*
X120507743Y-199933949D01*
X120475149Y-199872969D01*
X120455078Y-199806808D01*
X120450000Y-199755244D01*
X120450001Y-198320756D01*
X120455079Y-198269191D01*
X120475150Y-198203031D01*
X120475151Y-198203028D01*
X120507743Y-198142051D01*
X120530175Y-198114718D01*
X120551605Y-198088604D01*
X120591678Y-198055718D01*
X120605052Y-198044742D01*
X120666029Y-198012150D01*
X120666032Y-198012149D01*
X120732192Y-197992078D01*
X120795339Y-197985860D01*
X120801000Y-197985302D01*
X120801001Y-197985302D01*
X120869808Y-197992078D01*
X120869808Y-197992078D01*
G37*
G36*
X122139808Y-197992078D02*
G01*
X122205969Y-198012149D01*
X122205972Y-198012150D01*
X122266949Y-198044742D01*
X122280323Y-198055718D01*
X122320396Y-198088604D01*
X122341826Y-198114718D01*
X122364258Y-198142051D01*
X122396850Y-198203028D01*
X122396851Y-198203031D01*
X122416922Y-198269191D01*
X122422000Y-198320756D01*
X122422000Y-199755244D01*
X122416922Y-199806809D01*
X122396851Y-199872969D01*
X122396850Y-199872972D01*
X122364258Y-199933949D01*
X122352777Y-199947938D01*
X122320396Y-199987396D01*
X122270346Y-200028469D01*
X122266948Y-200031258D01*
X122205971Y-200063850D01*
X122205969Y-200063851D01*
X122139808Y-200083922D01*
X122076661Y-200090140D01*
X122071000Y-200090698D01*
X122070999Y-200090698D01*
X122002192Y-200083922D01*
X121936031Y-200063851D01*
X121936028Y-200063850D01*
X121875051Y-200031258D01*
X121861062Y-200019777D01*
X121821604Y-199987396D01*
X121777743Y-199933949D01*
X121745149Y-199872969D01*
X121725078Y-199806808D01*
X121720000Y-199755244D01*
X121720001Y-198320756D01*
X121725079Y-198269191D01*
X121745150Y-198203031D01*
X121745151Y-198203028D01*
X121777743Y-198142051D01*
X121800175Y-198114718D01*
X121821605Y-198088604D01*
X121861678Y-198055718D01*
X121875052Y-198044742D01*
X121936029Y-198012150D01*
X121936032Y-198012149D01*
X122002192Y-197992078D01*
X122065339Y-197985860D01*
X122071000Y-197985302D01*
X122071001Y-197985302D01*
X122139808Y-197992078D01*
X122139808Y-197992078D01*
G37*
G36*
X123409808Y-197992078D02*
G01*
X123475969Y-198012149D01*
X123475972Y-198012150D01*
X123536949Y-198044742D01*
X123550323Y-198055718D01*
X123590396Y-198088604D01*
X123611826Y-198114718D01*
X123634258Y-198142051D01*
X123666850Y-198203028D01*
X123666851Y-198203031D01*
X123686922Y-198269191D01*
X123692000Y-198320756D01*
X123692000Y-199755244D01*
X123686922Y-199806809D01*
X123666851Y-199872969D01*
X123666850Y-199872972D01*
X123634258Y-199933949D01*
X123622777Y-199947938D01*
X123590396Y-199987396D01*
X123540346Y-200028469D01*
X123536948Y-200031258D01*
X123475971Y-200063850D01*
X123475969Y-200063851D01*
X123409808Y-200083922D01*
X123346661Y-200090140D01*
X123341000Y-200090698D01*
X123340999Y-200090698D01*
X123272192Y-200083922D01*
X123206031Y-200063851D01*
X123206028Y-200063850D01*
X123145051Y-200031258D01*
X123131062Y-200019777D01*
X123091604Y-199987396D01*
X123047743Y-199933949D01*
X123015149Y-199872969D01*
X122995078Y-199806808D01*
X122990000Y-199755244D01*
X122990001Y-198320756D01*
X122995079Y-198269191D01*
X123015150Y-198203031D01*
X123015151Y-198203028D01*
X123047743Y-198142051D01*
X123070175Y-198114718D01*
X123091605Y-198088604D01*
X123131678Y-198055718D01*
X123145052Y-198044742D01*
X123206029Y-198012150D01*
X123206032Y-198012149D01*
X123272192Y-197992078D01*
X123335339Y-197985860D01*
X123341000Y-197985302D01*
X123341001Y-197985302D01*
X123409808Y-197992078D01*
X123409808Y-197992078D01*
G37*
G36*
X95711674Y-198039465D02*
G01*
X95749367Y-198050899D01*
X95784103Y-198069466D01*
X95814548Y-198094452D01*
X95839534Y-198124897D01*
X95858101Y-198159633D01*
X95869535Y-198197326D01*
X95874000Y-198242661D01*
X95874000Y-199329339D01*
X95869535Y-199374674D01*
X95858101Y-199412367D01*
X95839534Y-199447103D01*
X95814548Y-199477548D01*
X95784103Y-199502534D01*
X95749367Y-199521101D01*
X95711674Y-199532535D01*
X95666339Y-199537000D01*
X94829661Y-199537000D01*
X94784326Y-199532535D01*
X94746633Y-199521101D01*
X94711897Y-199502534D01*
X94681452Y-199477548D01*
X94656466Y-199447103D01*
X94637899Y-199412367D01*
X94626465Y-199374674D01*
X94622000Y-199329339D01*
X94622000Y-198242661D01*
X94626465Y-198197326D01*
X94637899Y-198159633D01*
X94656466Y-198124897D01*
X94681452Y-198094452D01*
X94711897Y-198069466D01*
X94746633Y-198050899D01*
X94784326Y-198039465D01*
X94829661Y-198035000D01*
X95666339Y-198035000D01*
X95711674Y-198039465D01*
X95711674Y-198039465D01*
G37*
G36*
X93661674Y-198039465D02*
G01*
X93699367Y-198050899D01*
X93734103Y-198069466D01*
X93764548Y-198094452D01*
X93789534Y-198124897D01*
X93808101Y-198159633D01*
X93819535Y-198197326D01*
X93824000Y-198242661D01*
X93824000Y-199329339D01*
X93819535Y-199374674D01*
X93808101Y-199412367D01*
X93789534Y-199447103D01*
X93764548Y-199477548D01*
X93734103Y-199502534D01*
X93699367Y-199521101D01*
X93661674Y-199532535D01*
X93616339Y-199537000D01*
X92779661Y-199537000D01*
X92734326Y-199532535D01*
X92696633Y-199521101D01*
X92661897Y-199502534D01*
X92631452Y-199477548D01*
X92606466Y-199447103D01*
X92587899Y-199412367D01*
X92576465Y-199374674D01*
X92572000Y-199329339D01*
X92572000Y-198242661D01*
X92576465Y-198197326D01*
X92587899Y-198159633D01*
X92606466Y-198124897D01*
X92631452Y-198094452D01*
X92661897Y-198069466D01*
X92696633Y-198050899D01*
X92734326Y-198039465D01*
X92779661Y-198035000D01*
X93616339Y-198035000D01*
X93661674Y-198039465D01*
X93661674Y-198039465D01*
G37*
G36*
X121614499Y-196078445D02*
G01*
X121651995Y-196089820D01*
X121686554Y-196108292D01*
X121716847Y-196133153D01*
X121741708Y-196163446D01*
X121760180Y-196198005D01*
X121771555Y-196235501D01*
X121776000Y-196280638D01*
X121776000Y-197019362D01*
X121771555Y-197064499D01*
X121760180Y-197101995D01*
X121741708Y-197136554D01*
X121716847Y-197166847D01*
X121686554Y-197191708D01*
X121651995Y-197210180D01*
X121614499Y-197221555D01*
X121569362Y-197226000D01*
X120930638Y-197226000D01*
X120885501Y-197221555D01*
X120848005Y-197210180D01*
X120813446Y-197191708D01*
X120783153Y-197166847D01*
X120758292Y-197136554D01*
X120739820Y-197101995D01*
X120728445Y-197064499D01*
X120724000Y-197019362D01*
X120724000Y-196280638D01*
X120728445Y-196235501D01*
X120739820Y-196198005D01*
X120758292Y-196163446D01*
X120783153Y-196133153D01*
X120813446Y-196108292D01*
X120848005Y-196089820D01*
X120885501Y-196078445D01*
X120930638Y-196074000D01*
X121569362Y-196074000D01*
X121614499Y-196078445D01*
X121614499Y-196078445D01*
G37*
G36*
X119714499Y-196128445D02*
G01*
X119751995Y-196139820D01*
X119786554Y-196158292D01*
X119816847Y-196183153D01*
X119841708Y-196213446D01*
X119860180Y-196248005D01*
X119871555Y-196285501D01*
X119876000Y-196330638D01*
X119876000Y-196969362D01*
X119871555Y-197014499D01*
X119860180Y-197051995D01*
X119841708Y-197086554D01*
X119816847Y-197116847D01*
X119786554Y-197141708D01*
X119751995Y-197160180D01*
X119714499Y-197171555D01*
X119669362Y-197176000D01*
X118930638Y-197176000D01*
X118885501Y-197171555D01*
X118848005Y-197160180D01*
X118813446Y-197141708D01*
X118783153Y-197116847D01*
X118758292Y-197086554D01*
X118739820Y-197051995D01*
X118728445Y-197014499D01*
X118724000Y-196969362D01*
X118724000Y-196330638D01*
X118728445Y-196285501D01*
X118739820Y-196248005D01*
X118758292Y-196213446D01*
X118783153Y-196183153D01*
X118813446Y-196158292D01*
X118848005Y-196139820D01*
X118885501Y-196128445D01*
X118930638Y-196124000D01*
X119669362Y-196124000D01*
X119714499Y-196128445D01*
X119714499Y-196128445D01*
G37*
G36*
X117964499Y-196128445D02*
G01*
X118001995Y-196139820D01*
X118036554Y-196158292D01*
X118066847Y-196183153D01*
X118091708Y-196213446D01*
X118110180Y-196248005D01*
X118121555Y-196285501D01*
X118126000Y-196330638D01*
X118126000Y-196969362D01*
X118121555Y-197014499D01*
X118110180Y-197051995D01*
X118091708Y-197086554D01*
X118066847Y-197116847D01*
X118036554Y-197141708D01*
X118001995Y-197160180D01*
X117964499Y-197171555D01*
X117919362Y-197176000D01*
X117180638Y-197176000D01*
X117135501Y-197171555D01*
X117098005Y-197160180D01*
X117063446Y-197141708D01*
X117033153Y-197116847D01*
X117008292Y-197086554D01*
X116989820Y-197051995D01*
X116978445Y-197014499D01*
X116974000Y-196969362D01*
X116974000Y-196330638D01*
X116978445Y-196285501D01*
X116989820Y-196248005D01*
X117008292Y-196213446D01*
X117033153Y-196183153D01*
X117063446Y-196158292D01*
X117098005Y-196139820D01*
X117135501Y-196128445D01*
X117180638Y-196124000D01*
X117919362Y-196124000D01*
X117964499Y-196128445D01*
X117964499Y-196128445D01*
G37*
G36*
X110243312Y-195030887D02*
G01*
X110333039Y-195058106D01*
X110415731Y-195102306D01*
X110488211Y-195161789D01*
X110547694Y-195234269D01*
X110591894Y-195316961D01*
X110619113Y-195406688D01*
X110628303Y-195500000D01*
X110619113Y-195593312D01*
X110591894Y-195683039D01*
X110547694Y-195765731D01*
X110503394Y-195819711D01*
X110489786Y-195840077D01*
X110480408Y-195862716D01*
X110475628Y-195886749D01*
X110475628Y-195911253D01*
X110480408Y-195935286D01*
X110489786Y-195957925D01*
X110503400Y-195978300D01*
X110520727Y-195995627D01*
X110541101Y-196009240D01*
X110563740Y-196018618D01*
X110600025Y-196024000D01*
X110626000Y-196024000D01*
X110626000Y-196976000D01*
X109674000Y-196976000D01*
X109674000Y-196024000D01*
X109699975Y-196024000D01*
X109724361Y-196021598D01*
X109747810Y-196014485D01*
X109769421Y-196002934D01*
X109788363Y-195987389D01*
X109803908Y-195968447D01*
X109815459Y-195946836D01*
X109822572Y-195923387D01*
X109824974Y-195899001D01*
X109822572Y-195874615D01*
X109815459Y-195851166D01*
X109796604Y-195819708D01*
X109752306Y-195765731D01*
X109708106Y-195683039D01*
X109680887Y-195593312D01*
X109671697Y-195500000D01*
X109680887Y-195406688D01*
X109708106Y-195316961D01*
X109752306Y-195234269D01*
X109811789Y-195161789D01*
X109884269Y-195102306D01*
X109966961Y-195058106D01*
X110056688Y-195030887D01*
X110126616Y-195024000D01*
X110173384Y-195024000D01*
X110243312Y-195030887D01*
X110243312Y-195030887D01*
G37*
G36*
X101563062Y-195078181D02*
G01*
X101597981Y-195088774D01*
X101630163Y-195105976D01*
X101658373Y-195129127D01*
X101681524Y-195157337D01*
X101698726Y-195189519D01*
X101709319Y-195224438D01*
X101713500Y-195266895D01*
X101713500Y-196733105D01*
X101709319Y-196775562D01*
X101698726Y-196810481D01*
X101681524Y-196842663D01*
X101658373Y-196870873D01*
X101630163Y-196894024D01*
X101597981Y-196911226D01*
X101563062Y-196921819D01*
X101520605Y-196926000D01*
X100379395Y-196926000D01*
X100336938Y-196921819D01*
X100302019Y-196911226D01*
X100269837Y-196894024D01*
X100241627Y-196870873D01*
X100218476Y-196842663D01*
X100201274Y-196810481D01*
X100190681Y-196775562D01*
X100186500Y-196733105D01*
X100186500Y-195266895D01*
X100190681Y-195224438D01*
X100201274Y-195189519D01*
X100218476Y-195157337D01*
X100241627Y-195129127D01*
X100269837Y-195105976D01*
X100302019Y-195088774D01*
X100336938Y-195078181D01*
X100379395Y-195074000D01*
X101520605Y-195074000D01*
X101563062Y-195078181D01*
X101563062Y-195078181D01*
G37*
G36*
X98588062Y-195078181D02*
G01*
X98622981Y-195088774D01*
X98655163Y-195105976D01*
X98683373Y-195129127D01*
X98706524Y-195157337D01*
X98723726Y-195189519D01*
X98734319Y-195224438D01*
X98738500Y-195266895D01*
X98738500Y-196733105D01*
X98734319Y-196775562D01*
X98723726Y-196810481D01*
X98706524Y-196842663D01*
X98683373Y-196870873D01*
X98655163Y-196894024D01*
X98622981Y-196911226D01*
X98588062Y-196921819D01*
X98545605Y-196926000D01*
X97404395Y-196926000D01*
X97361938Y-196921819D01*
X97327019Y-196911226D01*
X97294837Y-196894024D01*
X97266627Y-196870873D01*
X97243476Y-196842663D01*
X97226274Y-196810481D01*
X97215681Y-196775562D01*
X97211500Y-196733105D01*
X97211500Y-195266895D01*
X97215681Y-195224438D01*
X97226274Y-195189519D01*
X97243476Y-195157337D01*
X97266627Y-195129127D01*
X97294837Y-195105976D01*
X97327019Y-195088774D01*
X97361938Y-195078181D01*
X97404395Y-195074000D01*
X98545605Y-195074000D01*
X98588062Y-195078181D01*
X98588062Y-195078181D01*
G37*
G36*
X123051000Y-196901000D02*
G01*
X122349000Y-196901000D01*
X122349000Y-196099000D01*
X123051000Y-196099000D01*
X123051000Y-196901000D01*
X123051000Y-196901000D01*
G37*
G36*
X124451000Y-196901000D02*
G01*
X123749000Y-196901000D01*
X123749000Y-196099000D01*
X124451000Y-196099000D01*
X124451000Y-196901000D01*
X124451000Y-196901000D01*
G37*
G36*
X118063674Y-194153465D02*
G01*
X118101367Y-194164899D01*
X118136103Y-194183466D01*
X118166548Y-194208452D01*
X118191534Y-194238897D01*
X118210101Y-194273633D01*
X118221535Y-194311326D01*
X118226000Y-194356661D01*
X118226000Y-195443339D01*
X118221535Y-195488674D01*
X118210101Y-195526367D01*
X118191534Y-195561103D01*
X118166548Y-195591548D01*
X118136103Y-195616534D01*
X118101367Y-195635101D01*
X118063674Y-195646535D01*
X118018339Y-195651000D01*
X117181661Y-195651000D01*
X117136326Y-195646535D01*
X117098633Y-195635101D01*
X117063897Y-195616534D01*
X117033452Y-195591548D01*
X117008466Y-195561103D01*
X116989899Y-195526367D01*
X116978465Y-195488674D01*
X116974000Y-195443339D01*
X116974000Y-194356661D01*
X116978465Y-194311326D01*
X116989899Y-194273633D01*
X117008466Y-194238897D01*
X117033452Y-194208452D01*
X117063897Y-194183466D01*
X117098633Y-194164899D01*
X117136326Y-194153465D01*
X117181661Y-194149000D01*
X118018339Y-194149000D01*
X118063674Y-194153465D01*
X118063674Y-194153465D01*
G37*
G36*
X120113674Y-194153465D02*
G01*
X120151367Y-194164899D01*
X120186103Y-194183466D01*
X120216548Y-194208452D01*
X120241534Y-194238897D01*
X120260101Y-194273633D01*
X120271535Y-194311326D01*
X120276000Y-194356661D01*
X120276000Y-195443339D01*
X120271535Y-195488674D01*
X120260101Y-195526367D01*
X120241534Y-195561103D01*
X120216548Y-195591548D01*
X120186103Y-195616534D01*
X120151367Y-195635101D01*
X120113674Y-195646535D01*
X120068339Y-195651000D01*
X119231661Y-195651000D01*
X119186326Y-195646535D01*
X119148633Y-195635101D01*
X119113897Y-195616534D01*
X119083452Y-195591548D01*
X119058466Y-195561103D01*
X119039899Y-195526367D01*
X119028465Y-195488674D01*
X119024000Y-195443339D01*
X119024000Y-194356661D01*
X119028465Y-194311326D01*
X119039899Y-194273633D01*
X119058466Y-194238897D01*
X119083452Y-194208452D01*
X119113897Y-194183466D01*
X119148633Y-194164899D01*
X119186326Y-194153465D01*
X119231661Y-194149000D01*
X120068339Y-194149000D01*
X120113674Y-194153465D01*
X120113674Y-194153465D01*
G37*
G36*
X121614499Y-194328445D02*
G01*
X121651995Y-194339820D01*
X121686554Y-194358292D01*
X121716847Y-194383153D01*
X121741708Y-194413446D01*
X121760180Y-194448005D01*
X121771555Y-194485501D01*
X121776000Y-194530638D01*
X121776000Y-195269362D01*
X121771555Y-195314499D01*
X121760180Y-195351995D01*
X121741708Y-195386554D01*
X121716847Y-195416847D01*
X121686554Y-195441708D01*
X121651995Y-195460180D01*
X121614499Y-195471555D01*
X121569362Y-195476000D01*
X120930638Y-195476000D01*
X120885501Y-195471555D01*
X120848005Y-195460180D01*
X120813446Y-195441708D01*
X120783153Y-195416847D01*
X120758292Y-195386554D01*
X120739820Y-195351995D01*
X120728445Y-195314499D01*
X120724000Y-195269362D01*
X120724000Y-194530638D01*
X120728445Y-194485501D01*
X120739820Y-194448005D01*
X120758292Y-194413446D01*
X120783153Y-194383153D01*
X120813446Y-194358292D01*
X120848005Y-194339820D01*
X120885501Y-194328445D01*
X120930638Y-194324000D01*
X121569362Y-194324000D01*
X121614499Y-194328445D01*
X121614499Y-194328445D01*
G37*
G36*
X124451000Y-195401000D02*
G01*
X123749000Y-195401000D01*
X123749000Y-194599000D01*
X124451000Y-194599000D01*
X124451000Y-195401000D01*
X124451000Y-195401000D01*
G37*
G36*
X123051000Y-195401000D02*
G01*
X122349000Y-195401000D01*
X122349000Y-194599000D01*
X123051000Y-194599000D01*
X123051000Y-195401000D01*
X123051000Y-195401000D01*
G37*
G36*
X101564499Y-193528445D02*
G01*
X101601995Y-193539820D01*
X101636554Y-193558292D01*
X101666847Y-193583153D01*
X101691708Y-193613446D01*
X101710180Y-193648005D01*
X101721555Y-193685501D01*
X101726000Y-193730638D01*
X101726000Y-194369362D01*
X101721555Y-194414499D01*
X101710180Y-194451995D01*
X101691708Y-194486554D01*
X101666847Y-194516847D01*
X101636554Y-194541708D01*
X101601995Y-194560180D01*
X101564499Y-194571555D01*
X101519362Y-194576000D01*
X100780638Y-194576000D01*
X100735501Y-194571555D01*
X100698005Y-194560180D01*
X100663446Y-194541708D01*
X100633153Y-194516847D01*
X100608292Y-194486554D01*
X100589820Y-194451995D01*
X100578445Y-194414499D01*
X100574000Y-194369362D01*
X100574000Y-193730638D01*
X100578445Y-193685501D01*
X100589820Y-193648005D01*
X100608292Y-193613446D01*
X100633153Y-193583153D01*
X100663446Y-193558292D01*
X100698005Y-193539820D01*
X100735501Y-193528445D01*
X100780638Y-193524000D01*
X101519362Y-193524000D01*
X101564499Y-193528445D01*
X101564499Y-193528445D01*
G37*
G36*
X99814499Y-193528445D02*
G01*
X99851995Y-193539820D01*
X99886554Y-193558292D01*
X99916847Y-193583153D01*
X99941708Y-193613446D01*
X99960180Y-193648005D01*
X99971555Y-193685501D01*
X99976000Y-193730638D01*
X99976000Y-194369362D01*
X99971555Y-194414499D01*
X99960180Y-194451995D01*
X99941708Y-194486554D01*
X99916847Y-194516847D01*
X99886554Y-194541708D01*
X99851995Y-194560180D01*
X99814499Y-194571555D01*
X99769362Y-194576000D01*
X99030638Y-194576000D01*
X98985501Y-194571555D01*
X98948005Y-194560180D01*
X98913446Y-194541708D01*
X98883153Y-194516847D01*
X98858292Y-194486554D01*
X98839820Y-194451995D01*
X98828445Y-194414499D01*
X98824000Y-194369362D01*
X98824000Y-193730638D01*
X98828445Y-193685501D01*
X98839820Y-193648005D01*
X98858292Y-193613446D01*
X98883153Y-193583153D01*
X98913446Y-193558292D01*
X98948005Y-193539820D01*
X98985501Y-193528445D01*
X99030638Y-193524000D01*
X99769362Y-193524000D01*
X99814499Y-193528445D01*
X99814499Y-193528445D01*
G37*
G36*
X97975562Y-192790681D02*
G01*
X98010481Y-192801274D01*
X98042663Y-192818476D01*
X98070873Y-192841627D01*
X98094024Y-192869837D01*
X98111226Y-192902019D01*
X98121819Y-192936938D01*
X98126000Y-192979395D01*
X98126000Y-194120605D01*
X98121819Y-194163062D01*
X98111226Y-194197981D01*
X98094024Y-194230163D01*
X98070873Y-194258373D01*
X98042663Y-194281524D01*
X98010481Y-194298726D01*
X97975562Y-194309319D01*
X97933105Y-194313500D01*
X96466895Y-194313500D01*
X96424438Y-194309319D01*
X96389519Y-194298726D01*
X96357337Y-194281524D01*
X96329127Y-194258373D01*
X96305976Y-194230163D01*
X96288774Y-194197981D01*
X96278181Y-194163062D01*
X96274000Y-194120605D01*
X96274000Y-192979395D01*
X96278181Y-192936938D01*
X96288774Y-192902019D01*
X96305976Y-192869837D01*
X96329127Y-192841627D01*
X96357337Y-192818476D01*
X96389519Y-192801274D01*
X96424438Y-192790681D01*
X96466895Y-192786500D01*
X97933105Y-192786500D01*
X97975562Y-192790681D01*
X97975562Y-192790681D01*
G37*
G36*
X122562499Y-192502445D02*
G01*
X122599995Y-192513820D01*
X122634554Y-192532292D01*
X122664847Y-192557153D01*
X122689708Y-192587446D01*
X122708180Y-192622005D01*
X122719555Y-192659501D01*
X122724000Y-192704638D01*
X122724000Y-193443362D01*
X122719555Y-193488499D01*
X122708180Y-193525995D01*
X122689708Y-193560554D01*
X122664847Y-193590847D01*
X122634554Y-193615708D01*
X122599995Y-193634180D01*
X122562499Y-193645555D01*
X122517362Y-193650000D01*
X121878638Y-193650000D01*
X121833501Y-193645555D01*
X121796005Y-193634180D01*
X121761446Y-193615708D01*
X121731153Y-193590847D01*
X121706292Y-193560554D01*
X121687820Y-193525995D01*
X121676445Y-193488499D01*
X121672000Y-193443362D01*
X121672000Y-192704638D01*
X121676445Y-192659501D01*
X121687820Y-192622005D01*
X121706292Y-192587446D01*
X121731153Y-192557153D01*
X121761446Y-192532292D01*
X121796005Y-192513820D01*
X121833501Y-192502445D01*
X121878638Y-192498000D01*
X122517362Y-192498000D01*
X122562499Y-192502445D01*
X122562499Y-192502445D01*
G37*
G36*
X120988674Y-192378465D02*
G01*
X121026367Y-192389899D01*
X121061103Y-192408466D01*
X121091548Y-192433452D01*
X121116534Y-192463897D01*
X121135101Y-192498633D01*
X121146535Y-192536326D01*
X121151000Y-192581661D01*
X121151000Y-193418339D01*
X121146535Y-193463674D01*
X121135101Y-193501367D01*
X121116534Y-193536103D01*
X121091548Y-193566548D01*
X121061103Y-193591534D01*
X121026367Y-193610101D01*
X120988674Y-193621535D01*
X120943339Y-193626000D01*
X119856661Y-193626000D01*
X119811326Y-193621535D01*
X119773633Y-193610101D01*
X119738897Y-193591534D01*
X119708452Y-193566548D01*
X119683466Y-193536103D01*
X119664899Y-193501367D01*
X119653465Y-193463674D01*
X119649000Y-193418339D01*
X119649000Y-192581661D01*
X119653465Y-192536326D01*
X119664899Y-192498633D01*
X119683466Y-192463897D01*
X119708452Y-192433452D01*
X119738897Y-192408466D01*
X119773633Y-192389899D01*
X119811326Y-192378465D01*
X119856661Y-192374000D01*
X120943339Y-192374000D01*
X120988674Y-192378465D01*
X120988674Y-192378465D01*
G37*
G36*
X116758295Y-192025323D02*
G01*
X116765309Y-192027451D01*
X116779077Y-192034810D01*
X116801716Y-192044187D01*
X116825749Y-192048967D01*
X116850253Y-192048967D01*
X116874286Y-192044186D01*
X116896923Y-192034810D01*
X116910691Y-192027451D01*
X116917705Y-192025323D01*
X116931140Y-192024000D01*
X117244860Y-192024000D01*
X117258295Y-192025323D01*
X117265309Y-192027451D01*
X117279077Y-192034810D01*
X117301716Y-192044187D01*
X117325749Y-192048967D01*
X117350253Y-192048967D01*
X117374286Y-192044186D01*
X117396923Y-192034810D01*
X117410691Y-192027451D01*
X117417705Y-192025323D01*
X117431140Y-192024000D01*
X117744860Y-192024000D01*
X117758295Y-192025323D01*
X117765309Y-192027451D01*
X117779077Y-192034810D01*
X117801716Y-192044187D01*
X117825749Y-192048967D01*
X117850253Y-192048967D01*
X117874286Y-192044186D01*
X117896923Y-192034810D01*
X117910691Y-192027451D01*
X117917705Y-192025323D01*
X117931140Y-192024000D01*
X118244860Y-192024000D01*
X118258295Y-192025323D01*
X118265309Y-192027451D01*
X118279077Y-192034810D01*
X118301716Y-192044187D01*
X118325749Y-192048967D01*
X118350253Y-192048967D01*
X118374286Y-192044186D01*
X118396923Y-192034810D01*
X118410691Y-192027451D01*
X118417705Y-192025323D01*
X118431140Y-192024000D01*
X118744860Y-192024000D01*
X118758295Y-192025323D01*
X118765310Y-192027451D01*
X118771776Y-192030908D01*
X118777442Y-192035558D01*
X118782092Y-192041224D01*
X118785549Y-192047690D01*
X118787677Y-192054705D01*
X118789000Y-192068140D01*
X118789000Y-193531860D01*
X118787677Y-193545295D01*
X118785549Y-193552310D01*
X118782092Y-193558776D01*
X118777442Y-193564442D01*
X118771776Y-193569092D01*
X118765310Y-193572549D01*
X118758295Y-193574677D01*
X118744860Y-193576000D01*
X118431140Y-193576000D01*
X118417705Y-193574677D01*
X118410691Y-193572549D01*
X118396923Y-193565190D01*
X118374284Y-193555813D01*
X118350251Y-193551033D01*
X118325747Y-193551033D01*
X118301714Y-193555814D01*
X118279077Y-193565190D01*
X118265309Y-193572549D01*
X118258295Y-193574677D01*
X118244860Y-193576000D01*
X117931140Y-193576000D01*
X117917705Y-193574677D01*
X117910691Y-193572549D01*
X117896923Y-193565190D01*
X117874284Y-193555813D01*
X117850251Y-193551033D01*
X117825747Y-193551033D01*
X117801714Y-193555814D01*
X117779077Y-193565190D01*
X117765309Y-193572549D01*
X117758295Y-193574677D01*
X117744860Y-193576000D01*
X117431140Y-193576000D01*
X117417705Y-193574677D01*
X117410691Y-193572549D01*
X117396923Y-193565190D01*
X117374284Y-193555813D01*
X117350251Y-193551033D01*
X117325747Y-193551033D01*
X117301714Y-193555814D01*
X117279077Y-193565190D01*
X117265309Y-193572549D01*
X117258295Y-193574677D01*
X117244860Y-193576000D01*
X116931140Y-193576000D01*
X116917705Y-193574677D01*
X116910691Y-193572549D01*
X116896923Y-193565190D01*
X116874284Y-193555813D01*
X116850251Y-193551033D01*
X116825747Y-193551033D01*
X116801714Y-193555814D01*
X116779077Y-193565190D01*
X116765309Y-193572549D01*
X116758295Y-193574677D01*
X116744860Y-193576000D01*
X116431140Y-193576000D01*
X116417705Y-193574677D01*
X116410690Y-193572549D01*
X116404224Y-193569092D01*
X116398558Y-193564442D01*
X116393908Y-193558776D01*
X116390451Y-193552310D01*
X116388323Y-193545295D01*
X116387000Y-193531860D01*
X116387000Y-192068140D01*
X116388323Y-192054705D01*
X116390451Y-192047690D01*
X116393908Y-192041224D01*
X116398558Y-192035558D01*
X116404224Y-192030908D01*
X116410690Y-192027451D01*
X116417705Y-192025323D01*
X116431140Y-192024000D01*
X116744860Y-192024000D01*
X116758295Y-192025323D01*
X116758295Y-192025323D01*
G37*
G36*
X124233642Y-191479781D02*
G01*
X124379414Y-191540162D01*
X124379416Y-191540163D01*
X124510608Y-191627822D01*
X124622178Y-191739392D01*
X124706579Y-191865708D01*
X124709838Y-191870586D01*
X124770219Y-192016358D01*
X124801000Y-192171107D01*
X124801000Y-192328893D01*
X124770219Y-192483642D01*
X124724890Y-192593075D01*
X124709837Y-192629416D01*
X124622178Y-192760608D01*
X124510608Y-192872178D01*
X124379416Y-192959837D01*
X124379415Y-192959838D01*
X124379414Y-192959838D01*
X124233642Y-193020219D01*
X124078893Y-193051000D01*
X123921107Y-193051000D01*
X123766358Y-193020219D01*
X123620586Y-192959838D01*
X123620585Y-192959838D01*
X123620584Y-192959837D01*
X123489392Y-192872178D01*
X123377822Y-192760608D01*
X123290163Y-192629416D01*
X123275110Y-192593075D01*
X123229781Y-192483642D01*
X123199000Y-192328893D01*
X123199000Y-192171107D01*
X123229781Y-192016358D01*
X123290162Y-191870586D01*
X123293421Y-191865708D01*
X123377822Y-191739392D01*
X123489392Y-191627822D01*
X123620584Y-191540163D01*
X123620586Y-191540162D01*
X123766358Y-191479781D01*
X123921107Y-191449000D01*
X124078893Y-191449000D01*
X124233642Y-191479781D01*
X124233642Y-191479781D01*
G37*
G36*
X99826000Y-192981000D02*
G01*
X99074000Y-192981000D01*
X99074000Y-191319000D01*
X99826000Y-191319000D01*
X99826000Y-192981000D01*
X99826000Y-192981000D01*
G37*
G36*
X101726000Y-192981000D02*
G01*
X100974000Y-192981000D01*
X100974000Y-191319000D01*
X101726000Y-191319000D01*
X101726000Y-192981000D01*
X101726000Y-192981000D01*
G37*
G36*
X122562499Y-190752445D02*
G01*
X122599995Y-190763820D01*
X122634554Y-190782292D01*
X122664847Y-190807153D01*
X122689708Y-190837446D01*
X122708180Y-190872005D01*
X122719555Y-190909501D01*
X122724000Y-190954638D01*
X122724000Y-191693362D01*
X122719555Y-191738499D01*
X122708180Y-191775995D01*
X122689708Y-191810554D01*
X122664847Y-191840847D01*
X122634554Y-191865708D01*
X122599995Y-191884180D01*
X122562499Y-191895555D01*
X122517362Y-191900000D01*
X121878638Y-191900000D01*
X121833501Y-191895555D01*
X121796005Y-191884180D01*
X121761446Y-191865708D01*
X121731153Y-191840847D01*
X121706292Y-191810554D01*
X121687820Y-191775995D01*
X121676445Y-191738499D01*
X121672000Y-191693362D01*
X121672000Y-190954638D01*
X121676445Y-190909501D01*
X121687820Y-190872005D01*
X121706292Y-190837446D01*
X121731153Y-190807153D01*
X121761446Y-190782292D01*
X121796005Y-190763820D01*
X121833501Y-190752445D01*
X121878638Y-190748000D01*
X122517362Y-190748000D01*
X122562499Y-190752445D01*
X122562499Y-190752445D01*
G37*
G36*
X120988674Y-190328465D02*
G01*
X121026367Y-190339899D01*
X121061103Y-190358466D01*
X121091548Y-190383452D01*
X121116534Y-190413897D01*
X121135101Y-190448633D01*
X121146535Y-190486326D01*
X121151000Y-190531661D01*
X121151000Y-191368339D01*
X121146535Y-191413674D01*
X121135101Y-191451367D01*
X121116534Y-191486103D01*
X121091548Y-191516548D01*
X121061103Y-191541534D01*
X121026367Y-191560101D01*
X120988674Y-191571535D01*
X120943339Y-191576000D01*
X119856661Y-191576000D01*
X119811326Y-191571535D01*
X119773633Y-191560101D01*
X119738897Y-191541534D01*
X119708452Y-191516548D01*
X119683466Y-191486103D01*
X119664899Y-191451367D01*
X119653465Y-191413674D01*
X119649000Y-191368339D01*
X119649000Y-190531661D01*
X119653465Y-190486326D01*
X119664899Y-190448633D01*
X119683466Y-190413897D01*
X119708452Y-190383452D01*
X119738897Y-190358466D01*
X119773633Y-190339899D01*
X119811326Y-190328465D01*
X119856661Y-190324000D01*
X120943339Y-190324000D01*
X120988674Y-190328465D01*
X120988674Y-190328465D01*
G37*
G36*
X118436104Y-189763001D02*
G01*
X118469271Y-189773062D01*
X118499829Y-189789396D01*
X118526619Y-189811381D01*
X118548604Y-189838171D01*
X118564938Y-189868729D01*
X118574999Y-189901896D01*
X118579000Y-189942522D01*
X118579000Y-191357478D01*
X118574999Y-191398104D01*
X118564938Y-191431271D01*
X118548604Y-191461829D01*
X118526619Y-191488619D01*
X118499829Y-191510604D01*
X118469271Y-191526938D01*
X118436104Y-191536999D01*
X118395478Y-191541000D01*
X116780522Y-191541000D01*
X116739896Y-191536999D01*
X116706729Y-191526938D01*
X116676171Y-191510604D01*
X116649381Y-191488619D01*
X116627396Y-191461829D01*
X116611062Y-191431271D01*
X116601001Y-191398104D01*
X116597000Y-191357478D01*
X116597000Y-189942522D01*
X116601001Y-189901896D01*
X116611062Y-189868729D01*
X116627396Y-189838171D01*
X116649381Y-189811381D01*
X116676171Y-189789396D01*
X116706729Y-189773062D01*
X116739896Y-189763001D01*
X116780522Y-189759000D01*
X118395478Y-189759000D01*
X118436104Y-189763001D01*
X118436104Y-189763001D01*
G37*
G36*
X97975562Y-189815681D02*
G01*
X98010481Y-189826274D01*
X98042663Y-189843476D01*
X98070873Y-189866627D01*
X98094024Y-189894837D01*
X98111226Y-189927019D01*
X98121819Y-189961938D01*
X98126000Y-190004395D01*
X98126000Y-191145605D01*
X98121819Y-191188062D01*
X98111226Y-191222981D01*
X98094024Y-191255163D01*
X98070873Y-191283373D01*
X98042663Y-191306524D01*
X98010481Y-191323726D01*
X97975562Y-191334319D01*
X97933105Y-191338500D01*
X96466895Y-191338500D01*
X96424438Y-191334319D01*
X96389519Y-191323726D01*
X96357337Y-191306524D01*
X96329127Y-191283373D01*
X96305976Y-191255163D01*
X96288774Y-191222981D01*
X96278181Y-191188062D01*
X96274000Y-191145605D01*
X96274000Y-190004395D01*
X96278181Y-189961938D01*
X96288774Y-189927019D01*
X96305976Y-189894837D01*
X96329127Y-189866627D01*
X96357337Y-189843476D01*
X96389519Y-189826274D01*
X96424438Y-189815681D01*
X96466895Y-189811500D01*
X97933105Y-189811500D01*
X97975562Y-189815681D01*
X97975562Y-189815681D01*
G37*
G36*
X101726000Y-190281000D02*
G01*
X99074000Y-190281000D01*
X99074000Y-188619000D01*
X101726000Y-188619000D01*
X101726000Y-190281000D01*
X101726000Y-190281000D01*
G37*
G36*
X120530499Y-188720445D02*
G01*
X120567995Y-188731820D01*
X120602554Y-188750292D01*
X120632847Y-188775153D01*
X120657708Y-188805446D01*
X120676180Y-188840005D01*
X120687555Y-188877501D01*
X120692000Y-188922638D01*
X120692000Y-189661362D01*
X120687555Y-189706499D01*
X120676180Y-189743995D01*
X120657708Y-189778554D01*
X120632847Y-189808847D01*
X120602554Y-189833708D01*
X120567995Y-189852180D01*
X120530499Y-189863555D01*
X120485362Y-189868000D01*
X119846638Y-189868000D01*
X119801501Y-189863555D01*
X119764005Y-189852180D01*
X119729446Y-189833708D01*
X119699153Y-189808847D01*
X119674292Y-189778554D01*
X119655820Y-189743995D01*
X119644445Y-189706499D01*
X119640000Y-189661362D01*
X119640000Y-188922638D01*
X119644445Y-188877501D01*
X119655820Y-188840005D01*
X119674292Y-188805446D01*
X119699153Y-188775153D01*
X119729446Y-188750292D01*
X119764005Y-188731820D01*
X119801501Y-188720445D01*
X119846638Y-188716000D01*
X120485362Y-188716000D01*
X120530499Y-188720445D01*
X120530499Y-188720445D01*
G37*
G36*
X116758295Y-187725323D02*
G01*
X116765309Y-187727451D01*
X116779077Y-187734810D01*
X116801716Y-187744187D01*
X116825749Y-187748967D01*
X116850253Y-187748967D01*
X116874286Y-187744186D01*
X116896923Y-187734810D01*
X116910691Y-187727451D01*
X116917705Y-187725323D01*
X116931140Y-187724000D01*
X117244860Y-187724000D01*
X117258295Y-187725323D01*
X117265309Y-187727451D01*
X117279077Y-187734810D01*
X117301716Y-187744187D01*
X117325749Y-187748967D01*
X117350253Y-187748967D01*
X117374286Y-187744186D01*
X117396923Y-187734810D01*
X117410691Y-187727451D01*
X117417705Y-187725323D01*
X117431140Y-187724000D01*
X117744860Y-187724000D01*
X117758295Y-187725323D01*
X117765309Y-187727451D01*
X117779077Y-187734810D01*
X117801716Y-187744187D01*
X117825749Y-187748967D01*
X117850253Y-187748967D01*
X117874286Y-187744186D01*
X117896923Y-187734810D01*
X117910691Y-187727451D01*
X117917705Y-187725323D01*
X117931140Y-187724000D01*
X118244860Y-187724000D01*
X118258295Y-187725323D01*
X118265309Y-187727451D01*
X118279077Y-187734810D01*
X118301716Y-187744187D01*
X118325749Y-187748967D01*
X118350253Y-187748967D01*
X118374286Y-187744186D01*
X118396923Y-187734810D01*
X118410691Y-187727451D01*
X118417705Y-187725323D01*
X118431140Y-187724000D01*
X118744860Y-187724000D01*
X118758295Y-187725323D01*
X118765310Y-187727451D01*
X118771776Y-187730908D01*
X118777442Y-187735558D01*
X118782092Y-187741224D01*
X118785549Y-187747690D01*
X118787677Y-187754705D01*
X118789000Y-187768140D01*
X118789000Y-189231860D01*
X118787677Y-189245295D01*
X118785549Y-189252310D01*
X118782092Y-189258776D01*
X118777442Y-189264442D01*
X118771776Y-189269092D01*
X118765310Y-189272549D01*
X118758295Y-189274677D01*
X118744860Y-189276000D01*
X118431140Y-189276000D01*
X118417705Y-189274677D01*
X118410691Y-189272549D01*
X118396923Y-189265190D01*
X118374284Y-189255813D01*
X118350251Y-189251033D01*
X118325747Y-189251033D01*
X118301714Y-189255814D01*
X118279077Y-189265190D01*
X118265309Y-189272549D01*
X118258295Y-189274677D01*
X118244860Y-189276000D01*
X117931140Y-189276000D01*
X117917705Y-189274677D01*
X117910691Y-189272549D01*
X117896923Y-189265190D01*
X117874284Y-189255813D01*
X117850251Y-189251033D01*
X117825747Y-189251033D01*
X117801714Y-189255814D01*
X117779077Y-189265190D01*
X117765309Y-189272549D01*
X117758295Y-189274677D01*
X117744860Y-189276000D01*
X117431140Y-189276000D01*
X117417705Y-189274677D01*
X117410691Y-189272549D01*
X117396923Y-189265190D01*
X117374284Y-189255813D01*
X117350251Y-189251033D01*
X117325747Y-189251033D01*
X117301714Y-189255814D01*
X117279077Y-189265190D01*
X117265309Y-189272549D01*
X117258295Y-189274677D01*
X117244860Y-189276000D01*
X116931140Y-189276000D01*
X116917705Y-189274677D01*
X116910691Y-189272549D01*
X116896923Y-189265190D01*
X116874284Y-189255813D01*
X116850251Y-189251033D01*
X116825747Y-189251033D01*
X116801714Y-189255814D01*
X116779077Y-189265190D01*
X116765309Y-189272549D01*
X116758295Y-189274677D01*
X116744860Y-189276000D01*
X116431140Y-189276000D01*
X116417705Y-189274677D01*
X116410690Y-189272549D01*
X116404224Y-189269092D01*
X116398558Y-189264442D01*
X116393908Y-189258776D01*
X116390451Y-189252310D01*
X116388323Y-189245295D01*
X116387000Y-189231860D01*
X116387000Y-187768140D01*
X116388323Y-187754705D01*
X116390451Y-187747690D01*
X116393908Y-187741224D01*
X116398558Y-187735558D01*
X116404224Y-187730908D01*
X116410690Y-187727451D01*
X116417705Y-187725323D01*
X116431140Y-187724000D01*
X116744860Y-187724000D01*
X116758295Y-187725323D01*
X116758295Y-187725323D01*
G37*
G36*
X115184349Y-187175558D02*
G01*
X115221845Y-187186933D01*
X115256404Y-187205405D01*
X115286697Y-187230266D01*
X115311558Y-187260559D01*
X115330030Y-187295118D01*
X115341405Y-187332614D01*
X115345850Y-187377751D01*
X115345850Y-188016475D01*
X115341405Y-188061612D01*
X115330030Y-188099108D01*
X115311558Y-188133667D01*
X115286697Y-188163960D01*
X115256404Y-188188821D01*
X115221845Y-188207293D01*
X115184349Y-188218668D01*
X115139212Y-188223113D01*
X114400488Y-188223113D01*
X114355351Y-188218668D01*
X114317855Y-188207293D01*
X114283296Y-188188821D01*
X114253003Y-188163960D01*
X114228142Y-188133667D01*
X114209670Y-188099108D01*
X114198295Y-188061612D01*
X114193850Y-188016475D01*
X114193850Y-187377751D01*
X114198295Y-187332614D01*
X114209670Y-187295118D01*
X114228142Y-187260559D01*
X114253003Y-187230266D01*
X114283296Y-187205405D01*
X114317855Y-187186933D01*
X114355351Y-187175558D01*
X114400488Y-187171113D01*
X115139212Y-187171113D01*
X115184349Y-187175558D01*
X115184349Y-187175558D01*
G37*
G36*
X113434349Y-187175558D02*
G01*
X113471845Y-187186933D01*
X113506404Y-187205405D01*
X113536697Y-187230266D01*
X113561558Y-187260559D01*
X113580030Y-187295118D01*
X113591405Y-187332614D01*
X113595850Y-187377751D01*
X113595850Y-188016475D01*
X113591405Y-188061612D01*
X113580030Y-188099108D01*
X113561558Y-188133667D01*
X113536697Y-188163960D01*
X113506404Y-188188821D01*
X113471845Y-188207293D01*
X113434349Y-188218668D01*
X113389212Y-188223113D01*
X112650488Y-188223113D01*
X112605351Y-188218668D01*
X112567855Y-188207293D01*
X112533296Y-188188821D01*
X112503003Y-188163960D01*
X112478142Y-188133667D01*
X112459670Y-188099108D01*
X112448295Y-188061612D01*
X112443850Y-188016475D01*
X112443850Y-187377751D01*
X112448295Y-187332614D01*
X112459670Y-187295118D01*
X112478142Y-187260559D01*
X112503003Y-187230266D01*
X112533296Y-187205405D01*
X112567855Y-187186933D01*
X112605351Y-187175558D01*
X112650488Y-187171113D01*
X113389212Y-187171113D01*
X113434349Y-187175558D01*
X113434349Y-187175558D01*
G37*
G36*
X120530499Y-186970445D02*
G01*
X120567995Y-186981820D01*
X120602554Y-187000292D01*
X120632847Y-187025153D01*
X120657708Y-187055446D01*
X120676180Y-187090005D01*
X120687555Y-187127501D01*
X120692000Y-187172638D01*
X120692000Y-187911362D01*
X120687555Y-187956499D01*
X120676180Y-187993995D01*
X120657708Y-188028554D01*
X120632847Y-188058847D01*
X120602554Y-188083708D01*
X120567995Y-188102180D01*
X120530499Y-188113555D01*
X120485362Y-188118000D01*
X119846638Y-188118000D01*
X119801501Y-188113555D01*
X119764005Y-188102180D01*
X119729446Y-188083708D01*
X119699153Y-188058847D01*
X119674292Y-188028554D01*
X119655820Y-187993995D01*
X119644445Y-187956499D01*
X119640000Y-187911362D01*
X119640000Y-187172638D01*
X119644445Y-187127501D01*
X119655820Y-187090005D01*
X119674292Y-187055446D01*
X119699153Y-187025153D01*
X119729446Y-187000292D01*
X119764005Y-186981820D01*
X119801501Y-186970445D01*
X119846638Y-186966000D01*
X120485362Y-186966000D01*
X120530499Y-186970445D01*
X120530499Y-186970445D01*
G37*
G36*
X115184349Y-185588058D02*
G01*
X115221845Y-185599433D01*
X115256404Y-185617905D01*
X115286697Y-185642766D01*
X115311558Y-185673059D01*
X115330030Y-185707618D01*
X115341405Y-185745114D01*
X115345850Y-185790251D01*
X115345850Y-186428975D01*
X115341405Y-186474112D01*
X115330030Y-186511608D01*
X115311558Y-186546167D01*
X115286697Y-186576460D01*
X115256404Y-186601321D01*
X115221845Y-186619793D01*
X115184349Y-186631168D01*
X115139212Y-186635613D01*
X114400488Y-186635613D01*
X114355351Y-186631168D01*
X114317855Y-186619793D01*
X114283296Y-186601321D01*
X114253003Y-186576460D01*
X114228142Y-186546167D01*
X114209670Y-186511608D01*
X114198295Y-186474112D01*
X114193850Y-186428975D01*
X114193850Y-185790251D01*
X114198295Y-185745114D01*
X114209670Y-185707618D01*
X114228142Y-185673059D01*
X114253003Y-185642766D01*
X114283296Y-185617905D01*
X114317855Y-185599433D01*
X114355351Y-185588058D01*
X114400488Y-185583613D01*
X115139212Y-185583613D01*
X115184349Y-185588058D01*
X115184349Y-185588058D01*
G37*
G36*
X113434349Y-185588058D02*
G01*
X113471845Y-185599433D01*
X113506404Y-185617905D01*
X113536697Y-185642766D01*
X113561558Y-185673059D01*
X113580030Y-185707618D01*
X113591405Y-185745114D01*
X113595850Y-185790251D01*
X113595850Y-186428975D01*
X113591405Y-186474112D01*
X113580030Y-186511608D01*
X113561558Y-186546167D01*
X113536697Y-186576460D01*
X113506404Y-186601321D01*
X113471845Y-186619793D01*
X113434349Y-186631168D01*
X113389212Y-186635613D01*
X112650488Y-186635613D01*
X112605351Y-186631168D01*
X112567855Y-186619793D01*
X112533296Y-186601321D01*
X112503003Y-186576460D01*
X112478142Y-186546167D01*
X112459670Y-186511608D01*
X112448295Y-186474112D01*
X112443850Y-186428975D01*
X112443850Y-185790251D01*
X112448295Y-185745114D01*
X112459670Y-185707618D01*
X112478142Y-185673059D01*
X112503003Y-185642766D01*
X112533296Y-185617905D01*
X112567855Y-185599433D01*
X112605351Y-185588058D01*
X112650488Y-185583613D01*
X113389212Y-185583613D01*
X113434349Y-185588058D01*
X113434349Y-185588058D01*
G37*
G36*
X115184348Y-184000557D02*
G01*
X115221844Y-184011932D01*
X115256403Y-184030404D01*
X115286696Y-184055265D01*
X115311557Y-184085558D01*
X115330029Y-184120117D01*
X115341404Y-184157613D01*
X115345849Y-184202750D01*
X115345849Y-184841474D01*
X115341404Y-184886611D01*
X115330029Y-184924107D01*
X115311557Y-184958666D01*
X115286696Y-184988959D01*
X115256403Y-185013820D01*
X115221844Y-185032292D01*
X115184348Y-185043667D01*
X115139211Y-185048112D01*
X114400487Y-185048112D01*
X114355350Y-185043667D01*
X114317854Y-185032292D01*
X114283295Y-185013820D01*
X114253002Y-184988959D01*
X114228141Y-184958666D01*
X114209669Y-184924107D01*
X114198294Y-184886611D01*
X114193849Y-184841474D01*
X114193849Y-184202750D01*
X114198294Y-184157613D01*
X114209669Y-184120117D01*
X114228141Y-184085558D01*
X114253002Y-184055265D01*
X114283295Y-184030404D01*
X114317854Y-184011932D01*
X114355350Y-184000557D01*
X114400487Y-183996112D01*
X115139211Y-183996112D01*
X115184348Y-184000557D01*
X115184348Y-184000557D01*
G37*
G36*
X113434348Y-184000557D02*
G01*
X113471844Y-184011932D01*
X113506403Y-184030404D01*
X113536696Y-184055265D01*
X113561557Y-184085558D01*
X113580029Y-184120117D01*
X113591404Y-184157613D01*
X113595849Y-184202750D01*
X113595849Y-184841474D01*
X113591404Y-184886611D01*
X113580029Y-184924107D01*
X113561557Y-184958666D01*
X113536696Y-184988959D01*
X113506403Y-185013820D01*
X113471844Y-185032292D01*
X113434348Y-185043667D01*
X113389211Y-185048112D01*
X112650487Y-185048112D01*
X112605350Y-185043667D01*
X112567854Y-185032292D01*
X112533295Y-185013820D01*
X112503002Y-184988959D01*
X112478141Y-184958666D01*
X112459669Y-184924107D01*
X112448294Y-184886611D01*
X112443849Y-184841474D01*
X112443849Y-184202750D01*
X112448294Y-184157613D01*
X112459669Y-184120117D01*
X112478141Y-184085558D01*
X112503002Y-184055265D01*
X112533295Y-184030404D01*
X112567854Y-184011932D01*
X112605350Y-184000557D01*
X112650487Y-183996112D01*
X113389211Y-183996112D01*
X113434348Y-184000557D01*
X113434348Y-184000557D01*
G37*
G36*
X110879487Y-181248996D02*
G01*
X111116253Y-181347068D01*
X111116255Y-181347069D01*
X111329339Y-181489447D01*
X111510553Y-181670661D01*
X111652932Y-181883747D01*
X111751004Y-182120513D01*
X111801000Y-182371861D01*
X111801000Y-182628139D01*
X111751004Y-182879487D01*
X111652932Y-183116253D01*
X111652931Y-183116255D01*
X111510553Y-183329339D01*
X111329339Y-183510553D01*
X111116255Y-183652931D01*
X111116254Y-183652932D01*
X111116253Y-183652932D01*
X110879487Y-183751004D01*
X110628139Y-183801000D01*
X110371861Y-183801000D01*
X110120513Y-183751004D01*
X109883747Y-183652932D01*
X109883746Y-183652932D01*
X109883745Y-183652931D01*
X109670661Y-183510553D01*
X109489447Y-183329339D01*
X109347069Y-183116255D01*
X109347068Y-183116253D01*
X109248996Y-182879487D01*
X109199000Y-182628139D01*
X109199000Y-182371861D01*
X109248996Y-182120513D01*
X109347068Y-181883747D01*
X109489447Y-181670661D01*
X109670661Y-181489447D01*
X109883745Y-181347069D01*
X109883747Y-181347068D01*
X110120513Y-181248996D01*
X110371861Y-181199000D01*
X110628139Y-181199000D01*
X110879487Y-181248996D01*
X110879487Y-181248996D01*
G37*
M02*
