G04 #@! TF.GenerationSoftware,KiCad,Pcbnew,(5.1.4)-1*
G04 #@! TF.CreationDate,2020-03-22T15:02:08+01:00*
G04 #@! TF.ProjectId,LSA00,4c534130-302e-46b6-9963-61645f706362,rev?*
G04 #@! TF.SameCoordinates,Original*
G04 #@! TF.FileFunction,Profile,NP*
%FSLAX46Y46*%
G04 Gerber Fmt 4.6, Leading zero omitted, Abs format (unit mm)*
G04 Created by KiCad (PCBNEW (5.1.4)-1) date 2020-03-22 15:02:08*
%MOMM*%
%LPD*%
G04 APERTURE LIST*
%ADD10C,0.050000*%
G04 APERTURE END LIST*
D10*
X88000000Y-202000000D02*
G75*
G02X132000000Y-202000000I22000000J0D01*
G01*
X132000000Y-224000000D02*
X132000000Y-202000000D01*
X88000000Y-224000000D02*
X132000000Y-224000000D01*
X88000000Y-202000000D02*
X88000000Y-224000000D01*
M02*
